	[-177.7924435659025, 201.5961021679099, 1058.35806500686]
	[-177.7924435659025, 201.5961021679099, 1058.35806500686]
	[-177.5869579582133, 201.5224558219942, 1058.754242400325]
	[-177.7099598218803, 201.6134682756961, 1058.395589435566]
	[-177.9500196395804, 201.3186649931494, 1058.828610284906]
	[-177.7754346839278, 201.6090775096604, 1058.393554961975]
	[-177.7946704837539, 201.5284651803298, 1058.487983649806]
	[-178.1491258499703, 201.6945580795743, 1058.006274356317]
	[-177.9571899776417, 201.5460066966815, 1058.504933481854]
	[-177.7202791705598, 201.6202910237281, 1058.418484008288]
	[-177.8460396466843, 201.9309168378032, 1057.822869935923]
	[-177.6766473236027, 201.7709519587683, 1058.191294532732]
	[-177.9285520810149, 201.5545791549604, 1058.518631224023]
	[-177.7705522529823, 201.3501863935923, 1058.90823799162]
	[-177.9946626960319, 201.7906948402945, 1057.945048928925]
	[-177.8433087292697, 201.7529787198341, 1058.145587491529]
	[-178.296909135375, 201.7447859716594, 1057.926614528398]
	[-177.8850871003972, 201.7483085456242, 1058.246318493548]
	[-177.6009286027381, 201.7058753817628, 1058.339622407175]
	[-178.0489703738414, 201.829729328422, 1057.865257969488]
	[-177.7754346839278, 201.6090775096604, 1058.393554961975]
	[-177.9759242701504, 201.6558948003153, 1058.309686231516]
	[-177.9149399914761, 201.7415497017683, 1058.113649754705]
	[-177.8822741539593, 201.7483004479569, 1058.247429487362]
	[-177.7584286246735, 201.7657161396519, 1058.183260040817]
	[-177.7326430581479, 201.680326208942, 1058.407963163213]
	[-177.8732307911977, 201.5637137732768, 1058.543093371845]
	[-177.9954230197237, 201.7228335223493, 1058.076733257652]
	[-177.7768127909607, 201.8681840268856, 1057.986592222672]
	[-178.0464599997613, 201.8088746990757, 1057.856668058736]
	[-178.2108190111735, 201.9430572202883, 1057.552320393492]
	[-177.8855006903305, 201.7989828497224, 1058.028911331239]
	[-177.8138878118995, 201.8103399932437, 1058.060926002171]
	[-178.2233659087025, 201.6873022214345, 1058.093889270661]
	[-178.1291339479712, 201.8930714511554, 1057.724323066263]
	[-177.8209287788461, 201.6636755026842, 1058.369016245699]
	[-177.860924046659, 201.7738333030975, 1058.106579252269]
	[-178.0031313650449, 201.6319282498159, 1058.287439217666]
	[-177.6864879878399, 201.5372562341247, 1058.646589488917]
	[-177.923766406458, 201.7341894264146, 1058.108868692234]
	[-178.3536784779672, 201.6664842016258, 1058.033751496519]
	[-178.0531951110748, 201.7131547593119, 1058.050053184313]
	[-177.9224410245346, 201.5686025067388, 1058.426829353403]
	[-177.7436270434184, 201.5772258971657, 1058.508717023552]
	[-177.98963242642, 201.6497586762571, 1058.183112986805]
	[-178.0464599997613, 201.8088746990757, 1057.856668058736]
	[-177.9063829459243, 201.6508680285817, 1058.331046763526]
	[-178.0457992892023, 201.9421384142109, 1057.73653759599]
	[-178.2998356987385, 201.7827626918056, 1057.749920285491]
	[-177.9667231528705, 201.5432827924853, 1058.500412246381]
	[-177.6807273512789, 201.6612464847325, 1058.421144379752]
	[-177.9901910240994, 201.6665117016108, 1058.218226927678]
	[-178.0152719398026, 201.6589517101676, 1058.206645362036]
	[-177.4282771366478, 201.7189859402631, 1058.422868105988]
	[-178.066816195557, 201.7941636980089, 1057.815052724507]
	[-177.8684624447275, 201.7454088840176, 1058.134022367853]
	[-177.7637720309847, 201.4296717278495, 1058.808874513255]
	[-177.8802186658205, 201.7537110306576, 1058.135924537323]
	[-178.0802190245622, 201.5923334140748, 1058.318404681511]
	[-177.742500775166, 201.719800979586, 1058.263268404341]
	[-177.7172505989025, 201.5798733791384, 1058.519887218301]
	[-178.2938665259492, 201.925970519409, 1057.51336634003]
	[-177.8315565909253, 201.7224283739855, 1058.258201541731]
	[-178.0531951110748, 201.7131547593119, 1058.050053184313]
	[-178.1137217599795, 201.9617807515982, 1057.596909450119]
	[-178.0138742810495, 201.7100910697428, 1058.040052851234]
	[-177.9838941683488, 201.543353625183, 1058.493480689738]
	[-177.9162020951506, 201.4683994005718, 1058.609857903145]
	[-178.0783235071618, 201.5642486370438, 1058.373695038868]
	[-177.9454178297867, 201.4726564978332, 1058.61390901506]
	[-178.0756852811562, 201.7454048816286, 1057.96218706904]
	[-177.931415373431, 201.6433387197193, 1058.319487157393]
	[-177.7908683553275, 201.8520898146417, 1057.972838839378]
	[-177.8420475498892, 201.748015632427, 1058.14537768715]
	[-177.7255707109103, 201.3591521724133, 1058.928282015848]
	[-177.7210166222784, 201.6259640060925, 1058.532349811468]
	[-177.9401223468984, 201.7339716200418, 1058.102046212632]
	[-178.1491258499703, 201.6945580795743, 1058.006274356317]
	[-177.5310965304181, 201.5781158125433, 1058.604814837321]
	[-177.9447602581386, 201.5405246279325, 1058.482945270023]
	[-177.6851068662699, 201.5325102834368, 1058.646072349199]
	[-177.9696192668217, 201.7982573589025, 1057.956629167343]
	[-177.9909306510083, 201.6848964958321, 1058.179593769215]
	[-178.1634070049193, 201.5071357174082, 1058.411706375336]
	[-178.1140207999341, 201.7063358657202, 1058.036078299865]
	[-177.8068989016955, 201.4883907703051, 1058.658946883723]
	[-177.9776115885674, 201.7072846903834, 1058.167575965376]
	[-178.1362964288676, 201.5545147798532, 1058.346978587031]
	[-177.7040298736968, 201.6206092473633, 1058.425020561582]
	[-177.8732307911977, 201.5637137732768, 1058.543093371845]
	[-177.7867189288025, 201.489849751238, 1058.6676358383]
	[-177.9996678323411, 201.8801120325018, 1057.745598765298]
	[-177.77189489194, 201.3548888106471, 1058.908857876382]
	[-177.8595277038989, 201.7387735987534, 1058.110103167241]
	[-178.0955904846284, 201.6815260655836, 1058.092182848608]
	[-178.0756852811562, 201.7454048816286, 1057.96218706904]
	[-177.8558508710852, 201.6871494199179, 1058.156470588037]
	[-178.0996530529503, 201.4438007176091, 1058.544283223597]
	[-178.2097040076114, 201.8744046889339, 1057.687005649749]
	[-177.8175456192051, 201.9562405808475, 1057.750669139484]
	[-177.9311869201411, 201.7273605578177, 1058.078117231018]
	[-178.0007193152942, 201.6717202906476, 1058.211280851079]
	[-178.123853498137, 201.8181329247473, 1057.785713400973]
	[-177.8558121704389, 201.6593773306174, 1058.22571800329]
	[-177.9454178297867, 201.4726564978332, 1058.61390901506]
	[-178.0677478904981, 201.7263046707149, 1057.946747184033]
	[-177.8655390154355, 201.5008367200944, 1058.566036618802]
	[-177.9124803624426, 201.8228766408831, 1057.885176212594]
	[-177.7982311135191, 201.6107365950954, 1058.359625908984]
	[-177.9447602581386, 201.5405246279325, 1058.482945270023]
	[-177.7782284042329, 201.7660778487791, 1058.064738379609]
	[-177.8558121704389, 201.6593773306174, 1058.22571800329]
	[-178.0848245860501, 201.6990207733646, 1058.007909839404]
	[-177.9584335068323, 201.7212311520258, 1058.065505149582]
	[-177.7481218408363, 201.6841884744382, 1058.275130166607]
	[-177.8477393335062, 201.8181724263679, 1057.978808035743]
	[-177.8907984219441, 201.590815158796, 1058.429216022065]
	[-177.8793487520311, 201.3300224214381, 1058.859860519926]
	[-177.8558121704389, 201.6593773306174, 1058.22571800329]
	[-177.8454936439838, 201.680293140019, 1058.133596984644]
	[-177.8477393335062, 201.8181724263679, 1057.978808035743]
	[-177.7040298736968, 201.6206092473633, 1058.425020561582]
	[-177.6751417664938, 201.6908515034087, 1058.306362938644]
	[-177.7946704837539, 201.5284651803298, 1058.487983649806]
	[-178.1840452183904, 201.945450922019, 1057.564371886351]
	[-177.8241006107359, 201.3412858762332, 1058.884792481477]
	[-177.6385526299219, 201.6250580827968, 1058.426903357003]
	[-177.5504116241173, 201.4567619194121, 1058.873982246223]
	[-177.98155584496, 201.6063504055986, 1058.362194082459]
	[-178.0442594590403, 201.4549880711218, 1058.569599013329]
	[-177.4395932434076, 201.6577044076818, 1058.512751770113]
	[-177.7395999684651, 201.8339827524868, 1058.059318523966]
	[-177.9228493831689, 201.8020136643225, 1057.97736254763]
	[-177.8595277038989, 201.7387735987534, 1058.110103167241]
	[-178.0802190245622, 201.5923334140748, 1058.318404681511]
	[-178.2298800055936, 201.8623516050461, 1057.64808461]
	[-177.8512718773315, 201.552367451351, 1058.459498739728]
	[-178.0165413766985, 201.5290354498327, 1058.451014256185]
	[-177.9454178297867, 201.4726564978332, 1058.61390901506]
	[-177.9058126983076, 201.8018371199896, 1057.984392717175]
	[-177.7731984512161, 201.676684850969, 1058.263503120282]
	[-177.8595277038989, 201.7387735987534, 1058.110103167241]
	[-177.2820014392967, 201.6883933741115, 1058.580917562738]
	[-177.9266702283556, 201.6482252753622, 1058.193917310947]
	[-177.9454178297867, 201.4726564978332, 1058.61390901506]
	[-178.2061282272017, 201.6870868298259, 1058.101168640665]
	[-177.6121368985977, 201.6277836528494, 1058.437957002482]
	[-177.8774340495459, 201.3977231423733, 1058.730188294941]
	[-177.9978857646319, 201.6246710095507, 1058.258580931149]
	[-178.2926903099262, 201.8572666776192, 1057.648215355607]
	[-177.7623074932961, 201.4249559505151, 1058.808371020087]
	[-177.6763356610989, 201.5103546219514, 1058.716560960235]
	[-178.0578137396144, 201.8904808127421, 1057.726758554449]
	[-178.3871479085074, 201.6531567077539, 1057.989103939126]
	[-177.7616610820716, 201.572852096867, 1058.564014553811]
	[-177.9447602581386, 201.5405246279325, 1058.482945270023]
	[-177.9641668974833, 201.9829700097693, 1057.664653592397]
	[-177.4474316215397, 201.8127420867438, 1058.291176299934]
	[-177.8774340495459, 201.3977231423733, 1058.730188294941]
	[-177.7122488850063, 201.5458816383031, 1058.525352954342]
	[-178.2314261717675, 201.6125701623994, 1058.194746049832]
	[-178.2298800055936, 201.8623516050461, 1057.64808461]
	[-177.8972507292647, 201.7367628890304, 1058.12034784562]
	[-177.8595277038989, 201.7387735987534, 1058.110103167241]
	[-177.8962278400141, 201.8045766673057, 1057.988926197557]
	[-178.2246411642283, 201.755983996946, 1057.959642378019]
	[-178.1523301615061, 201.5958732444766, 1058.188545357125]
	[-177.8343037928208, 201.6331161266107, 1058.42801202131]
	[-177.918109029845, 201.543202156785, 1058.494308744925]
	[-178.0677478904981, 201.7263046707149, 1057.946747184033]
	[-177.9447602581386, 201.5405246279325, 1058.482945270023]
	[-178.0970422350709, 201.5519528324666, 1058.336047127487]
	[-177.8436515685821, 201.6708531416366, 1058.248115273692]
	[-177.9088448013527, 201.7435533741047, 1058.0009496664]
	[-178.1386726733421, 201.9541811162501, 1057.585402923427]
	[-178.0848245860501, 201.6990207733646, 1058.007909839404]
	[-178.1630210525106, 201.5751139653316, 1058.280111667128]
	[-178.0992145977506, 201.5117572536748, 1058.412983055182]
	[-178.1977278350457, 201.7584937379036, 1057.971561972202]
	[-177.7064539442162, 201.4268342914064, 1058.805455942879]
	[-178.2926903099262, 201.8572666776192, 1057.648215355607]
	[-177.9136312246337, 201.7551046223314, 1058.016535323172]
	[-177.8558121704389, 201.6593773306174, 1058.22571800329]
	[-177.7964557268959, 201.6290223566395, 1058.401190059168]
	[-177.8558121704389, 201.6593773306174, 1058.22571800329]
	[-178.0138742810495, 201.7100910697428, 1058.040052851234]
	[-178.1386726733421, 201.9541811162501, 1057.585402923427]
	[-177.6570830447379, 201.8109674491621, 1058.12124495393]
	[-177.6385526299219, 201.6250580827968, 1058.426903357003]
	[-177.7526212055678, 201.4462231758885, 1058.715545171865]
	[-178.0774790279121, 201.7734838674474, 1057.906722245931]
	[-177.7924435659025, 201.5961021679099, 1058.35806500686]
	[-177.6492979218261, 201.6661746068654, 1058.509092360698]
	[-177.6410006445536, 201.5575073488322, 1058.556493475266]
	[-178.0115151680085, 201.7502469721857, 1057.962973601751]
	[-177.9046712839996, 201.7299207077417, 1058.089614688434]
	[-178.228713066013, 201.7936784894291, 1057.782639374341]
	[-177.6066720211859, 201.5223378735813, 1058.746829387165]
	[-178.0138742810495, 201.7100910697428, 1058.040052851234]
	[-178.2938665259492, 201.925970519409, 1057.51336634003]
	[-177.8595277038989, 201.7387735987534, 1058.110103167241]
	[-177.7623074932961, 201.4249559505151, 1058.808371020087]
	[-177.9978857646319, 201.6246710095507, 1058.258580931149]
	[-178.0774790279121, 201.7734838674474, 1057.906722245931]
	[-178.1214512158187, 201.9538897662345, 1057.592793850007]
	[-177.3987697231159, 201.7406966399067, 1058.427132232265]
	[-177.4562752771292, 201.6576217593397, 1058.506522926006]
	[-177.7491164097094, 201.8312409898155, 1058.054835968471]
	[-177.8974677047384, 201.7765562330966, 1058.043016553129]
	[-177.8793487520311, 201.3300224214381, 1058.859860519926]
	[-178.0049794836757, 201.7108623336307, 1058.06693578422]
	[-177.6534473712414, 201.4502394553621, 1058.857598260448]
	[-177.8595277038989, 201.7387735987534, 1058.110103167241]
	[-177.9161123136475, 201.7407565409364, 1058.118893935235]
	[-178.1312827790586, 201.7896611271389, 1057.813409385169]
	[-178.0848245860501, 201.6990207733646, 1058.007909839404]
	[-178.1630210525106, 201.5751139653316, 1058.280111667128]
	[-178.1523301615061, 201.5958732444766, 1058.188545357125]
	[-178.0970422350709, 201.5519528324666, 1058.336047127487]
	[-177.8961892200821, 201.6435950496726, 1058.271253111365]
	[-177.63762029659, 201.8712934541731, 1057.974190170684]
	[-177.6242755884284, 201.5575048267147, 1058.562973424703]
	[-177.8558121704389, 201.6593773306174, 1058.22571800329]
	[-178.0992145977506, 201.5117572536748, 1058.412983055182]
	[-177.7898125187991, 201.9581316597924, 1057.757289526958]
	[-177.9276589696113, 201.5404771674178, 1058.489783770219]
	[-178.0756852811562, 201.7454048816286, 1057.96218706904]
	[-178.1410579119511, 201.6754036042356, 1058.056946564008]
	[-177.465777110863, 201.6548895998841, 1058.502070522471]
	[-177.8652212287163, 201.5171836969711, 1058.45667846156]
	[-177.8774340495459, 201.3977231423733, 1058.730188294941]
	[-178.0271546402947, 201.9296102065721, 1057.682677135636]
	[-177.6847178834619, 201.6881193458375, 1058.30185102729]
	[-178.078178130181, 201.7055719208979, 1058.038565265621]
	[-177.8558121704389, 201.6593773306174, 1058.22571800329]
	[-177.5218266087519, 201.6785182637172, 1058.474535459692]
	[-178.1417671087208, 201.6406334391168, 1058.106262800471]
	[-177.6652515453261, 201.7119875004357, 1058.213575048745]
	[-178.0138742810495, 201.7100910697428, 1058.040052851234]
	[-178.0138742810495, 201.7100910697428, 1058.040052851234]
	[-178.0138742810495, 201.7100910697428, 1058.040052851234]
	[-177.6038498324588, 201.5223550288892, 1058.74789291549]
	[-177.6385526299219, 201.6250580827968, 1058.426903357003]
	[-177.7711425453272, 201.5701252270149, 1058.559539713905]
	[-177.465777110863, 201.6548895998841, 1058.502070522471]
	[-177.9942090416401, 201.5451791833249, 1058.374093498057]
	[-177.6953097782356, 201.7923188990537, 1058.103508372346]
	[-177.7844461731704, 201.7549570567928, 1058.11145570735]
	[-177.8570401755487, 201.7788786439118, 1058.033217379709]
	[-177.7924435659025, 201.5961021679099, 1058.35806500686]
	[-177.8774340495459, 201.3977231423733, 1058.730188294941]
	[-177.9058126983076, 201.8018371199896, 1057.984392717175]
	[-178.1630210525106, 201.5751139653316, 1058.280111667128]
	[-177.6916133958755, 201.7092783166483, 1058.202507833097]
	[-178.0231942202587, 201.7875317377354, 1058.050314811285]
	[-177.8595277038989, 201.7387735987534, 1058.110103167241]
	[-177.7151286253349, 201.6114587715638, 1058.36193943033]
	[-177.8595277038989, 201.7387735987534, 1058.110103167241]
	[-177.8454936439838, 201.680293140019, 1058.133596984644]
	[-178.3157525096831, 201.6641065735482, 1058.021952080371]
	[-177.8308824232928, 201.6668786184645, 1058.237259630024]
	[-177.7530841164915, 201.5137773518622, 1058.585026993675]
	[-178.0138742810495, 201.7100910697428, 1058.040052851234]
	[-177.8929204707349, 201.8628162674775, 1057.815131144272]
	[-177.9088448013527, 201.7435533741047, 1058.0009496664]
	[-177.5123678834289, 201.6744283972025, 1058.411535045132]
	[-177.982265508899, 201.5384715601282, 1058.493366231756]
	[-177.6748412195084, 201.7092469238978, 1058.209069204926]
	[-177.5050831167819, 201.6530880415096, 1058.511298887316]
	[-178.06513793657, 201.7661041535911, 1057.870447327983]
	[-178.0751232546145, 201.8136571140153, 1057.829478584136]
	[-177.9306561629386, 201.4819560572689, 1058.506282317908]
	[-177.4395932434076, 201.6577044076818, 1058.512751770113]
	[-177.6652515453261, 201.7119875004357, 1058.213575048745]
	[-177.8454936439838, 201.680293140019, 1058.133596984644]
	[-177.6916133958755, 201.7092783166483, 1058.202507833097]
	[-178.0578137396144, 201.8904808127421, 1057.726758554449]
	[-177.7925540993613, 201.8622158291112, 1057.957247851579]
	[-177.8833303826691, 201.865559714376, 1057.819664589661]
	[-178.0482349904561, 201.893221357144, 1057.731309145447]
	[-178.0602431811799, 201.7547868895898, 1057.919148461464]
	[-177.918109029845, 201.543202156785, 1058.494308744925]
	[-177.8774340495459, 201.3977231423733, 1058.730188294941]
	[-177.8595277038989, 201.7387735987534, 1058.110103167241]
	[-177.8558121704389, 201.6593773306174, 1058.22571800329]
	[-177.7234349814998, 201.4267657583518, 1058.798939091575]
	[-178.0138742810495, 201.7100910697428, 1058.040052851234]
	[-178.0138742810495, 201.7100910697428, 1058.040052851234]
	[-177.7946704837539, 201.5284651803298, 1058.487983649806]
	[-177.7946704837539, 201.5284651803298, 1058.487983649806]
	[-177.5241199554975, 201.4596386462009, 1058.884629602656]
	[-177.544315800006, 201.6404716013728, 1058.437129018496]
	[-178.2161194310199, 201.6592145678971, 1058.055373209286]
	[-177.9942090416401, 201.5451791833249, 1058.374093498057]
	[-178.066816195557, 201.7941636980089, 1057.815052724507]
	[-177.7959259657453, 201.6791234631297, 1058.259490197903]
	[-178.4328254725226, 201.8116544573732, 1057.662347800211]
	[-177.6775908411943, 201.641728210238, 1058.338731926527]
	[-178.0774790279121, 201.7734838674474, 1057.906722245931]
	[-177.7705522529823, 201.3501863935923, 1058.90823799162]
	[-178.2938665259492, 201.925970519409, 1057.51336634003]
	[-178.0138742810495, 201.7100910697428, 1058.040052851234]
	[-177.6014988230406, 201.7871857305816, 1058.192458074357]
	[-177.9388164464454, 201.7262532254911, 1058.041543510809]
	[-177.668309249542, 201.4380865814638, 1058.823607696764]
	[-177.7898125187991, 201.9581316597924, 1057.757289526958]
	[-177.6504345742282, 201.6334576869224, 1058.428603452826]
	[-178.1523301615061, 201.5958732444766, 1058.188545357125]
	[-177.9124803624426, 201.8228766408831, 1057.885176212594]
	[-177.7852580591651, 201.9283184064238, 1057.850045108129]
	[-177.8308824232928, 201.6668786184645, 1058.237259630024]
	[-177.6739630140793, 201.8110005948857, 1058.114652211134]
	[-177.8304323674016, 201.7814909132183, 1058.044661833017]
	[-177.6570830447379, 201.8109674491621, 1058.12124495393]
	[-177.8604981510494, 201.6709699614734, 1058.241316323818]
	[-177.6751417664938, 201.6908515034087, 1058.306362938644]
	[-178.0194316323901, 201.6593568563143, 1058.173746091416]
	[-178.0686110756257, 201.7742416856422, 1057.933637283075]
	[-177.6766473236027, 201.7709519587683, 1058.191294532732]
	[-177.6846414691965, 201.7402159593165, 1058.241829572092]
	[-177.9506695047587, 201.8936961127846, 1057.7636916948]
	[-177.6684919629169, 201.6515305887527, 1058.409937724512]
	[-177.9228493831689, 201.8020136643225, 1057.97736254763]
	[-177.6385526299219, 201.6250580827968, 1058.426903357003]
	[-177.7030080443572, 201.7825975147607, 1058.09329126491]
	[-178.0915258655153, 201.8905527655523, 1057.712455036028]
	[-177.8774340495459, 201.3977231423733, 1058.730188294941]
	[-177.858374672624, 201.7600342874539, 1058.137899839222]
	[-178.1010255768646, 201.9771722699267, 1057.505788615891]
	[-177.6780294416957, 201.6908484887167, 1058.305219442702]
	[-177.9972429056112, 201.9202336752159, 1057.668343604806]
	[-178.2298800055936, 201.8623516050461, 1057.64808461]
	[-178.3157525096831, 201.6641065735482, 1058.021952080371]
	[-177.8634940018666, 201.7490641264537, 1058.255043101211]
	[-177.7016354178142, 201.6881805362039, 1058.295142823782]
	[-178.0146255404809, 201.642199916556, 1058.171601664287]
	[-177.8270233386108, 201.6349356357371, 1058.431376911613]
	[-177.8857830216028, 202.0209704424293, 1057.637332060438]
	[-177.9540229890769, 201.917203138748, 1057.803222964866]
	[-177.9046712839996, 201.7299207077417, 1058.089614688434]
	[-177.8436515685821, 201.6708531416366, 1058.248115273692]
	[-178.1245814413335, 201.6310253402574, 1058.233683382428]
	[-177.9228493831689, 201.8020136643225, 1057.97736254763]
	[-178.0715048527902, 201.6661942919343, 1058.142514316751]
	[-177.7255707109103, 201.3591521724133, 1058.928282015848]
	[-177.852927167423, 201.6994338325406, 1058.213889738725]
	[-178.1429432059047, 201.7059935349301, 1058.130998860654]
	[-178.2660710313383, 202.0622526848441, 1057.355465924571]
	[-177.8627868493739, 201.9474556521275, 1057.729975007157]
	[-177.9002347471574, 201.6277082644321, 1058.32482568033]
	[-178.0536930744961, 202.022495875369, 1057.526308660937]
	[-177.9037843631787, 201.5880413121031, 1058.335809585473]
	[-178.1172953727965, 201.7305964052547, 1057.989871347979]
	[-178.0512716717173, 201.851132533229, 1057.830962200497]
	[-177.7154999994373, 201.7738520013798, 1058.202005054115]
	[-177.5780845324793, 201.6459108460743, 1058.480953522495]
	[-177.8263033783675, 201.5598643319027, 1058.471043871177]
	[-177.7183176631937, 201.7738606314812, 1058.200893001108]
	[-177.7532604848703, 201.7735925963197, 1058.076279418457]
	[-177.9478421905716, 201.6430745633014, 1058.312706859342]
	[-177.8653866173819, 201.7050107686495, 1058.23572598329]
	[-177.6351459750325, 201.9201705018477, 1057.964809598545]
	[-177.7697103884755, 201.8300810026544, 1058.088210509027]
	[-178.0287519890985, 202.0300818614313, 1057.537824342886]
	[-177.9057529786436, 201.7347646689144, 1058.159249610146]
	[-178.0386025178979, 202.004300324897, 1057.573067587203]
	[-177.8582453916025, 201.8692259044921, 1057.908921991195]
	[-177.3937766751075, 201.8249799516071, 1058.262618467324]
	[-177.5919785212857, 201.7642373806211, 1058.247135003895]
	[-178.048109384306, 201.8974224655579, 1057.802897233913]
	[-178.1840061926099, 202.0018737438768, 1057.465892086805]
	[-177.8144421915168, 201.7857559902589, 1058.122119342222]
	[-178.2541100172811, 201.9224578926993, 1057.567642446177]
	[-177.6932319330958, 201.7088433098992, 1058.205662803467]
	[-178.2365410899938, 202.0857837035418, 1057.240025203891]
	[-177.359594866551, 201.8093415426517, 1058.35365050836]
	[-177.55795212667, 201.9212738734421, 1058.042519043411]
	[-177.6042495046326, 201.7334599887869, 1058.272736327412]
	[-178.173509390654, 201.8862884002799, 1057.717525379637]
	[-177.9683608803468, 201.7817240892584, 1057.990727576952]
	[-177.71178664744, 201.8955517475849, 1057.97486754419]
	[-177.5919785212857, 201.7642373806211, 1058.247135003895]
	[-177.8401548936663, 201.852451806374, 1057.957467950559]
	[-177.9365108719179, 201.7613588536151, 1058.07227336024]
	[-177.8220913966354, 201.8026140940252, 1058.056285501166]
	[-177.780519773342, 201.6985054621568, 1058.194967162108]
	[-178.2541100172811, 201.9224578926993, 1057.567642446177]
	[-177.8925804686801, 201.8371399617341, 1057.927175906289]
	[-177.5943036005117, 201.6967993699936, 1058.376897346905]
	[-177.599025586557, 201.8023638516281, 1058.145697428519]
	[-178.0018769264506, 202.0325611585437, 1057.549736501353]
	[-177.8138878118995, 201.8103399932437, 1058.060926002171]
	[-178.0281357998892, 201.777838770023, 1057.971517287372]
	[-177.9677295016475, 201.8495038280299, 1057.859000195298]
	[-177.7733299708194, 201.6604000646579, 1058.296363124985]
	[-177.8074778634061, 201.7487763025964, 1058.202652509342]
	[-177.5919785212857, 201.7642373806211, 1058.247135003895]
	[-177.7933798786728, 201.9179380774648, 1057.859593903387]
	[-177.8308824232928, 201.6668786184645, 1058.237259630024]
	[-177.9636911475545, 201.6910144062785, 1058.192224413356]
	[-177.6170384642573, 201.7567541485687, 1058.235529400938]
	[-177.8029416159916, 201.9160194930283, 1057.834753005447]
	[-178.0458826932065, 201.8767156259502, 1057.724632361931]
	[-177.8855006903305, 201.7989828497224, 1058.028911331239]
	[-177.8380642254435, 201.8704899414735, 1057.917977393809]
	[-177.716063688121, 201.7946094069358, 1058.169846681156]
	[-177.7424910347185, 201.7919320026932, 1058.15868730819]
	[-177.5922517381545, 201.5257457279866, 1058.677853941326]
	[-177.8200460603894, 201.9161838442874, 1057.827726206141]
	[-177.4965631581401, 201.6860131116595, 1058.486198869477]
	[-177.7040298736968, 201.6206092473633, 1058.425020561582]
	[-178.0934176038159, 201.8886668878167, 1057.782012688476]
	[-177.8867594479472, 201.4441227624888, 1058.61682763787]
	[-177.8952528596982, 201.739586755681, 1058.107654801811]
	[-177.9267521055777, 201.818697948044, 1057.903725088483]
	[-177.7617778576623, 201.4972836022238, 1058.679250189795]
	[-177.7250164630829, 201.7711112489965, 1058.197527496061]
	[-178.3396690987829, 202.1055886237047, 1057.092776054509]
	[-177.9058126983076, 201.8018371199896, 1057.984392717175]
	[-177.8869474665792, 202.0372786474349, 1057.508368308197]
	[-177.676565959871, 201.69567718045, 1058.306739442501]
	[-177.9996678323411, 201.8801120325018, 1057.745598765298]
	[-177.6542701848727, 201.7364639710166, 1058.302116967318]
	[-177.5719729596914, 201.7734963726733, 1058.346483718155]
	[-177.9383453656499, 201.9691702526871, 1057.683625240063]
	[-177.7503344587768, 201.9256109893622, 1057.852524764363]
	[-177.671521351947, 201.9377961350022, 1057.893574608118]
	[-178.0059874825458, 201.6438898479439, 1058.273757248618]
	[-177.6633947115044, 201.5948554111451, 1058.551608745082]
	[-177.8243165183586, 201.627474813199, 1058.340973981238]
	[-177.548206768169, 201.5818064610705, 1058.604897608023]
	[-178.2050567270168, 201.8699328370785, 1057.659558231621]
	[-177.7424910347185, 201.7919320026932, 1058.15868730819]
	[-177.9801734013148, 201.7183575944977, 1058.078466404525]
	[-177.8248160262902, 201.6358450616673, 1058.432496402502]
	[-178.066816195557, 201.7941636980089, 1057.815052724507]
	[-178.0974303267808, 201.7096088998551, 1058.036763648998]
	[-178.1065702474883, 201.9039653474748, 1057.612022710656]
	[-177.9747330562739, 201.8876858945912, 1057.757092119]
	[-177.6780562183245, 201.6488041125097, 1058.405426204901]
	[-177.4389915146638, 201.7393781472888, 1058.411465599497]
	[-177.5611820195245, 201.7317432532197, 1058.265968105532]
	[-177.7501982324318, 201.5137976477905, 1058.5861399576]
	[-177.7241932505972, 201.668206667618, 1058.315274743766]
	[-177.7650140446349, 201.8452499903393, 1057.955883179116]
	[-177.5348104560753, 201.7344531421828, 1058.277006486267]
	[-177.9228493831689, 201.8020136643225, 1057.97736254763]
	[-178.078178130181, 201.7055719208979, 1058.038565265621]
	[-177.6561765376315, 201.8348546829109, 1058.130696188516]
	[-178.0527539150802, 201.953992702312, 1057.660697159371]
	[-177.5443869318617, 201.7317203131495, 1058.272506575323]
	[-177.465777110863, 201.6548895998841, 1058.502070522471]
	[-177.6133292931423, 201.5196337545365, 1058.743428925036]
	[-177.6150125370784, 201.6277711687462, 1058.436839807918]
	[-177.6684919629169, 201.6515305887527, 1058.409937724512]
	[-177.7773484646179, 201.8502760760153, 1057.972050953256]
	[-178.0749661097254, 201.8907152527823, 1057.719526175805]
	[-177.7783283883485, 201.6746095953231, 1058.229943376797]
	[-177.7601187075064, 201.4925809647373, 1058.678822879975]
	[-177.6079192918008, 201.5209782783548, 1058.670713099065]
	[-177.650926637409, 201.732580194215, 1058.302596503655]
	[-177.465777110863, 201.6548895998841, 1058.502070522471]
	[-177.9946626960319, 201.7906948402945, 1057.945048928925]
	[-177.9342143594351, 201.7388462112143, 1058.037050462351]
	[-177.5540651916569, 201.6936751931356, 1058.36720297236]
	[-177.8329830358473, 201.7413913135827, 1058.121499408958]
	[-177.8604981510494, 201.6709699614734, 1058.241316323818]
	[-177.4344032334725, 201.7523116076091, 1058.320856759953]
	[-177.8329830358473, 201.7413913135827, 1058.121499408958]
	[-177.518985222508, 201.7205351022278, 1058.375522443395]
	[-177.8433994566511, 201.7455667423856, 1058.146414953917]
	[-177.7025584909246, 201.7503216719992, 1058.284599947109]
	[-177.7782284042329, 201.7660778487791, 1058.064738379609]
	[-178.0344039714957, 201.5783351122034, 1058.301353742373]
	[-177.968071217759, 201.7932003225176, 1057.956713402785]
	[-177.6849940715794, 201.6699576167894, 1058.306128684225]
	[-177.7411107388798, 201.6157447616067, 1058.485457411452]
	[-177.8558121704389, 201.6593773306174, 1058.22571800329]
	[-177.6900126823002, 201.7103060107361, 1058.208755547896]
	[-177.9203659167605, 201.8421359351618, 1057.900313033598]
	[-177.3231599666096, 201.8345370725138, 1058.343918298502]
	[-177.8929204707349, 201.8628162674775, 1057.815131144272]
	[-177.9088448013527, 201.7435533741047, 1058.0009496664]
	[-177.6834646635344, 201.8082653355854, 1058.11017343345]
	[-177.9768554965713, 201.7244421701583, 1058.176172255722]
	[-178.2602518849131, 201.8397333449736, 1057.741736573973]
	[-177.7016354178142, 201.6881805362039, 1058.295142823782]
	[-177.6552830327599, 201.8128260158928, 1058.122461578458]
	[-177.7597595762972, 201.5110697595816, 1058.581632283257]
	[-178.0774790279121, 201.7734838674474, 1057.906722245931]
	[-177.5017557494516, 201.8013272442502, 1058.267256168533]
	[-177.6928951602724, 201.3996853526285, 1058.815863821093]
	[-177.7491164097094, 201.8312409898155, 1058.054835968471]
	[-178.1523301615061, 201.5958732444766, 1058.188545357125]
	[-177.8035815640627, 201.8476303434737, 1057.960929928094]
	[-177.465777110863, 201.6548895998841, 1058.502070522471]
	[-178.0138742810495, 201.7100910697428, 1058.040052851234]
	[-177.3790333744882, 201.7642617345172, 1058.345509918936]
	[-178.0138742810495, 201.7100910697428, 1058.040052851234]
	[-177.7844461731704, 201.7549570567928, 1058.11145570735]
	[-177.6217065062991, 201.6250533773895, 1058.433455134585]
	[-177.8936814604285, 201.8446934381113, 1057.911925107877]
	[-177.9536989936891, 201.7297353848619, 1058.074310618992]
	[-177.9731917260585, 201.9262047262213, 1057.675001889667]
	[-177.5719729596914, 201.7734963726733, 1058.346483718155]
	[-177.8135054618749, 202.1078573795742, 1057.527560531621]
	[-177.8651796267061, 201.8449077959041, 1057.945911710295]
	[-177.1298474060644, 201.7446231476519, 1058.623584066064]
	[-177.7733299708194, 201.6604000646579, 1058.296363124985]
	[-177.6847178834619, 201.6881193458375, 1058.30185102729]
	[-177.5614446332076, 201.9041593800919, 1058.059475631832]
	[-178.0831425119691, 201.9652743818761, 1057.611112308579]
	[-177.8008022792326, 201.6570221001272, 1058.345173501629]
	[-177.8929204707349, 201.8628162674775, 1057.815131144272]
	[-177.7946704837539, 201.5284651803298, 1058.487983649806]
	[-177.5034200006855, 201.7337117854441, 1058.397631641075]
	[-178.1386726733421, 201.9541811162501, 1057.585402923427]
	[-177.8810272129165, 201.992442321815, 1057.59780197772]
	[-177.7532604848703, 201.7735925963197, 1058.076279418457]
	[-177.858374672624, 201.7600342874539, 1058.137899839222]
	[-178.2938665259492, 201.925970519409, 1057.51336634003]
	[-177.3885421956162, 201.7615269548885, 1058.341059511166]
	[-177.7424910347185, 201.7919320026932, 1058.15868730819]
	[-178.1917518322592, 201.59882840688, 1058.19862579759]
	[-177.5550314726955, 201.7447854405617, 1058.238785930759]
	[-177.6395267632619, 201.9481381626135, 1057.908544102958]
	[-178.0082839212022, 201.6037278945545, 1058.350663174172]
	[-177.8833303826691, 201.865559714376, 1057.819664589661]
	[-177.6217362231121, 201.8479133113012, 1058.083597621503]
	[-177.9088448013527, 201.7435533741047, 1058.0009496664]
	[-177.675125923924, 201.7429585144895, 1058.246298325001]
	[-177.6121368985977, 201.6277836528494, 1058.437957002482]
	[-177.2846997535462, 201.6883764443765, 1058.579952208237]
	[-177.8329830358473, 201.7413913135827, 1058.121499408958]
	[-177.7811903206975, 201.6705807534518, 1058.365070086784]
	[-178.2826058209119, 201.9462861025181, 1057.42247717053]
	[-177.968071217759, 201.7932003225176, 1057.956713402785]
	[-177.7924435659025, 201.5961021679099, 1058.35806500686]
	[-177.696912651816, 201.4295518786602, 1058.809959638473]
	[-177.696912651816, 201.4295518786602, 1058.809959638473]
	[-177.9703874333389, 201.9996980792401, 1057.570061281958]
	[-177.6766473236027, 201.7709519587683, 1058.191294532732]
	[-177.465777110863, 201.6548895998841, 1058.502070522471]
	[-178.1203594897792, 201.8667718365664, 1057.73265881372]
	[-178.0115151680085, 201.7502469721857, 1057.962973601751]
	[-177.6702140233545, 201.771702778564, 1058.217285978902]
	[-177.4395932434076, 201.6577044076818, 1058.512751770113]
	[-178.066816195557, 201.7941636980089, 1057.815052724507]
	[-177.7924435659025, 201.5961021679099, 1058.35806500686]
	[-177.2820014392967, 201.6883933741115, 1058.580917562738]
	[-178.0751232546145, 201.8136571140153, 1057.829478584136]
	[-177.6766473236027, 201.7709519587683, 1058.191294532732]
	[-177.6009286027381, 201.7058753817628, 1058.339622407175]
	[-177.8743094930375, 201.9223122115424, 1057.80942547371]
	[-177.8595277038989, 201.7387735987534, 1058.110103167241]
	[-177.8329830358473, 201.7413913135827, 1058.121499408958]
	[-177.5017557494516, 201.8013272442502, 1058.267256168533]
	[-178.1523301615061, 201.5958732444766, 1058.188545357125]
	[-177.9447602581386, 201.5405246279325, 1058.482945270023]
	[-178.0482349904561, 201.893221357144, 1057.731309145447]
	[-177.7924435659025, 201.5961021679099, 1058.35806500686]
	[-178.0762271608029, 201.8715164856763, 1057.825139923166]
	[-177.9712881516185, 201.6273325617535, 1058.269957940189]
	[-177.7234349814998, 201.4267657583518, 1058.798939091575]
	[-178.0690720602257, 201.7060131366298, 1058.066212488429]
	[-177.6217065062991, 201.6250533773895, 1058.433455134585]
	[-177.7227205955513, 201.8338936759159, 1058.06602680722]
	[-177.7016354178142, 201.6881805362039, 1058.295142823782]
	[-177.7099598218803, 201.6134682756961, 1058.395589435566]
	[-177.6766473236027, 201.7709519587683, 1058.191294532732]
	[-177.5189241199121, 201.7391112352234, 1058.277757447621]
	[-177.9008187033147, 201.9197160904288, 1057.798015427061]
	[-177.8329830358473, 201.7413913135827, 1058.121499408958]
	[-178.066816195557, 201.7941636980089, 1057.815052724507]
	[-177.7395999684651, 201.8339827524868, 1058.059318523966]
	[-177.6570830447379, 201.8109674491621, 1058.12124495393]
	[-178.1214512158187, 201.9538897662345, 1057.592793850007]
	[-178.1118658385455, 201.9566322796294, 1057.597354681428]
	[-178.0775768584712, 201.6955897146137, 1058.010384864326]
	[-178.0482349904561, 201.893221357144, 1057.731309145447]
	[-177.7380346587489, 201.8059840136524, 1058.114454128738]
	[-177.842561325169, 201.7386536873573, 1058.116976059218]
	[-177.4597969704062, 201.7168843107608, 1058.57084133832]
	[-177.7016354178142, 201.6881805362039, 1058.295142823782]
	[-177.7228021747065, 201.8739719247676, 1057.988137295096]
	[-177.6861574353391, 201.7682122313386, 1058.186821618399]
	[-177.8929204707349, 201.8628162674775, 1057.815131144272]
	[-177.8436515685821, 201.6708531416366, 1058.248115273692]
	[-178.2938665259492, 201.925970519409, 1057.51336634003]
	[-177.6385526299219, 201.6250580827968, 1058.426903357003]
	[-177.842561325169, 201.7386536873573, 1058.116976059218]
	[-177.8962278400141, 201.8045766673057, 1057.988926197557]
	[-178.0578137396144, 201.8904808127421, 1057.726758554449]
	[-177.6861574353391, 201.7682122313386, 1058.186821618399]
	[-177.5017557494516, 201.8013272442502, 1058.267256168533]
	[-177.7465218665037, 201.7991844532773, 1058.082809846373]
	[-177.6385526299219, 201.6250580827968, 1058.426903357003]
	[-177.918109029845, 201.543202156785, 1058.494308744925]
	[-178.1343956192803, 202.0950096372895, 1057.318576143908]
	[-177.8628897389231, 201.8217484040005, 1058.011274214279]
	[-177.7924435659025, 201.5961021679099, 1058.35806500686]
	[-177.8652212287163, 201.5171836969711, 1058.45667846156]
	[-178.1118658385455, 201.9566322796294, 1057.597354681428]
	[-178.0749661097254, 201.8907152527823, 1057.719526175805]
	[-178.2298800055936, 201.8623516050461, 1057.64808461]
	[-177.7898125187991, 201.9581316597924, 1057.757289526958]
	[-177.8460396466843, 201.9309168378032, 1057.822869935923]
	[-178.0749661097254, 201.8907152527823, 1057.719526175805]
	[-177.7181842078074, 201.8758341943453, 1057.990443570758]
	[-177.9008187033147, 201.9197160904288, 1057.798015427061]
	[-177.8940497413757, 201.7947103315999, 1057.947275926675]
	[-178.0138742810495, 201.7100910697428, 1058.040052851234]
	[-177.842561325169, 201.7386536873573, 1058.116976059218]
	[-177.6213267600206, 201.787481239837, 1058.332066533238]
	[-178.0749661097254, 201.8907152527823, 1057.719526175805]
	[-177.5123678834289, 201.6744283972025, 1058.411535045132]
	[-178.1214512158187, 201.9538897662345, 1057.592793850007]
	[-177.7016354178142, 201.6881805362039, 1058.295142823782]
	[-177.9546505104696, 201.9857149389427, 1057.669162424794]
	[-177.6739630140793, 201.8110005948857, 1058.114652211134]
	[-177.6598402799841, 201.7709193915533, 1058.197845407814]
	[-177.2820014392967, 201.6883933741115, 1058.580917562738]
	[-177.4562752771292, 201.6576217593397, 1058.506522926006]
	[-178.0578137396144, 201.8904808127421, 1057.726758554449]
	[-177.7055306286945, 201.6860081251621, 1058.340005121738]
	[-177.6679874535857, 201.6444762155922, 1058.343227618726]
	[-177.715610859309, 201.9523933859289, 1057.880263683725]
	[-177.8595277038989, 201.7387735987534, 1058.110103167241]
	[-177.8438727426533, 201.89228843161, 1057.900181522087]
	[-178.0195270166855, 201.9018526926892, 1057.745047285746]
	[-178.0170415321704, 201.4611298152858, 1058.582156075328]
	[-177.842561325169, 201.7386536873573, 1058.116976059218]
	[-177.7924435659025, 201.5961021679099, 1058.35806500686]
	[-177.6779521170048, 201.7032464171189, 1058.322084742134]
	[-177.6861574353391, 201.7682122313386, 1058.186821618399]
	[-177.7296660479313, 201.8550683732456, 1057.966454439011]
	[-178.0138742810495, 201.7100910697428, 1058.040052851234]
	[-177.6739630140793, 201.8110005948857, 1058.114652211134]
	[-177.8304323674016, 201.7814909132183, 1058.044661833017]
	[-177.8340597568942, 201.673598037263, 1058.2526284463]
	[-177.6834646635344, 201.8082653355854, 1058.11017343345]
	[-177.8595277038989, 201.7387735987534, 1058.110103167241]
	[-177.8400023844613, 201.7787577408221, 1058.04013251027]
	[-177.8436515685821, 201.6708531416366, 1058.248115273692]
	[-177.7879327831825, 201.4891447397731, 1058.591361223194]
	[-177.7924435659025, 201.5961021679099, 1058.35806500686]
	[-177.8578678687266, 201.7107374923669, 1058.165290011475]
	[-177.6241318518649, 201.7034370072545, 1058.299218182454]
	[-177.9224896422437, 202.0410009994382, 1057.616400464379]
	[-177.5363032940969, 201.9169020974889, 1058.091570636387]
	[-177.4762142359804, 201.8089047701936, 1058.278953237043]
	[-177.8454936439838, 201.680293140019, 1058.133596984644]
	[-177.842561325169, 201.7386536873573, 1058.116976059218]
	[-177.5648836123188, 202.0602425984384, 1057.833241646479]
	[-177.5625594976999, 202.1315382104944, 1057.663865623637]
	[-177.6385526299219, 201.6250580827968, 1058.426903357003]
	[-177.3332847449847, 201.7744533764063, 1058.358054820805]
	[-177.6612674298494, 201.703216255243, 1058.328562282356]
	[-177.76001182508, 201.5448329703768, 1058.618911248619]
	[-177.9633425584436, 201.842298368673, 1057.903954128374]
	[-177.8604981510494, 201.6709699614734, 1058.241316323818]
	[-177.7153538239941, 201.8840057369906, 1058.013602507638]
	[-177.9401223468984, 201.7339716200418, 1058.102046212632]
	[-177.7153538239941, 201.8840057369906, 1058.013602507638]
	[-177.8304323674016, 201.7814909132183, 1058.044661833017]
	[-177.7202791705598, 201.6202910237281, 1058.418484008288]
	[-177.9641668974833, 201.9829700097693, 1057.664653592397]
	[-178.066816195557, 201.7941636980089, 1057.815052724507]
	[-178.1469603076441, 201.8794968511625, 1057.686774079182]
	[-177.8680563784738, 201.5604642384777, 1058.52298001438]
	[-177.5362341366223, 201.9851922097392, 1057.958650629357]
	[-177.9602704359471, 201.705429744822, 1058.171331249366]
	[-177.5005233076482, 201.8968774465332, 1058.066443947563]
	[-177.8834311363123, 201.9332783262282, 1057.835231679113]
	[-177.7872456369888, 201.749944954001, 1058.142001686397]
	[-177.7382547486135, 201.88871424557, 1058.009230346694]
	[-177.6410006445536, 201.5575073488322, 1058.556493475266]
	[-178.3011555844209, 201.8514744331209, 1057.615182620116]
	[-177.921953379909, 201.7356709815399, 1058.201046282479]
	[-177.6862791871039, 201.6333715453017, 1058.572603284491]
	[-177.8913087082427, 201.922458935938, 1057.802514512711]
	[-177.9533751151475, 202.0818399353274, 1057.473098963502]
	[-178.0500052700279, 201.898290757175, 1057.731056110772]
	[-177.6808987537236, 201.8723750998375, 1058.022031783523]
	[-177.2564220225424, 201.6959142277632, 1058.59265935423]
	[-177.9002170994779, 201.8512273940664, 1057.931794634118]
	[-177.9633425584436, 201.842298368673, 1057.903954128374]
	[-178.0364351105148, 201.9028627906984, 1057.76601010534]
	[-177.7239517819067, 201.7666478848836, 1058.171166667666]
	[-177.8340597568942, 201.673598037263, 1058.2526284463]
	[-177.9689361906857, 201.7253496896997, 1058.088313189221]
	[-177.9496591863229, 202.080626687909, 1057.47493048619]
	[-177.7408496600723, 201.7662569174137, 1058.190400082437]
	[-177.9814436983256, 202.1987363077063, 1057.288263180814]
	[-178.1594669398968, 201.6239023880262, 1058.227258992496]
	[-177.924613272088, 201.6879910218256, 1058.181961025493]
	[-177.8372593966978, 201.6823947935459, 1058.25835213003]
	[-177.9058126983076, 201.8018371199896, 1057.984392717175]
	[-178.2926903099262, 201.8572666776192, 1057.648215355607]
	[-178.0417048110939, 201.8538674118186, 1057.835512279952]
	[-177.8742222008902, 201.7104712736283, 1058.158570139556]
	[-177.8364126673865, 201.9336739634336, 1057.827412956412]
	[-177.6592492459439, 201.9805550376295, 1057.82123806734]
	[-177.8654198094459, 201.8615910946329, 1057.947870804754]
	[-177.8596354228145, 201.890700287866, 1057.918220678402]
	[-178.4498412538111, 201.6480239967502, 1057.989299399748]
	[-178.0774790279121, 201.7734838674474, 1057.906722245931]
	[-177.6101308126575, 201.8071514960744, 1058.156489020471]
	[-177.8986444143067, 201.7417673715791, 1058.120411785376]
	[-177.8208357034003, 201.4931671425315, 1058.668599487436]
	[-177.6874760709665, 201.7004993992532, 1058.317621811138]
	[-177.977359897441, 201.7905193778661, 1057.952294981124]
	[-177.7380346587489, 201.8059840136524, 1058.114454128738]
	[-177.851495089493, 201.745296326951, 1058.140926221297]
	[-177.8861108806648, 201.9024229292778, 1057.843877374585]
	[-177.6103940247832, 201.9044024599216, 1058.059813559713]
	[-178.0500052700279, 201.898290757175, 1057.731056110772]
	[-177.9720756890966, 202.0047957636326, 1057.569823657076]
	[-177.8986444143067, 201.7417673715791, 1058.120411785376]
	[-177.7503799442467, 201.7635078781094, 1058.185927519023]
	[-177.6608685936268, 201.5233754540001, 1058.738818574187]
	[-177.8595277038989, 201.7387735987534, 1058.110103167241]
	[-177.7591636086213, 201.6129391517385, 1058.487516760931]
	[-177.8329830358473, 201.7413913135827, 1058.121499408958]
	[-177.3812520158943, 201.5625080210076, 1058.768816704867]
	[-178.0740176486495, 201.8221320246371, 1057.853733603766]
	[-177.7053072802709, 201.5561677743021, 1058.643301459553]
	[-177.9540229890769, 201.917203138748, 1057.803222964866]
	[-177.8344820772195, 201.7463051103895, 1058.121675668967]
	[-177.6782030572482, 201.8821792669812, 1058.008584001002]
	[-177.7686366051032, 201.6102167379221, 1058.483036097138]
	[-177.8661221572246, 201.9300502861622, 1057.814108085726]
	[-177.5659423421568, 201.796509974875, 1058.266706383204]
	[-177.832969807004, 201.5992438569022, 1058.367460743426]
	[-177.9546505104696, 201.9857149389427, 1057.669162424794]
	[-177.7053072802709, 201.5561677743021, 1058.643301459553]
	[-177.5017557494516, 201.8013272442502, 1058.267256168533]
	[-178.0052846103869, 201.6084998952056, 1058.319861354356]
	[-177.5595670600504, 201.5829392604554, 1058.706280219546]
	[-177.7783125281686, 201.9470184665564, 1057.881307924301]
	[-177.4474316215397, 201.8127420867438, 1058.291176299934]
	[-177.6861574353391, 201.7682122313386, 1058.186821618399]
	[-178.0435549509238, 201.8588854916044, 1057.835299819375]
	[-177.9678251135637, 201.9119783171168, 1057.768263305023]
	[-177.9546505104696, 201.9857149389427, 1057.669162424794]
	[-177.8962278400141, 201.8045766673057, 1057.988926197557]
	[-177.6969452204745, 201.9542201827016, 1057.888073055583]
	[-177.7675033397068, 201.6035794890151, 1058.369630019486]
	[-177.9370632598406, 201.748926677291, 1058.010605689689]
	[-178.0578137396144, 201.8904808127421, 1057.726758554449]
	[-177.8604981510494, 201.6709699614734, 1058.241316323818]
	[-177.6779521170048, 201.7032464171189, 1058.322084742134]
	[-177.4685764774267, 201.5874274411547, 1058.631257103937]
	[-178.3652905109621, 201.9151871740696, 1057.480136680681]
	[-177.7040298736968, 201.6206092473633, 1058.425020561582]
	[-178.0774790279121, 201.7734838674474, 1057.906722245931]
	[-177.8983370046838, 201.5561972365428, 1058.531493213448]
	[-177.9768554965713, 201.7244421701583, 1058.176172255722]
	[-178.0569843593398, 201.8219019513223, 1057.860888721483]
	[-177.8304323674016, 201.7814909132183, 1058.044661833017]
	[-177.6385526299219, 201.6250580827968, 1058.426903357003]
	[-177.7369206717166, 201.8740484322549, 1057.982513398756]
	[-178.0223716520657, 201.7189573762559, 1058.184042994591]
	[-177.4590606119721, 201.590167033258, 1058.635699582441]
	[-177.715610859309, 201.9523933859289, 1057.880263683725]
	[-178.0515835661759, 201.6441486592966, 1058.276238459659]
	[-177.5838068905386, 201.6434301828587, 1058.563591552105]
	[-177.8353656457298, 201.6785241493225, 1058.252882424984]
	[-177.4966341103301, 201.6945175632061, 1058.501020958332]
	[-177.9008187033147, 201.9197160904288, 1057.798015427061]
	[-177.8986444143067, 201.7417673715791, 1058.120411785376]
	[-177.9447602581386, 201.5405246279325, 1058.482945270023]
	[-177.8674915831261, 201.8132001604093, 1058.002626759616]
	[-177.5217153561726, 201.6530601438601, 1058.504985077059]
	[-177.8913087082427, 201.922458935938, 1057.802514512711]
	[-177.769786359432, 202.0190208743545, 1057.752058836418]
	[-178.0996530529503, 201.4438007176091, 1058.544283223597]
	[-177.6874760709665, 201.7004993992532, 1058.317621811138]
	[-178.0749661097254, 201.8907152527823, 1057.719526175805]
	[-177.5719729596914, 201.7734963726733, 1058.346483718155]
	[-177.8872467517641, 201.7577165123857, 1058.027861127934]
	[-177.8941486363809, 201.9224830713621, 1057.801357356939]
	[-178.0138742810495, 201.7100910697428, 1058.040052851234]
	[-177.8400023844613, 201.7787577408221, 1058.04013251027]
	[-177.8263513198158, 201.7020759028679, 1058.225254840088]
	[-177.8652212287163, 201.5171836969711, 1058.45667846156]
	[-177.8927390794085, 201.9243552434592, 1057.792505922257]
	[-177.5217153561726, 201.6530601438601, 1058.504985077059]
	[-177.6385526299219, 201.6250580827968, 1058.426903357003]
	[-178.0749661097254, 201.8907152527823, 1057.719526175805]
	[-177.953641774167, 202.003687470399, 1057.572564651303]
	[-177.8913087082427, 201.922458935938, 1057.802514512711]
	[-177.8333402292035, 201.7814979140712, 1058.043483523562]
	[-177.8595277038989, 201.7387735987534, 1058.110103167241]
	[-177.8962278400141, 201.8045766673057, 1057.988926197557]
	[-177.7491164097094, 201.8312409898155, 1058.054835968471]
	[-178.1214512158187, 201.9538897662345, 1057.592793850007]
	[-177.4998885545823, 201.8031778400774, 1058.268544965569]
	[-178.0749661097254, 201.8907152527823, 1057.719526175805]
	[-178.0497912950858, 201.7127241586265, 1058.143713040165]
	[-177.9575022608508, 201.9857485584102, 1057.667978790494]
	[-177.7447176278306, 201.5728935674583, 1058.570529952941]
	[-177.8913087082427, 201.922458935938, 1057.802514512711]
	[-177.8075842726905, 201.6635609014327, 1058.369937355882]
	[-178.2298800055936, 201.8623516050461, 1057.64808461]
	[-177.8962278400141, 201.8045766673057, 1057.988926197557]
	[-177.5659423421568, 201.796509974875, 1058.266706383204]
	[-177.8780927710309, 201.6398806659703, 1058.38729520014]
	[-177.7137984410555, 201.9542773970025, 1057.881470713189]
	[-177.8595277038989, 201.7387735987534, 1058.110103167241]
	[-177.9635530779031, 201.9144510737798, 1057.798724261691]
	[-178.0578137396144, 201.8904808127421, 1057.726758554449]
	[-178.0749661097254, 201.8907152527823, 1057.719526175805]
	[-177.923766406458, 201.7341894264146, 1058.108868692234]
	[-178.0473922299501, 201.8246496241732, 1057.865428989196]
	[-177.8913087082427, 201.922458935938, 1057.802514512711]
	[-178.1949889884783, 201.6644280337743, 1058.089890451303]
	[-177.8130488338052, 201.9605121621088, 1057.774995590191]
	[-177.9319999234265, 201.659519982824, 1058.209507870721]
	[-177.715610859309, 201.9523933859289, 1057.880263683725]
	[-178.2827732277308, 201.9800029312102, 1057.452916453405]
	[-177.5017557494516, 201.8013272442502, 1058.267256168533]
	[-178.2559534924125, 201.9824108928451, 1057.465000751154]
	[-178.1386726733421, 201.9541811162501, 1057.585402923427]
	[-177.5034200006855, 201.7337117854441, 1058.397631641075]
	[-177.8595277038989, 201.7387735987534, 1058.110103167241]
	[-177.9677588401797, 201.6604396542607, 1058.304446646285]
	[-177.8913087082427, 201.922458935938, 1057.802514512711]
	[-177.6598402799841, 201.7709193915533, 1058.197845407814]
	[-177.9873181167789, 202.1730672779907, 1057.347090568345]
	[-178.2298800055936, 201.8623516050461, 1057.64808461]
	[-177.6766473236027, 201.7709519587683, 1058.191294532732]
	[-177.8595277038989, 201.7387735987534, 1058.110103167241]
	[-177.9228493831689, 201.8020136643225, 1057.97736254763]
	[-178.0740176486495, 201.8221320246371, 1057.853733603766]
	[-178.0226992083903, 201.7167007388392, 1058.0640941581]
	[-177.842561325169, 201.7386536873573, 1058.116976059218]
	[-177.9921077613417, 201.8358540974549, 1057.890711653465]
	[-177.8329830358473, 201.7413913135827, 1058.121499408958]
	[-177.7491101003391, 201.7591149895641, 1058.159554892732]
	[-177.8595277038989, 201.7387735987534, 1058.110103167241]
	[-177.325151190218, 201.7670156982869, 1058.473889920265]
	[-177.6329256050884, 201.7118238164449, 1058.34193205812]
	[-177.715610859309, 201.9523933859289, 1057.880263683725]
	[-177.3547697994267, 201.675989349971, 1058.550212751864]
	[-177.5034200006855, 201.7337117854441, 1058.397631641075]
	[-178.0749661097254, 201.8907152527823, 1057.719526175805]
	[-177.715610859309, 201.9523933859289, 1057.880263683725]
	[-177.4970186243356, 201.8431719887092, 1058.192133746656]
	[-177.9546505104696, 201.9857149389427, 1057.669162424794]
	[-177.9946626960319, 201.7906948402945, 1057.945048928925]
	[-177.715610859309, 201.9523933859289, 1057.880263683725]
	[-177.8906934055157, 201.8539773861974, 1057.936283600576]
	[-177.7421472259994, 201.612979830988, 1058.494074321987]
	[-177.5596198471573, 201.9060239043162, 1058.060719957562]
	[-177.7586946108751, 201.7563705105283, 1058.155031808499]
	[-177.7153538239941, 201.8840057369906, 1058.013602507638]
	[-178.2845162531269, 201.8618064393743, 1057.642975457284]
	[-177.8329830358473, 201.7413913135827, 1058.121499408958]
	[-178.1010255768646, 201.9771722699267, 1057.505788615891]
	[-178.0704192012013, 201.9393745561245, 1057.626461040488]
	[-177.5017557494516, 201.8013272442502, 1058.267256168533]
	[-177.9008187033147, 201.9197160904288, 1057.798015427061]
	[-177.325151190218, 201.7670156982869, 1058.473889920265]
	[-177.715610859309, 201.9523933859289, 1057.880263683725]
	[-178.0740176486495, 201.8221320246371, 1057.853733603766]
	[-177.6766473236027, 201.7709519587683, 1058.191294532732]
	[-177.8374174750966, 201.5272205857219, 1058.56490948448]
	[-177.6598402799841, 201.7709193915533, 1058.197845407814]
	[-177.4474316215397, 201.8127420867438, 1058.291176299934]
	[-178.2298800055936, 201.8623516050461, 1057.64808461]
	[-177.8329830358473, 201.7413913135827, 1058.121499408958]
	[-177.9002170994779, 201.8512273940664, 1057.931794634118]
	[-177.6583686860955, 201.7429279954031, 1058.25281698479]
	[-177.8578678687266, 201.7107374923669, 1058.165290011475]
	[-177.6794553238178, 201.770957022707, 1058.190197456171]
	[-177.715610859309, 201.9523933859289, 1057.880263683725]
	[-178.0740176486495, 201.8221320246371, 1057.853733603766]
	[-177.5017557494516, 201.8013272442502, 1058.267256168533]
	[-178.2827732277308, 201.9800029312102, 1057.452916453405]
	[-177.6766473236027, 201.7709519587683, 1058.191294532732]
	[-177.6766473236027, 201.7709519587683, 1058.191294532732]
	[-178.1594669398968, 201.6239023880262, 1058.227258992496]
	[-177.6315527266838, 201.7795042708787, 1058.211239968588]
	[-177.908736747713, 201.9256416388945, 1057.823651500934]
	[-178.0749661097254, 201.8907152527823, 1057.719526175805]
	[-177.8329830358473, 201.7413913135827, 1058.121499408958]
	[-177.715610859309, 201.9523933859289, 1057.880263683725]
	[-177.8595277038989, 201.7387735987534, 1058.110103167241]
	[-177.5017557494516, 201.8013272442502, 1058.267256168533]
	[-178.2298800055936, 201.8623516050461, 1057.64808461]
	[-177.715610859309, 201.9523933859289, 1057.880263683725]
	[-178.0195270166855, 201.9018526926892, 1057.745047285746]
	[-177.8913087082427, 201.922458935938, 1057.802514512711]
	[-177.9008187033147, 201.9197160904288, 1057.798015427061]
	[-177.9008187033147, 201.9197160904288, 1057.798015427061]
	[-177.6969452204745, 201.9542201827016, 1057.888073055583]
	[-177.8570401755487, 201.7788786439118, 1058.033217379709]
	[-177.610348177793, 202.06171481327, 1057.777034212216]
	[-177.6766473236027, 201.7709519587683, 1058.191294532732]
	[-177.4849787818684, 201.7356252137218, 1058.405102610105]
	[-177.7153538239941, 201.8840057369906, 1058.013602507638]
	[-177.7598502310097, 201.6886210062086, 1058.286010853574]
	[-177.6315527266838, 201.7795042708787, 1058.211239968588]
	[-177.6861574353391, 201.7682122313386, 1058.186821618399]
	[-177.8771509491988, 201.9223349102366, 1057.808272242679]
	[-177.8561635866415, 201.724431451397, 1058.244310756304]
	[-177.5017557494516, 201.8013272442502, 1058.267256168533]
	[-177.6834646635344, 201.8082653355854, 1058.11017343345]
	[-177.8329830358473, 201.7413913135827, 1058.121499408958]
	[-177.715610859309, 201.9523933859289, 1057.880263683725]
	[-177.6874760709665, 201.7004993992532, 1058.317621811138]
	[-177.5034200006855, 201.7337117854441, 1058.397631641075]
	[-177.8329830358473, 201.7413913135827, 1058.121499408958]
	[-177.7685023257966, 202.0363781616274, 1057.654900388708]
	[-177.4562752771292, 201.6576217593397, 1058.506522926006]
	[-177.675125923924, 201.7429585144895, 1058.246298325001]
	[-177.5017557494516, 201.8013272442502, 1058.267256168533]
	[-177.7400447137323, 202.1435598356213, 1057.562609766855]
	[-177.5548630500384, 201.8854446614675, 1058.042499360294]
	[-177.9008187033147, 201.9197160904288, 1057.798015427061]
	[-177.6103940247832, 201.9044024599216, 1058.059813559713]
	[-177.6766473236027, 201.7709519587683, 1058.191294532732]
	[-177.8595277038989, 201.7387735987534, 1058.110103167241]
	[-177.4395932434076, 201.6577044076818, 1058.512751770113]
	[-177.8304323674016, 201.7814909132183, 1058.044661833017]
	[-178.0115151680085, 201.7502469721857, 1057.962973601751]
	[-177.9008187033147, 201.9197160904288, 1057.798015427061]
	[-178.0749661097254, 201.8907152527823, 1057.719526175805]
	[-177.7924435659025, 201.5961021679099, 1058.35806500686]
	[-177.6739630140793, 201.8110005948857, 1058.114652211134]
	[-177.3850996257997, 201.6691253361392, 1058.536729577729]
	[-177.5007060685991, 201.7871039372231, 1058.400457225338]
	[-177.6598402799841, 201.7709193915533, 1058.197845407814]
	[-177.8913087082427, 201.922458935938, 1057.802514512711]
	[-177.6766473236027, 201.7709519587683, 1058.191294532732]
	[-177.9008187033147, 201.9197160904288, 1057.798015427061]
	[-177.6217065062991, 201.6250533773895, 1058.433455134585]
	[-177.9008187033147, 201.9197160904288, 1057.798015427061]
	[-177.6766473236027, 201.7709519587683, 1058.191294532732]
	[-178.0015488551128, 201.8331338054648, 1057.886243881155]
	[-177.8604981510494, 201.6709699614734, 1058.241316323818]
	[-177.9928963862887, 201.9043924343617, 1057.756705186155]
	[-177.8595277038989, 201.7387735987534, 1058.110103167241]
	[-177.6767831483239, 201.8110057693447, 1058.113548135944]
	[-177.715610859309, 201.9523933859289, 1057.880263683725]
	[-177.715610859309, 201.9523933859289, 1057.880263683725]
	[-178.0578137396144, 201.8904808127421, 1057.726758554449]
	[-177.7137984410555, 201.9542773970025, 1057.881470713189]
	[-178.0023239607268, 201.901679188328, 1057.752227387066]
	[-177.3231599666096, 201.8345370725138, 1058.343918298502]
	[-177.6766473236027, 201.7709519587683, 1058.191294532732]
	[-178.1812590467079, 201.9971731577841, 1057.49960025872]
	[-177.6779521170048, 201.7032464171189, 1058.322084742134]
	[-177.953641774167, 202.003687470399, 1057.572564651303]
	[-177.6262059118311, 201.7145607831436, 1058.345308648922]
	[-177.8595277038989, 201.7387735987534, 1058.110103167241]
	[-177.8913087082427, 201.922458935938, 1057.802514512711]
	[-178.0482349904561, 201.893221357144, 1057.731309145447]
	[-177.7778180857037, 201.7526550554495, 1058.146453425822]
	[-178.0740176486495, 201.8221320246371, 1057.853733603766]
	[-177.6861574353391, 201.7682122313386, 1058.186821618399]
	[-177.6599045866217, 201.810971243872, 1058.12014474787]
	[-177.6779521170048, 201.7032464171189, 1058.322084742134]
	[-177.842561325169, 201.7386536873573, 1058.116976059218]
	[-177.7183632841261, 201.9524144111826, 1057.879185376713]
	[-177.7685023257966, 202.0363781616274, 1057.654900388708]
	[-177.7183632841261, 201.9524144111826, 1057.879185376713]
	[-177.2820014392967, 201.6883933741115, 1058.580917562738]
	[-178.0502994513995, 201.8246748865091, 1057.864210334821]
	[-178.0482349904561, 201.893221357144, 1057.731309145447]
	[-177.8913087082427, 201.922458935938, 1057.802514512711]
	[-178.228713066013, 201.7936784894291, 1057.782639374341]
	[-177.5061190014363, 201.7337136891429, 1058.396624935371]
	[-178.0115151680085, 201.7502469721857, 1057.962973601751]
	[-178.2298800055936, 201.8623516050461, 1057.64808461]
	[-177.6598402799841, 201.7709193915533, 1058.197845407814]
	[-177.5362341366223, 201.9851922097392, 1057.958650629357]
	[-178.0121231562869, 201.6820175701446, 1058.09538462565]
	[-178.187457381566, 201.9635779804513, 1057.509322474888]
	[-177.7564546481708, 201.8518198265854, 1057.955025861247]
	[-177.5017557494516, 201.8013272442502, 1058.267256168533]
	[-177.4832335202775, 201.8032344257128, 1058.274786611926]
	[-178.0473922299501, 201.8246496241732, 1057.865428989196]
	[-177.6739630140793, 201.8110005948857, 1058.114652211134]
	[-177.2846997535462, 201.6883764443765, 1058.579952208237]
	[-178.0569843593398, 201.8219019513223, 1057.860888721483]
	[-178.0280842816906, 201.6840073029616, 1058.176888611766]
	[-177.8364126673865, 201.9336739634336, 1057.827412956412]
	[-177.8906934055157, 201.8539773861974, 1057.936283600576]
	[-177.9008187033147, 201.9197160904288, 1057.798015427061]
	[-177.4562752771292, 201.6576217593397, 1058.506522926006]
	[-177.6766473236027, 201.7709519587683, 1058.191294532732]
	[-177.8913087082427, 201.922458935938, 1057.802514512711]
	[-178.0482349904561, 201.893221357144, 1057.731309145447]
	[-178.0578137396144, 201.8904808127421, 1057.726758554449]
	[-177.6874760709665, 201.7004993992532, 1058.317621811138]
	[-178.0704192012013, 201.9393745561245, 1057.626461040488]
	[-177.5017557494516, 201.8013272442502, 1058.267256168533]
	[-177.4821788399899, 201.996600736234, 1057.982453598696]
