	[-195.2102789461017, 196.2005432222437, 1064.562183498154]
	[-194.4918057669232, 197.1853775431532, 1062.87118539503]
	[-194.4437782298608, 196.5651761219438, 1064.037482193854]
	[-194.3205141553019, 196.5623122462876, 1064.107570927652]
	[-194.5544600470385, 196.5999463232679, 1063.983519838585]
	[-194.191879056481, 196.736609742907, 1063.840334614058]
	[-194.191879056481, 196.736609742907, 1063.840334614058]
	[-194.5280651112543, 196.7759747050671, 1063.670738412841]
	[-194.2608299051528, 196.566838897914, 1064.146343047671]
	[-194.3714499010911, 196.609552521807, 1064.022601032727]
	[-194.306207993561, 196.7811271440599, 1063.694988345337]
	[-194.3625517918216, 196.4072580592913, 1064.345553053701]
	[-194.3074598446013, 196.4851049520216, 1064.267932734437]
	[-194.2554628158048, 196.3594684542416, 1064.478256210291]
	[-194.191879056481, 196.736609742907, 1063.840334614058]
	[-194.3369007160485, 196.7520246344647, 1063.725656716684]
	[-194.227044949665, 196.7759332846384, 1063.792729995354]
	[-194.3451429424936, 196.6034143329418, 1064.072656731871]
	[-194.5338086408319, 196.6859200736009, 1063.850486625182]
	[-194.3413666678808, 196.4766504823902, 1064.239592653158]
	[-194.3074598446013, 196.4851049520216, 1064.267932734437]
	[-194.2129714149173, 196.6510512304047, 1063.972508742116]
	[-194.4184876077263, 197.1724796795296, 1063.017193501701]
	[-194.2985571744845, 196.5367209279741, 1064.222226620016]
	[-194.3815467068819, 196.6420430520655, 1064.025887208819]
	[-194.1042627067753, 196.8409562476361, 1063.692331073752]
	[-194.2513003902907, 196.6206094168541, 1064.048743752672]
	[-194.2979827685395, 196.2841167438762, 1064.588086859316]
	[-194.3573095167058, 196.9252375969353, 1063.497484399014]
	[-194.1008353760255, 196.9950655261895, 1063.453750957835]
	[-194.2592306926582, 196.7057108725043, 1063.928087032927]
	[-194.0914199231276, 196.7638488227055, 1063.853039275368]
	[-194.1632333120056, 196.9224052347915, 1063.608164959604]
	[-194.1932349917325, 196.9698042764654, 1063.438869922045]
	[-194.1408078022262, 196.7741335226438, 1063.881947805681]
	[-194.4033637286886, 196.7346041301394, 1063.803620538022]
	[-194.2539613121715, 197.1497801282116, 1063.199408204065]
	[-194.1913170940947, 196.9282512673053, 1063.59736639425]
	[-194.4802168307244, 196.9600808801927, 1063.475642071131]
	[-194.4770284855944, 196.4220513628495, 1064.35204370778]
	[-194.2728887717723, 196.7324757611176, 1063.88833392939]
	[-194.3723522414072, 196.9433344527845, 1063.47607273224]
	[-194.1206867231859, 196.9286866788533, 1063.6370168022]
	[-194.1306310315963, 196.856890306452, 1063.667068333166]
	[-194.309145227628, 196.5620561138637, 1064.179993717625]
	[-194.1632333120056, 196.9224052347915, 1063.608164959604]
	[-194.2298162512265, 196.7068286937733, 1063.915690937402]
	[-194.2223312793857, 197.0414556693763, 1063.329372453308]
	[-194.3334985142862, 196.6527501543755, 1064.042503632625]
	[-194.2375647951456, 197.1777268521238, 1063.153434959944]
	[-194.2494616296489, 196.9299649332537, 1063.530768849799]
	[-194.3099768464241, 197.0052684421119, 1063.306681516828]
	[-194.0786415306953, 196.7753940427087, 1063.834218829922]
	[-194.3016223046076, 196.9732663343212, 1063.482661228917]
	[-194.324004997702, 197.1296477390759, 1063.126334266563]
	[-194.0054425622209, 196.8734778118234, 1063.846371104479]
	[-194.1798135879542, 197.0478361075117, 1063.358098654809]
	[-194.2090835989516, 196.8239634559529, 1063.785373303407]
	[-194.2360417606708, 196.8632892249817, 1063.707523813503]
	[-194.2360417606708, 196.8632892249817, 1063.707523813503]
	[-194.1751395898535, 196.9925058888396, 1063.502482252936]
	[-194.2678157007117, 196.8724499848755, 1063.625732156508]
	[-194.309675267819, 197.2462137985288, 1063.009984384168]
	[-194.3934596902389, 196.8581194376044, 1063.6083173399]
	[-194.2947321217013, 196.8421522642092, 1063.723173079222]
	[-194.256885373962, 197.1491257320708, 1063.110139698455]
	[-194.2209297354024, 196.96389663646, 1063.524309977984]
	[-194.2649178086457, 197.0133477629089, 1063.440781316396]
	[-194.1244223912938, 196.9478953557519, 1063.58073351311]
	[-194.2102885952992, 196.8310940053013, 1063.7091267209]
	[-194.4360496294096, 196.8815384469004, 1063.545571769504]
	[-194.233895001316, 196.921959201606, 1063.568487798335]
	[-194.1632333120056, 196.9224052347915, 1063.608164959604]
	[-194.1846003754832, 196.8372841535383, 1063.740042925054]
	[-194.2186853958835, 197.0227146801941, 1063.384803258004]
	[-194.3389704042722, 196.6483201775015, 1064.05477897279]
	[-194.4327829729515, 196.8628274649319, 1063.600751706217]
	[-194.2537194075363, 196.7590288304162, 1063.895307519177]
	[-194.4018174712922, 197.2295811363899, 1062.993241761806]
	[-194.1668915825693, 196.9415402081559, 1063.552036240703]
	[-194.233895001316, 196.921959201606, 1063.568487798335]
	[-194.2962115335575, 196.6832941349093, 1064.020509391175]
	[-194.3963967300547, 196.6483215420647, 1063.992731785167]
	[-194.1175425309199, 196.9512065035558, 1063.585900674467]
	[-194.0834989745015, 196.8100998424611, 1063.833492691404]
	[-194.1206867231859, 196.9286866788533, 1063.6370168022]
	[-194.2507358439691, 196.7499458953441, 1063.910354976558]
	[-194.2537194075363, 196.7590288304162, 1063.895307519177]
	[-194.1632333120056, 196.9224052347915, 1063.608164959604]
	[-194.2489206117514, 196.9401420851938, 1063.546950657077]
	[-194.3751308630976, 196.8210035908144, 1063.685444953054]
	[-194.2702323470448, 196.8550999174894, 1063.6787733316]
	[-194.1632333120056, 196.9224052347915, 1063.608164959604]
	[-194.2687391954528, 197.0298569941112, 1063.349140030054]
	[-194.4655885593306, 196.657718386361, 1063.971726392793]
	[-194.3454272495502, 196.6736601218365, 1063.986671284157]
	[-194.1846003754832, 196.8372841535383, 1063.740042925054]
	[-194.3373356408831, 196.8358365022828, 1063.694306495606]
	[-194.2729640607526, 196.9309035781352, 1063.548895584365]
	[-194.2572441409149, 196.7782233112215, 1063.839210150506]
	[-194.1081927120937, 196.9079728113199, 1063.617037876146]
	[-194.2355972854559, 196.7316452824993, 1063.887702293349]
	[-194.3312548493418, 197.1611057722565, 1063.142684101902]
	[-194.2301835222618, 196.7370643516682, 1063.922222999893]
	[-194.1454057681179, 197.0265851499946, 1063.420063611243]
	[-194.1121783610455, 197.2309967157292, 1063.048389138612]
	[-194.1581927189386, 197.103538159673, 1063.258915175144]
	[-194.2568704254605, 196.877978156385, 1063.542707101876]
	[-194.2735785524363, 196.6660934868338, 1064.040957723437]
	[-194.1069130206099, 197.0735504129675, 1063.301127517725]
	[-194.233895001316, 196.921959201606, 1063.568487798335]
	[-194.1632333120056, 196.9224052347915, 1063.608164959604]
	[-194.2274919169998, 196.9252385567776, 1063.573323000401]
	[-194.0704243327165, 197.1313571990648, 1063.275779717824]
	[-194.1887271031414, 196.9172115187162, 1063.575779184847]
	[-194.3706326144844, 196.7198689873149, 1063.839365035327]
	[-194.2641024578948, 197.3170720715565, 1062.781508055504]
	[-194.2392958560361, 196.7500320658356, 1063.884687683098]
	[-194.2811947194707, 196.7842178409862, 1063.837259335854]
	[-194.1517809718246, 197.042265204407, 1063.36835581376]
	[-194.2552581590557, 196.8368239370243, 1063.700421166999]
	[-194.1604224254233, 196.7947523066686, 1063.777269484915]
	[-194.0520907504639, 196.9851336941246, 1063.535126478797]
	[-194.1259053558974, 196.8037177980713, 1063.80492326771]
	[-194.3529226773816, 197.0423632823376, 1063.276212903529]
	[-194.1421769235486, 196.8110949908646, 1063.767972685503]
	[-194.3454272495502, 196.6736601218365, 1063.986671284157]
	[-194.2062377732978, 196.6962317468898, 1063.954274984634]
	[-194.2224974389356, 196.537603610581, 1064.23846729183]
	[-194.2007329509224, 197.1264435451249, 1063.197248361489]
	[-194.2274919169998, 196.9252385567776, 1063.573323000401]
	[-194.1668915825693, 196.9415402081559, 1063.552036240703]
	[-194.3243463475758, 196.7588164813295, 1063.855022782685]
	[-194.1736831200843, 196.646764140659, 1064.120084303765]
	[-194.1206867231859, 196.9286866788533, 1063.6370168022]
	[-194.1898125559057, 196.7132290336499, 1063.901498058316]
	[-194.3358388922995, 196.8461489406884, 1063.658914386046]
	[-194.2936246320423, 196.8326856390166, 1063.664046895954]
	[-194.1092945015606, 197.0486350269396, 1063.397055480167]
	[-194.1570203987155, 197.0111403548706, 1063.399525284085]
	[-194.3090650503333, 197.2495412407283, 1062.97635829827]
	[-194.197490282998, 196.5312247559744, 1064.24354487222]
	[-194.3005820430199, 196.5613380677754, 1064.193777697994]
	[-194.2245022534893, 196.9606723466423, 1063.609453663309]
	[-194.3123325467241, 196.7378999328758, 1063.910968779977]
	[-194.2643076715159, 196.6976641803821, 1063.888381002731]
	[-194.2147733530194, 196.7845946595956, 1063.867869934433]
	[-194.2254744239993, 197.0549369245464, 1063.331969712101]
	[-194.2256329153416, 196.6835085341661, 1064.060703252819]
	[-194.1751395898535, 196.9925058888396, 1063.502482252936]
	[-194.402276452184, 196.7738435581762, 1063.817634956111]
	[-194.1272803908058, 197.1493825955462, 1063.185499543261]
	[-194.1345162522117, 196.6425857022053, 1064.090289059471]
	[-194.1974805381857, 196.914377453729, 1063.579136424866]
	[-194.1244223912938, 196.9478953557519, 1063.58073351311]
	[-194.2080046524412, 196.7878671983007, 1063.873038190931]
	[-194.2147733530194, 196.7845946595956, 1063.867869934433]
	[-194.1536840159962, 197.0773823408345, 1063.370710554527]
	[-194.1517809718246, 197.042265204407, 1063.36835581376]
	[-194.301503817947, 196.6758831684301, 1063.9917492816]
	[-194.2385570783284, 196.7606438224807, 1063.900159933529]
	[-194.1580402585754, 197.2406599508327, 1063.057498715547]
	[-194.2585745932559, 196.849984366794, 1063.703518787758]
	[-194.1536840159962, 197.0773823408345, 1063.370710554527]
	[-194.1526187328643, 196.7437041831771, 1063.879348801402]
	[-194.1948354974128, 197.1839767579795, 1063.182516503406]
	[-194.359164016643, 196.8851873461334, 1063.590474397404]
	[-194.3441955483594, 196.8677038816091, 1063.642366744466]
	[-194.5597066694133, 197.1915499202775, 1062.989395785323]
	[-194.2789098289949, 197.1500957128009, 1063.14800830274]
	[-194.3162092291485, 196.8914874388665, 1063.619732975782]
	[-194.0931807308196, 197.3320075584972, 1062.954120932937]
	[-194.2045304088015, 196.7686073443889, 1063.929216446832]
	[-194.3742805704887, 196.7845374746246, 1063.773528251474]
	[-194.3565910986464, 196.5724506007449, 1064.179131662296]
	[-194.3313439333105, 196.7908225545096, 1063.802783915138]
	[-194.3313439333105, 196.7908225545096, 1063.802783915138]
	[-194.1603746722957, 196.9448085881985, 1063.556938712789]
	[-194.1578520720668, 197.1207869323696, 1063.215535024401]
	[-194.2550896946602, 196.9542771460328, 1063.498407208863]
	[-194.0844131517624, 197.1558110753765, 1063.214464440812]
	[-194.1338995328443, 197.1460996935653, 1063.180552169932]
	[-194.1023631853582, 197.0519538534049, 1063.402244650042]
	[-194.2322062638952, 197.0515682806605, 1063.326947068859]
	[-194.2209151578684, 196.8647649314253, 1063.712638406132]
	[-193.9474148623366, 196.8508446756864, 1063.883684371457]
	[-194.3742805704887, 196.7845374746246, 1063.773528251474]
	[-194.3852370257883, 196.9615832968592, 1063.512734885921]
	[-194.2407244318981, 196.9542252987184, 1063.51558349055]
	[-194.2080046524412, 196.7878671983007, 1063.873038190931]
	[-194.3630685877659, 196.8822051225374, 1063.675283094437]
	[-194.2080046524412, 196.7878671983007, 1063.873038190931]
	[-194.1751395898535, 196.9925058888396, 1063.502482252936]
	[-194.2080046524412, 196.7878671983007, 1063.873038190931]
	[-194.1929401181526, 196.8885676426333, 1063.689945353431]
	[-194.328145746368, 196.7717741486474, 1063.858493186902]
	[-194.2983364835531, 196.9953880124583, 1063.432317783254]
	[-194.2080046524412, 196.7878671983007, 1063.873038190931]
	[-194.2322062638952, 197.0515682806605, 1063.326947068859]
	[-194.2817670774147, 196.7651243910617, 1063.883864152381]
	[-194.359164016643, 196.8851873461334, 1063.590474397404]
	[-194.1929401181526, 196.8885676426333, 1063.689945353431]
	[-194.2983364835531, 196.9953880124583, 1063.432317783254]
	[-194.1934765647683, 196.8696022565092, 1063.736338704587]
	[-194.2983364835531, 196.9953880124583, 1063.432317783254]
	[-194.2245164905154, 196.9828169768749, 1063.468606299955]
	[-194.2754662438545, 196.746391774902, 1063.809829889057]
	[-194.2770855578623, 197.080436823751, 1063.300124865342]
	[-194.2180078830567, 196.9860615780929, 1063.473554780036]
	[-194.1867836964332, 196.8728904138436, 1063.741456725932]
	[-194.1603746722957, 196.9448085881985, 1063.556938712789]
	[-194.3228299970557, 196.8881569610494, 1063.614709782241]
	[-194.1867836964332, 196.8728904138436, 1063.741456725932]
	[-194.1849025922756, 196.6204013773497, 1064.240686645807]
	[-194.2101299116557, 196.7852480241747, 1063.795784140842]
	[-194.3335633774944, 197.2697636735782, 1062.953477913736]
	[-194.3451440081783, 196.9863796703089, 1063.487370766172]
	[-194.1880821680937, 197.1873281426882, 1063.187591877451]
	[-194.2074517542942, 197.158756378984, 1063.14423773647]
	[-194.2983364835531, 196.9953880124583, 1063.432317783254]
	[-194.1751395898535, 196.9925058888396, 1063.502482252936]
	[-194.2074517542942, 197.158756378984, 1063.14423773647]
	[-194.359164016643, 196.8851873461334, 1063.590474397404]
	[-194.2360660766046, 197.0171079823539, 1063.481696869492]
	[-194.2080046524412, 196.7878671983007, 1063.873038190931]
	[-194.3499968424441, 197.1188951866362, 1063.245112328086]
	[-194.383284706857, 196.9144278913043, 1063.616127525863]
	[-194.2431574756887, 197.0619528307458, 1063.396852977702]
	[-194.3162092291485, 196.8914874388665, 1063.619732975782]
	[-194.3111166442292, 197.0707558421195, 1063.274316219196]
	[-194.3162092291485, 196.8914874388665, 1063.619732975782]
	[-194.3441357159114, 197.1562537954163, 1063.079037150307]
	[-194.1751395898535, 196.9925058888396, 1063.502482252936]
	[-194.1751395898535, 196.9925058888396, 1063.502482252936]
	[-194.2456569208206, 197.0867818443515, 1063.273435144407]
	[-194.2202436827598, 197.3540239648281, 1062.827472607975]
	[-194.187977999219, 197.0678898342152, 1063.344497782395]
	[-194.2458234784913, 196.7159554489752, 1064.001403793459]
	[-194.3014930877081, 196.8437307478154, 1063.674226120928]
	[-194.2559878969388, 196.9143271965113, 1063.601981435912]
	[-194.2983364835531, 196.9953880124583, 1063.432317783254]
	[-194.1751395898535, 196.9925058888396, 1063.502482252936]
	[-194.178134863773, 196.8405454758766, 1063.744922386646]
	[-194.2456569208206, 197.0867818443515, 1063.273435144407]
	[-194.3313439333105, 196.7908225545096, 1063.802783915138]
	[-194.3162092291485, 196.8914874388665, 1063.619732975782]
	[-194.2983364835531, 196.9953880124583, 1063.432317783254]
	[-194.4508304304554, 196.9977030853471, 1063.343631312078]
	[-194.1751395898535, 196.9925058888396, 1063.502482252936]
	[-194.2213909272477, 196.9829719055512, 1063.558737661532]
	[-194.2074517542942, 197.158756378984, 1063.14423773647]
	[-194.2770855578623, 197.080436823751, 1063.300124865342]
	[-194.2983364835531, 196.9953880124583, 1063.432317783254]
	[-194.3413089639097, 196.9890720890111, 1063.403058368499]
	[-194.2983364835531, 196.9953880124583, 1063.432317783254]
	[-194.1751395898535, 196.9925058888396, 1063.502482252936]
	[-194.2811947194707, 196.7842178409862, 1063.837259335854]
	[-194.2983364835531, 196.9953880124583, 1063.432317783254]
	[-194.263772681145, 196.8583431603622, 1063.683688831992]
	[-194.3413089639097, 196.9890720890111, 1063.403058368499]
	[-194.3430089924062, 196.9203113072244, 1063.555711850571]
	[-194.2983364835531, 196.9953880124583, 1063.432317783254]
	[-194.3401347019421, 197.069733046531, 1063.256875113676]
	[-194.2983364835531, 196.9953880124583, 1063.432317783254]
	[-194.2902498402523, 196.7942703268228, 1063.755250423523]
	[-194.3162092291485, 196.8914874388665, 1063.619732975782]
	[-194.3217634320349, 196.8760309106435, 1063.614967095855]
	[-194.1145995038643, 196.8974039087061, 1063.741694604097]
	[-194.3313439333105, 196.7908225545096, 1063.802783915138]
	[-194.0950704521153, 196.8511455624077, 1063.724530832292]
	[-194.3742805704887, 196.7845374746246, 1063.773528251474]
	[-194.2165067529513, 197.2152531132338, 1063.041714023302]
	[-194.3413089639097, 196.9890720890111, 1063.403058368499]
	[-194.2080046524412, 196.7878671983007, 1063.873038190931]
	[-194.2983364835531, 196.9953880124583, 1063.432317783254]
	[-194.2134624418431, 196.6618555435991, 1064.041773879133]
	[-194.1929401181526, 196.8885676426333, 1063.689945353431]
	[-194.0844131517624, 197.1558110753765, 1063.214464440812]
	[-194.359164016643, 196.8851873461334, 1063.590474397404]
	[-194.2080046524412, 196.7878671983007, 1063.873038190931]
	[-194.1244223912938, 196.9478953557519, 1063.58073351311]
	[-194.2245991508396, 196.8503655067904, 1063.65022082673]
	[-194.3654989603492, 196.5829708271683, 1064.096291666609]
	[-194.2900206184456, 196.944639588069, 1063.481534347832]
	[-194.3499325206674, 197.1482226703245, 1063.161652566602]
	[-194.2209151578684, 196.8647649314253, 1063.712638406132]
	[-194.1272803908058, 197.1493825955462, 1063.185499543261]
	[-194.1230343174646, 196.8272991862851, 1063.747301588745]
	[-194.1303615949599, 197.0282050172452, 1063.424925799054]
	[-194.2172855878862, 196.4824081689742, 1064.381615491824]
	[-194.1998932019976, 196.5869167628691, 1064.194247810348]
	[-194.247404990438, 196.9508640580437, 1063.510583069982]
	[-194.178134863773, 196.8405454758766, 1063.744922386646]
	[-194.1376879572464, 196.8445784975576, 1063.695990872605]
	[-194.2057051299074, 196.9639641391327, 1063.532296067595]
	[-194.1526187328643, 196.7437041831771, 1063.879348801402]
	[-194.2256329153416, 196.6835085341661, 1064.060703252819]
	[-194.2878053356701, 196.7510015174271, 1063.866318588298]
	[-194.248580126139, 196.9575276645913, 1063.503344304346]
	[-194.1208105869466, 196.9257841228769, 1063.644392547833]
	[-194.1175425309199, 196.9512065035558, 1063.585900674467]
	[-194.1568434731662, 196.9256824621459, 1063.612993460703]
	[-194.1421481942643, 196.8436238673225, 1063.768739610701]
	[-194.1999545478365, 196.9576438072512, 1063.467946504695]
	[-194.1199920051305, 196.9485727287286, 1063.508505712208]
	[-194.263772681145, 196.8583431603622, 1063.683688831992]
	[-194.1338995328443, 197.1460996935653, 1063.180552169932]
	[-194.2950764877987, 196.9766127145296, 1063.487633757142]
	[-194.2572441409149, 196.7782233112215, 1063.839210150506]
	[-194.178134863773, 196.8405454758766, 1063.744922386646]
	[-194.1170273683962, 196.7470081700931, 1063.902580411079]
	[-194.1767364614885, 196.6360920761539, 1064.062014111654]
	[-194.1301784884112, 197.1272387826733, 1063.236286626967]
	[-194.2684480728633, 196.6771103221571, 1064.031779717233]
	[-194.2902498402523, 196.7942703268228, 1063.755250423523]
	[-194.1023631853582, 197.0519538534049, 1063.402244650042]
	[-194.1929401181526, 196.8885676426333, 1063.689945353431]
	[-194.2080046524412, 196.7878671983007, 1063.873038190931]
	[-194.0971047795383, 197.0266765046563, 1063.379068189073]
	[-194.285521098485, 196.768480788012, 1063.812954429879]
	[-194.1421481942643, 196.8436238673225, 1063.768739610701]
	[-194.1244223912938, 196.9478953557519, 1063.58073351311]
	[-194.2407244318981, 196.9542252987184, 1063.51558349055]
	[-194.2177406362564, 196.8536708644126, 1063.655383368321]
	[-194.2598689218136, 196.4758549067247, 1064.35311533446]
	[-194.1674940329698, 196.7918466714931, 1063.824287341915]
	[-194.2241309374479, 196.4792064852057, 1064.37633049804]
	[-194.1994490872401, 197.1050810929013, 1063.200898904472]
	[-194.1846003754832, 196.8372841535383, 1063.740042925054]
	[-194.2508375339539, 196.7814533640487, 1063.84411384049]
	[-194.1092945015606, 197.0486350269396, 1063.397055480167]
	[-194.1127723138591, 196.7289232636665, 1063.957198724291]
	[-194.1409476598855, 196.7208477954209, 1063.942882251279]
	[-194.1751395898535, 196.9925058888396, 1063.502482252936]
	[-194.1820113501262, 196.9892183677441, 1063.497268957203]
	[-194.2508375339539, 196.7814533640487, 1063.84411384049]
	[-194.1421481942643, 196.8436238673225, 1063.768739610701]
	[-194.2209297354024, 196.96389663646, 1063.524309977984]
	[-194.3014930877081, 196.8437307478154, 1063.674226120928]
	[-194.1338995328443, 197.1460996935653, 1063.180552169932]
	[-194.2241309374479, 196.4792064852057, 1064.37633049804]
	[-194.1632333120056, 196.9224052347915, 1063.608164959604]
	[-194.172357568603, 196.8175206804603, 1063.71368377664]
	[-194.3413089639097, 196.9890720890111, 1063.403058368499]
	[-194.1603746722957, 196.9448085881985, 1063.556938712789]
	[-194.1974805381857, 196.914377453729, 1063.579136424866]
	[-194.2748033617079, 196.6738873457076, 1064.026898997876]
	[-194.3772816088034, 196.7622760240573, 1063.82440047517]
	[-194.0894769239093, 196.8240157722663, 1063.704239502032]
	[-194.380530377564, 196.7812591446354, 1063.768772049781]
	[-194.1199920051305, 196.9485727287286, 1063.508505712208]
	[-194.1298681473458, 196.8219706986008, 1063.750117184749]
	[-194.1474607818292, 196.7176394413869, 1063.937906321558]
	[-194.1592643872338, 196.7404993524256, 1063.874305167914]
	[-194.1592643872338, 196.7404993524256, 1063.874305167914]
	[-194.1592643872338, 196.7404993524256, 1063.874305167914]
	[-194.1454057681179, 197.0265851499946, 1063.420063611243]
	[-194.0648944531823, 196.7265780249835, 1063.919519038038]
	[-194.1298681473458, 196.8219706986008, 1063.750117184749]
	[-194.1950485200715, 196.5607254196324, 1064.252621105179]
	[-194.1550043195811, 196.9207249558439, 1063.607858109257]
	[-194.1898125559057, 196.7132290336499, 1063.901498058316]
	[-194.1846003754832, 196.8372841535383, 1063.740042925054]
	[-194.1472587846388, 196.8129314042532, 1063.799148012773]
	[-194.2748033617079, 196.6738873457076, 1064.026898997876]
	[-194.1592643872338, 196.7404993524256, 1063.874305167914]
	[-194.1550043195811, 196.9207249558439, 1063.607858109257]
	[-194.1150727697977, 196.6221676556043, 1064.07982565587]
	[-194.2127746276848, 196.8431742640528, 1063.729144509317]
	[-194.0875409356707, 196.8284267854101, 1063.778530863937]
	[-194.1233035553015, 196.8251862884583, 1063.755115964777]
	[-194.176003752441, 196.999474334695, 1063.447121996616]
	[-194.2401483304396, 196.4865550457687, 1064.250330513125]
	[-194.1121783610455, 197.2309967157292, 1063.048389138612]
	[-194.2915093441167, 196.9635790690215, 1063.484162207497]
	[-194.1581927189386, 197.103538159673, 1063.258915175144]
	[-194.3660614442277, 196.9533504219028, 1063.438441308405]
	[-194.2374313873718, 197.0581800397182, 1063.310585360811]
	[-194.178134863773, 196.8405454758766, 1063.744922386646]
	[-194.1668915825693, 196.9415402081559, 1063.552036240703]
	[-194.1797884284428, 197.0185175315607, 1063.391024278177]
	[-194.1428467114876, 196.8989678388416, 1063.589375011593]
	[-194.178134863773, 196.8405454758766, 1063.744922386646]
	[-194.1427618177925, 197.2024479277173, 1063.078396024705]
	[-194.2687391954528, 197.0298569941112, 1063.349140030054]
	[-194.1345162522117, 196.6425857022053, 1064.090289059471]
	[-194.2245164905154, 196.9828169768749, 1063.468606299955]
	[-194.1767364614885, 196.6360920761539, 1064.062014111654]
	[-194.1244223912938, 196.9478953557519, 1063.58073351311]
	[-194.0875409356707, 196.8284267854101, 1063.778530863937]
	[-194.1974805381857, 196.914377453729, 1063.579136424866]
	[-194.0913963031319, 197.1524849708392, 1063.209252130908]
	[-194.2858201488978, 196.809490819656, 1063.727784878321]
	[-194.1244223912938, 196.9478953557519, 1063.58073351311]
	[-194.1846003754832, 196.8372841535383, 1063.740042925054]
	[-194.1372952565121, 197.02488048252, 1063.419746540585]
	[-194.1668915825693, 196.9415402081559, 1063.552036240703]
	[-194.1244223912938, 196.9478953557519, 1063.58073351311]
	[-194.1244223912938, 196.9478953557519, 1063.58073351311]
	[-194.1668915825693, 196.9415402081559, 1063.552036240703]
	[-194.1538561206301, 196.797973960448, 1063.782257170336]
	[-194.1846003754832, 196.8372841535383, 1063.740042925054]
	[-194.233895001316, 196.921959201606, 1063.568487798335]
	[-194.1148697478523, 196.9227660294232, 1063.566655493383]
	[-194.1797884284428, 197.0185175315607, 1063.391024278177]
	[-194.2346679181131, 196.878902759507, 1063.66194587954]
	[-194.1668915825693, 196.9415402081559, 1063.552036240703]
	[-194.1797884284428, 197.0185175315607, 1063.391024278177]
	[-194.1428467114876, 196.8989678388416, 1063.589375011593]
	[-194.0875409356707, 196.8284267854101, 1063.778530863937]
	[-194.1632333120056, 196.9224052347915, 1063.608164959604]
	[-194.0165630031534, 196.6132553790368, 1064.193566746841]
	[-194.1259053558974, 196.8037177980713, 1063.80492326771]
	[-194.1934765647683, 196.8696022565092, 1063.736338704587]
	[-194.244992441556, 196.5591111114346, 1064.215137978846]
	[-194.2323497643169, 196.6802432909724, 1064.055558090576]
	[-194.2702323470448, 196.8550999174894, 1063.6787733316]
	[-194.362908692328, 196.5692323367257, 1064.174267432807]
	[-194.1033249342969, 196.926501820982, 1063.647746259309]
	[-194.1668915825693, 196.9415402081559, 1063.552036240703]
	[-194.1592643872338, 196.7404993524256, 1063.874305167914]
	[-194.1592643872338, 196.7404993524256, 1063.874305167914]
	[-194.1592643872338, 196.7404993524256, 1063.874305167914]
	[-194.1338995328443, 197.1460996935653, 1063.180552169932]
	[-194.2141428360833, 196.6989225902708, 1063.953147875185]
	[-194.1632333120056, 196.9224052347915, 1063.608164959604]
	[-194.209663225884, 196.5140523750858, 1064.222822642426]
	[-194.1668915825693, 196.9415402081559, 1063.552036240703]
	[-194.1244223912938, 196.9478953557519, 1063.58073351311]
	[-194.2324758736479, 196.7365810173814, 1063.839265520279]
	[-194.0753867392942, 196.6083794772047, 1064.155937878992]
	[-194.2516443179748, 196.8176869435696, 1063.756495452322]
	[-194.1913170940947, 196.9282512673053, 1063.59736639425]
	[-194.1421481942643, 196.8436238673225, 1063.768739610701]
	[-194.2684480728633, 196.6771103221571, 1064.031779717233]
	[-194.2682063831861, 196.9137232228542, 1063.53976684585]
	[-194.2433296368483, 196.8158334667854, 1063.7565325933]
	[-194.1463824736643, 197.3410063966975, 1062.864617496624]
	[-194.1517809718246, 197.042265204407, 1063.36835581376]
	[-194.1517809718246, 197.042265204407, 1063.36835581376]
	[-194.1421481942643, 196.8436238673225, 1063.768739610701]
	[-194.1632333120056, 196.9224052347915, 1063.608164959604]
	[-194.2262900892213, 196.5621614497193, 1064.133059677909]
	[-194.2401652176632, 196.9376505497043, 1063.516833425626]
	[-194.1474607818292, 196.7176394413869, 1063.937906321558]
	[-194.1336202083578, 196.7900595061551, 1063.825175649289]
	[-194.1301784884112, 197.1272387826733, 1063.236286626967]
	[-194.2314088634643, 197.0979529398724, 1063.227019788043]
	[-194.1668915825693, 196.9415402081559, 1063.552036240703]
	[-194.2878053356701, 196.7510015174271, 1063.866318588298]
	[-194.24320978407, 196.6176012992797, 1064.076961023968]
	[-194.1170273683962, 196.7470081700931, 1063.902580411079]
	[-194.1338995328443, 197.1460996935653, 1063.180552169932]
	[-194.2866597693299, 196.6401503484711, 1064.05138019685]
	[-194.0614028561106, 197.1832245171776, 1063.13501175359]
	[-194.1668915825693, 196.9415402081559, 1063.552036240703]
	[-194.1259053558974, 196.8037177980713, 1063.80492326771]
	[-194.1846003754832, 196.8372841535383, 1063.740042925054]
	[-194.1797884284428, 197.0185175315607, 1063.391024278177]
	[-194.1974805381857, 196.914377453729, 1063.579136424866]
	[-194.1974805381857, 196.914377453729, 1063.579136424866]
	[-194.1244223912938, 196.9478953557519, 1063.58073351311]
	[-194.2160909839626, 196.6403658562283, 1064.091552103122]
	[-194.1846003754832, 196.8372841535383, 1063.740042925054]
	[-194.1632333120056, 196.9224052347915, 1063.608164959604]
	[-194.1604224254233, 196.7947523066686, 1063.777269484915]
	[-194.1846003754832, 196.8372841535383, 1063.740042925054]
	[-194.1474607818292, 196.7176394413869, 1063.937906321558]
	[-194.1131485241761, 196.7832661879228, 1063.779716574083]
	[-194.1846003754832, 196.8372841535383, 1063.740042925054]
	[-194.1668915825693, 196.9415402081559, 1063.552036240703]
	[-194.2846255817911, 196.81632991376, 1063.711022707148]
	[-194.1668915825693, 196.9415402081559, 1063.552036240703]
	[-194.2323497643169, 196.6802432909724, 1064.055558090576]
	[-194.1252455022571, 196.5900839402362, 1064.144989228774]
	[-194.1846003754832, 196.8372841535383, 1063.740042925054]
	[-194.1210604562507, 196.9849460106762, 1063.456157381453]
	[-194.1797884284428, 197.0185175315607, 1063.391024278177]
	[-194.2148784047056, 196.8405377873241, 1063.652100350145]
	[-194.2878053356701, 196.7510015174271, 1063.866318588298]
	[-194.1443846600354, 196.8413659068743, 1063.690925647574]
	[-194.3837781846962, 196.8491825412729, 1063.62644359679]
	[-194.1846003754832, 196.8372841535383, 1063.740042925054]
	[-194.1298681473458, 196.8219706986008, 1063.750117184749]
	[-194.1846003754832, 196.8372841535383, 1063.740042925054]
	[-194.1051504607826, 196.7240802325526, 1063.966319672376]
	[-194.2728887717723, 196.7324757611176, 1063.88833392939]
	[-194.1428467114876, 196.8989678388416, 1063.589375011593]
	[-194.0802578862792, 196.9429479634852, 1063.506417152374]
	[-194.1604224254233, 196.7947523066686, 1063.777269484915]
	[-194.1846003754832, 196.8372841535383, 1063.740042925054]
	[-194.1974805381857, 196.914377453729, 1063.579136424866]
	[-194.0423686294338, 196.9614967535302, 1063.518726257341]
	[-194.1298681473458, 196.8219706986008, 1063.750117184749]
	[-194.0879577078101, 197.1878684148713, 1063.08758256272]
	[-194.1517809718246, 197.042265204407, 1063.36835581376]
	[-194.1259053558974, 196.8037177980713, 1063.80492326771]
	[-194.1081927120937, 196.9079728113199, 1063.617037876146]
	[-194.1217682643307, 196.6190161260294, 1064.074684808325]
	[-194.2055034023385, 196.4968786144136, 1064.275876437922]
	[-194.2647321456951, 196.5311146054734, 1064.210166360353]
	[-194.1974805381857, 196.914377453729, 1063.579136424866]
	[-194.1148697478523, 196.9227660294232, 1063.566655493383]
	[-194.1632333120056, 196.9224052347915, 1063.608164959604]
	[-194.1604224254233, 196.7947523066686, 1063.777269484915]
	[-194.1668915825693, 196.9415402081559, 1063.552036240703]
	[-194.1846003754832, 196.8372841535383, 1063.740042925054]
	[-194.1846003754832, 196.8372841535383, 1063.740042925054]
	[-194.1846003754832, 196.8372841535383, 1063.740042925054]
	[-194.1974805381857, 196.914377453729, 1063.579136424866]
	[-194.176003752441, 196.999474334695, 1063.447121996616]
	[-194.1632333120056, 196.9224052347915, 1063.608164959604]
	[-194.2653336655038, 196.8141388057067, 1063.697662210325]
	[-194.1667629785556, 196.6705966302263, 1063.982427925106]
	[-194.1604224254233, 196.7947523066686, 1063.777269484915]
	[-194.233895001316, 196.921959201606, 1063.568487798335]
	[-194.233895001316, 196.921959201606, 1063.568487798335]
	[-194.2728887717723, 196.7324757611176, 1063.88833392939]
	[-194.2269392223097, 196.4094787271366, 1064.410215824655]
	[-194.3079257413176, 196.5540376116054, 1064.184130585267]
	[-194.214342828737, 196.7531910326705, 1063.86489551093]
	[-194.1474607818292, 196.7176394413869, 1063.937906321558]
	[-194.1057390973995, 197.0839256838955, 1063.275850218174]
	[-194.1632333120056, 196.9224052347915, 1063.608164959604]
	[-194.1457134499383, 196.7560530498162, 1063.850404795044]
	[-194.1632333120056, 196.9224052347915, 1063.608164959604]
	[-194.115929750264, 196.8943285118437, 1063.637300332871]
	[-194.0963259710043, 196.887196647078, 1063.672742325792]
	[-194.1148697478523, 196.9227660294232, 1063.566655493383]
	[-194.176003752441, 196.999474334695, 1063.447121996616]
	[-194.2218381096091, 196.6852469210756, 1063.973396969161]
	[-194.1517809718246, 197.042265204407, 1063.36835581376]
	[-194.0962166877651, 196.6710505760489, 1064.021877552896]
	[-194.1259053558974, 196.8037177980713, 1063.80492326771]
	[-194.2355739892683, 196.6127538014256, 1064.086090435384]
	[-194.3125145438598, 196.7158906638936, 1063.832060414881]
	[-194.2686537650058, 197.0208956295791, 1063.321407337212]
	[-194.1842602839853, 196.5661615633125, 1064.169992364826]
	[-194.1668915825693, 196.9415402081559, 1063.552036240703]
	[-194.2171667705192, 196.8665075009274, 1063.625109768329]
	[-194.232828370005, 196.8744476416538, 1063.587498556989]
	[-194.1668915825693, 196.9415402081559, 1063.552036240703]
	[-194.3192506267506, 196.544908145083, 1064.199072423134]
	[-194.1873869093604, 196.7131950904668, 1063.944321214952]
	[-194.1797884284428, 197.0185175315607, 1063.391024278177]
	[-194.1457134499383, 196.7560530498162, 1063.850404795044]
	[-194.0751626741638, 196.7564927616079, 1063.889910042027]
	[-194.1842602839853, 196.5661615633125, 1064.169992364826]
	[-194.1680543153035, 196.799601827134, 1063.768112785721]
	[-194.2858201488978, 196.809490819656, 1063.727784878321]
	[-194.2728887717723, 196.7324757611176, 1063.88833392939]
	[-194.176745529143, 196.802096256414, 1063.740348786238]
	[-194.1259053558974, 196.8037177980713, 1063.80492326771]
	[-194.2858201488978, 196.809490819656, 1063.727784878321]
	[-194.1373112819198, 196.9923652620195, 1063.419037009306]
	[-194.1252455022571, 196.5900839402362, 1064.144989228774]
	[-194.2347622510014, 196.7622621631999, 1063.812996236852]
	[-194.1474607818292, 196.7176394413869, 1063.937906321558]
	[-194.2516443179748, 196.8176869435696, 1063.756495452322]
	[-194.1474607818292, 196.7176394413869, 1063.937906321558]
	[-194.1421769235486, 196.8110949908646, 1063.767972685503]
	[-194.2261989269438, 196.8137081590266, 1063.767090570435]
	[-194.1932492843847, 196.6191898736913, 1064.114529821109]
	[-194.0751626741638, 196.7564927616079, 1063.889910042027]
	[-194.2141428360833, 196.6989225902708, 1063.953147875185]
	[-194.0962166877651, 196.6710505760489, 1064.021877552896]
	[-194.2866597693299, 196.6401503484711, 1064.05138019685]
	[-194.1680543153035, 196.799601827134, 1063.768112785721]
	[-194.2728887717723, 196.7324757611176, 1063.88833392939]
	[-194.2683552240738, 196.4976956927878, 1064.283807424367]
	[-194.176003752441, 196.999474334695, 1063.447121996616]
	[-194.176003752441, 196.999474334695, 1063.447121996616]
	[-194.518848597161, 197.0545447824938, 1063.225357334527]
	[-194.1457134499383, 196.7560530498162, 1063.850404795044]
	[-194.1387563543257, 196.8808068367253, 1063.644148122432]
	[-194.4295665851871, 196.7507236141098, 1063.803551156147]
	[-194.1582138729532, 197.0009726134598, 1063.384567498429]
	[-194.1298681473458, 196.8219706986008, 1063.750117184749]
	[-194.1604224254233, 196.7947523066686, 1063.777269484915]
	[-194.2008977531183, 196.8446738072809, 1063.703028674373]
	[-194.2485864951685, 196.6897880122404, 1063.925810866384]
	[-194.1797884284428, 197.0185175315607, 1063.391024278177]
	[-194.1252455022571, 196.5900839402362, 1064.144989228774]
	[-194.1039490368544, 197.023083510358, 1063.346528534021]
	[-194.2135572579309, 196.8468605307092, 1063.682117394978]
	[-194.4343511829015, 196.9894392052061, 1063.354884205815]
	[-194.2801068218293, 196.9026667368784, 1063.558096915661]
	[-194.0916122540823, 196.8523913246781, 1063.673623930644]
	[-194.1454057681179, 197.0265851499946, 1063.420063611243]
	[-194.1210604562507, 196.9849460106762, 1063.456157381453]
	[-194.2256952014406, 196.7220242710702, 1063.889249393967]
	[-194.1668915825693, 196.9415402081559, 1063.552036240703]
	[-194.1206867231859, 196.9286866788533, 1063.6370168022]
	[-194.2007416506021, 196.7698687309464, 1063.842653788504]
	[-194.2484718738779, 196.6130269289597, 1064.15729732973]
	[-194.3329312181067, 196.4543772324501, 1064.362410971314]
	[-194.2141428360833, 196.6989225902708, 1063.953147875185]
	[-194.2885875647974, 196.7403942943016, 1063.850813526612]
	[-194.2516443179748, 196.8176869435696, 1063.756495452322]
	[-194.2310889361331, 196.7940955116453, 1063.738010784976]
	[-194.1680543153035, 196.799601827134, 1063.768112785721]
	[-194.1797884284428, 197.0185175315607, 1063.391024278177]
	[-194.2841888470282, 197.1046586734405, 1063.153495300548]
	[-194.3760781046812, 197.0159661857147, 1063.288626440344]
	[-194.1794781305283, 196.9298454639881, 1063.571040869355]
	[-194.2516443179748, 196.8176869435696, 1063.756495452322]
	[-194.3705529188895, 197.1361460284943, 1063.1689719173]
	[-194.2310889361331, 196.7940955116453, 1063.738010784976]
	[-194.2529963648004, 197.0129123608345, 1063.35918393835]
	[-194.2516443179748, 196.8176869435696, 1063.756495452322]
	[-194.1077900601367, 196.6945026861328, 1063.95741019644]
	[-194.1929969285289, 196.9268013782737, 1063.51860277099]
	[-194.1846003754832, 196.8372841535383, 1063.740042925054]
	[-194.1387563543257, 196.8808068367253, 1063.644148122432]
	[-194.2218381096091, 196.6852469210756, 1063.973396969161]
	[-194.176003752441, 196.999474334695, 1063.447121996616]
	[-194.2559956686728, 196.7704966116924, 1063.853175964624]
	[-194.391920497497, 197.0509021506675, 1063.301734488913]
	[-194.1632333120056, 196.9224052347915, 1063.608164959604]
	[-194.1259053558974, 196.8037177980713, 1063.80492326771]
	[-194.0880068245492, 196.8335821301193, 1063.729282897418]
	[-194.2223312793857, 197.0414556693763, 1063.329372453308]
	[-194.1474607818292, 196.7176394413869, 1063.937906321558]
	[-194.2537194075363, 196.7590288304162, 1063.895307519177]
	[-194.1550265203458, 196.888202048361, 1063.607116344645]
	[-194.1161648167831, 197.0035569638606, 1063.486721927775]
	[-194.2160909839626, 196.6403658562283, 1064.091552103122]
	[-194.1974805381857, 196.914377453729, 1063.579136424866]
	[-194.2141428360833, 196.6989225902708, 1063.953147875185]
	[-194.1591505993256, 196.9063359523322, 1063.552365778855]
	[-194.1428467114876, 196.8989678388416, 1063.589375011593]
	[-194.2682063831861, 196.9137232228542, 1063.53976684585]
	[-194.2042256918111, 196.7896078820842, 1063.785615662049]
	[-194.2360417606708, 196.8632892249817, 1063.707523813503]
	[-194.196508232808, 196.80326959161, 1063.765356454202]
	[-194.0945935506002, 196.9787858735633, 1063.506423460322]
	[-194.1081927120937, 196.9079728113199, 1063.617037876146]
	[-194.392409191303, 196.8361093178431, 1063.631391831359]
	[-194.2403431096802, 196.5706229074994, 1064.133344741723]
	[-194.2135572579309, 196.8468605307092, 1063.682117394978]
	[-194.2637691743761, 196.4325388522187, 1064.361273564719]
	[-194.227044949665, 196.7759332846384, 1063.792729995354]
	[-194.1632333120056, 196.9224052347915, 1063.608164959604]
	[-194.5058613235738, 196.4703729150678, 1064.282817720466]
	[-194.3732201104467, 196.7900544183427, 1063.679751425726]
	[-194.1974805381857, 196.914377453729, 1063.579136424866]
	[-194.2552581590557, 196.8368239370243, 1063.700421166999]
	[-194.2748033617079, 196.6738873457076, 1064.026898997876]
	[-194.0668963187475, 196.75466181958, 1063.889679526096]
	[-194.2516443179748, 196.8176869435696, 1063.756495452322]
	[-194.2347622510014, 196.7622621631999, 1063.812996236852]
	[-194.2218381096091, 196.6852469210756, 1063.973396969161]
	[-194.2019730256143, 196.9657085989027, 1063.444655326707]
	[-194.1898125559057, 196.7132290336499, 1063.901498058316]
	[-194.1092529211201, 197.0161340524767, 1063.396352119242]
	[-194.191879056481, 196.736609742907, 1063.840334614058]
	[-194.2050734562841, 196.7021158437018, 1063.927080778059]
	[-194.2485864951685, 196.6897880122404, 1063.925810866384]
	[-194.227044949665, 196.7759332846384, 1063.792729995354]
	[-194.1633297030874, 196.6516932042659, 1064.038065250433]
	[-194.260481999194, 196.7125560200208, 1063.862287931729]
	[-194.1251661372457, 196.9516620303872, 1063.533499352433]
	[-194.176003752441, 196.999474334695, 1063.447121996616]
	[-194.3243463475758, 196.7588164813295, 1063.855022782685]
	[-194.191879056481, 196.736609742907, 1063.840334614058]
	[-194.0487037435531, 196.9123638055302, 1063.655885297755]
	[-194.1713335021449, 196.9942646295584, 1063.414828831545]
	[-194.1842602839853, 196.5661615633125, 1064.169992364826]
	[-194.227044949665, 196.7759332846384, 1063.792729995354]
	[-194.2832207377611, 196.6627580690978, 1063.966189187587]
	[-194.0520907504639, 196.9851336941246, 1063.535126478797]
	[-194.2256988230272, 196.9200813307316, 1063.568515237316]
	[-194.4626081680281, 196.7076987776406, 1063.803789845288]
	[-194.196508232808, 196.80326959161, 1063.765356454202]
	[-194.1604224254233, 196.7947523066686, 1063.777269484915]
	[-194.2186853958835, 197.0227146801941, 1063.384803258004]
	[-194.2135572579309, 196.8468605307092, 1063.682117394978]
	[-194.2516443179748, 196.8176869435696, 1063.756495452322]
	[-194.2858201488978, 196.809490819656, 1063.727784878321]
	[-194.2355739892683, 196.6127538014256, 1064.086090435384]
	[-194.1515213808144, 196.8274362600335, 1063.744417115749]
	[-194.227044949665, 196.7759332846384, 1063.792729995354]
	[-194.2558261788948, 196.9456153099107, 1063.479137717567]
	[-194.0751626741638, 196.7564927616079, 1063.889910042027]
	[-194.2355739892683, 196.6127538014256, 1064.086090435384]
	[-194.3252918317351, 196.449535794297, 1064.371508887821]
	[-194.0786415306953, 196.7753940427087, 1063.834218829922]
	[-194.2858201488978, 196.809490819656, 1063.727784878321]
	[-194.2728887717723, 196.7324757611176, 1063.88833392939]
	[-194.1259053558974, 196.8037177980713, 1063.80492326771]
	[-194.1070028095961, 196.7199529306077, 1063.891527535199]
	[-194.3714499010911, 196.609552521807, 1064.022601032727]
	[-194.2141428360833, 196.6989225902708, 1063.953147875185]
	[-194.1210604562507, 196.9849460106762, 1063.456157381453]
	[-194.3623251447986, 196.9358282031367, 1063.49202229748]
	[-194.1842602839853, 196.5661615633125, 1064.169992364826]
	[-194.1846003754832, 196.8372841535383, 1063.740042925054]
	[-194.2643076715159, 196.6976641803821, 1063.888381002731]
	[-194.1500289397856, 196.6324413007322, 1064.01103991567]
	[-194.1846003754832, 196.8372841535383, 1063.740042925054]
	[-194.2513003902907, 196.6206094168541, 1064.048743752672]
	[-194.2891515218588, 196.9223167907255, 1063.505314958638]
	[-194.2269392223097, 196.4094787271366, 1064.410215824655]
	[-194.2198312534771, 196.7975431218194, 1063.748085712314]
	[-194.176003752441, 196.999474334695, 1063.447121996616]
	[-194.2485864951685, 196.6897880122404, 1063.925810866384]
	[-194.2141428360833, 196.6989225902708, 1063.953147875185]
	[-194.2888944689012, 196.8246316513871, 1063.655969436232]
	[-194.2644662221213, 196.8946781098969, 1063.595809933629]
	[-194.1884988226279, 196.4411560949354, 1064.332187304852]
	[-194.3945329340117, 196.7192126854934, 1063.865192629264]
	[-194.3015135826264, 196.8174297962903, 1063.690181075513]
	[-194.24320978407, 196.6176012992797, 1064.076961023968]
	[-194.2310889361331, 196.7940955116453, 1063.738010784976]
	[-194.1633297030874, 196.6516932042659, 1064.038065250433]
	[-194.2141428360833, 196.6989225902708, 1063.953147875185]
	[-194.3945329340117, 196.7192126854934, 1063.865192629264]
	[-194.1870286573677, 196.5533907653883, 1064.107656610941]
	[-194.3714499010911, 196.609552521807, 1064.022601032727]
	[-194.2141428360833, 196.6989225902708, 1063.953147875185]
	[-194.163785170095, 196.7249652961318, 1063.901066716026]
	[-194.1589675848587, 197.2099527280947, 1063.041016141683]
	[-194.1474607818292, 196.7176394413869, 1063.937906321558]
	[-194.2310889361331, 196.7940955116453, 1063.738010784976]
	[-194.1831298505822, 196.5358417496851, 1064.161321394704]
	[-194.2427130235591, 196.7838598577301, 1063.755189782428]
	[-194.227044949665, 196.7759332846384, 1063.792729995354]
	[-194.2218381096091, 196.6852469210756, 1063.973396969161]
	[-194.39477762519, 196.7038809109791, 1063.812979528427]
	[-194.227044949665, 196.7759332846384, 1063.792729995354]
	[-194.2342933960635, 197.0307289316326, 1063.346998310903]
	[-194.2858201488978, 196.809490819656, 1063.727784878321]
	[-194.0489700354197, 196.6603792213836, 1064.02291470261]
	[-194.2377211229006, 197.0840059033043, 1063.250894885502]
	[-194.0962166877651, 196.6710505760489, 1064.021877552896]
	[-194.3053862276176, 196.4414915367902, 1064.39367575357]
	[-194.1555295385679, 196.521744493739, 1064.225612394825]
	[-194.3230518035108, 196.8305601182908, 1063.681321146159]
	[-194.227044949665, 196.7759332846384, 1063.792729995354]
	[-194.227044949665, 196.7759332846384, 1063.792729995354]
	[-194.0958772699724, 196.8227427016518, 1063.66823692288]
	[-194.2037841003891, 196.6092079529065, 1064.051114892539]
	[-194.1632333120056, 196.9224052347915, 1063.608164959604]
	[-194.0717855974846, 196.683738866246, 1064.00529656041]
	[-194.2838819427055, 196.9216841754752, 1063.502075703167]
	[-194.3058871965561, 196.5531741803082, 1064.146693459354]
	[-194.2928284717415, 196.4759855741009, 1064.3069720493]
	[-194.3732201104467, 196.7900544183427, 1063.679751425726]
	[-194.0109888431402, 196.9422755429909, 1063.57992626666]
	[-194.0358899260123, 196.787360292348, 1063.83556873278]
	[-194.2520399277409, 196.8026642339192, 1063.703670876896]
	[-194.1877892616362, 196.7525874156598, 1063.812546594511]
	[-194.4713899119785, 196.9110087614242, 1063.45138874234]
	[-194.1073744371886, 197.0557398233817, 1063.345424427278]
	[-194.2427130235591, 196.7838598577301, 1063.755189782428]
	[-194.1633297030874, 196.6516932042659, 1064.038065250433]
	[-194.246733579823, 196.9988344821856, 1063.407696998062]
	[-194.2527825319523, 196.9152955276724, 1063.509929578943]
	[-194.2298162512265, 196.7068286937733, 1063.915690937402]
	[-194.1842602839853, 196.5661615633125, 1064.169992364826]
	[-194.2141428360833, 196.6989225902708, 1063.953147875185]
	[-194.3437438158585, 196.5232049326085, 1064.222230359937]
	[-194.3266859964806, 196.4675615206651, 1064.278605343346]
	[-194.2298162512265, 196.7068286937733, 1063.915690937402]
	[-194.212102452156, 196.8112132805661, 1063.727810281478]
	[-194.2141428360833, 196.6989225902708, 1063.953147875185]
	[-194.233895001316, 196.921959201606, 1063.568487798335]
	[-194.3205141553019, 196.5623122462876, 1064.107570927652]
	[-194.1655941569939, 196.8924424818201, 1063.606234589615]
	[-194.1742620354506, 196.8408761519413, 1063.652481999803]
	[-194.1846003754832, 196.8372841535383, 1063.740042925054]
	[-194.1363944167391, 196.7600197838664, 1063.823045468581]
	[-194.2516443179748, 196.8176869435696, 1063.756495452322]
	[-194.3112304877773, 196.3613653863682, 1064.428115374807]
	[-194.191879056481, 196.736609742907, 1063.840334614058]
	[-194.1839841715124, 196.71782155803, 1063.816852138231]
	[-194.1543038115419, 196.450994632287, 1064.358388135539]
	[-194.227044949665, 196.7759332846384, 1063.792729995354]
	[-194.2401483304396, 196.4865550457687, 1064.250330513125]
	[-194.1951745100723, 196.849464128735, 1063.618108488417]
	[-194.288695242037, 196.4030212857397, 1064.42250406639]
	[-194.1633297030874, 196.6516932042659, 1064.038065250433]
	[-194.3339273666302, 196.6139983682812, 1064.054902246586]
	[-194.2212605085298, 196.5046724542065, 1064.238695734235]
	[-194.0574685199961, 196.8607607845473, 1063.702155528867]
	[-194.2256612356958, 196.4637339492955, 1064.283927795145]
	[-194.2587965450253, 196.9734041070136, 1063.372399748302]
	[-194.2129714149173, 196.6510512304047, 1063.972508742116]
	[-194.212102452156, 196.8112132805661, 1063.727810281478]
	[-194.1655941569939, 196.8924424818201, 1063.606234589615]
	[-194.3435199861898, 196.6714038527886, 1063.951323216508]
	[-194.1037360258505, 196.6562403415323, 1064.076676269827]
	[-194.2520399277409, 196.8026642339192, 1063.703670876896]
	[-194.2513003902907, 196.6206094168541, 1064.048743752672]
	[-194.3058871965561, 196.5531741803082, 1064.146693459354]
	[-194.2298162512265, 196.7068286937733, 1063.915690937402]
	[-194.2899065492211, 196.5896291808301, 1064.080405774794]
	[-194.3413666678808, 196.4766504823902, 1064.239592653158]
	[-194.3074598446013, 196.4851049520216, 1064.267932734437]
	[-194.4010304199518, 196.5096545703279, 1064.098910712949]
	[-194.1633297030874, 196.6516932042659, 1064.038065250433]
	[-194.3714499010911, 196.609552521807, 1064.022601032727]
	[-194.2587965450253, 196.9734041070136, 1063.372399748302]
	[-194.234660017691, 196.6645182081904, 1063.963247316483]
	[-194.3408168700198, 196.6368568868512, 1063.99545284316]
	[-194.2209794064434, 196.6561255774265, 1063.962872861369]
	[-194.4667509063765, 196.7626478128024, 1063.802449737583]
	[-194.257289264371, 196.6262181932677, 1064.07696765729]
	[-194.2753533026593, 196.5804745363236, 1064.119534006636]
	[-194.279607326518, 196.7091769282233, 1063.913134445144]
	[-194.1958438092061, 196.9510307030373, 1063.494136446076]
	[-194.1752994026477, 196.3640806547313, 1064.491927797044]
	[-194.3058871965561, 196.5531741803082, 1064.146693459354]
	[-194.1612938919527, 196.7639758211556, 1063.81293823148]
	[-194.2801068218293, 196.9026667368784, 1063.558096915661]
	[-194.1762248294007, 196.7287040757957, 1063.877795200186]
	[-194.3129516565353, 196.6986495199389, 1063.92421487207]
	[-194.3030356113676, 196.6667083860792, 1063.919938435054]
	[-194.3714499010911, 196.609552521807, 1064.022601032727]
	[-194.2298162512265, 196.7068286937733, 1063.915690937402]
	[-194.3955805395875, 196.7855727522999, 1063.660653520035]
	[-194.191879056481, 196.736609742907, 1063.840334614058]
	[-194.3074598446013, 196.4851049520216, 1064.267932734437]
	[-194.1167004625878, 196.733236611984, 1063.916424413052]
	[-194.2589393419948, 196.6254588170475, 1064.039605419482]
	[-194.1057390973995, 197.0839256838955, 1063.275850218174]
	[-194.366769102832, 196.4243349145859, 1064.292624160081]
	[-194.2291843304969, 196.8548280290482, 1063.644484994634]
	[-194.2427130235591, 196.7838598577301, 1063.755189782428]
	[-194.227044949665, 196.7759332846384, 1063.792729995354]
	[-194.1762248294007, 196.7287040757957, 1063.877795200186]
	[-194.3058871965561, 196.5531741803082, 1064.146693459354]
	[-194.3030356113676, 196.6667083860792, 1063.919938435054]
	[-194.2513003902907, 196.6206094168541, 1064.048743752672]
	[-194.227044949665, 196.7759332846384, 1063.792729995354]
	[-194.1457134499383, 196.7560530498162, 1063.850404795044]
	[-194.2141428360833, 196.6989225902708, 1063.953147875185]
	[-194.2347622510014, 196.7622621631999, 1063.812996236852]
	[-194.2801068218293, 196.9026667368784, 1063.558096915661]
	[-194.1762248294007, 196.7287040757957, 1063.877795200186]
	[-194.1612938919527, 196.7639758211556, 1063.81293823148]
	[-194.191879056481, 196.736609742907, 1063.840334614058]
	[-194.1795315220334, 196.8415320365291, 1063.655678930872]
	[-194.1831298505822, 196.5358417496851, 1064.161321394704]
	[-194.2052695035266, 196.6482679879478, 1064.000233208722]
	[-194.227044949665, 196.7759332846384, 1063.792729995354]
	[-194.2719501012214, 196.7025141671025, 1063.87922450444]
	[-194.3714499010911, 196.609552521807, 1064.022601032727]
	[-194.3437438158585, 196.5232049326085, 1064.222230359937]
	[-194.0143384967918, 196.8726452553033, 1063.703767512752]
	[-194.1999721641595, 196.5739965844364, 1064.13272436559]
	[-194.2979827685395, 196.2841167438762, 1064.588086859316]
	[-194.2355739892683, 196.6127538014256, 1064.086090435384]
	[-194.2884290354756, 196.65754780942, 1063.9591502062]
	[-194.3058871965561, 196.5531741803082, 1064.146693459354]
	[-194.1413954587038, 196.9590988547173, 1063.496374789246]
	[-194.2141428360833, 196.6989225902708, 1063.953147875185]
	[-194.3058871965561, 196.5531741803082, 1064.146693459354]
	[-194.3129516565353, 196.6986495199389, 1063.92421487207]
	[-194.5658601388824, 196.8945528159264, 1063.473523817193]
	[-194.1762248294007, 196.7287040757957, 1063.877795200186]
	[-194.0751626741638, 196.7564927616079, 1063.889910042027]
	[-194.191879056481, 196.736609742907, 1063.840334614058]
	[-194.3333677353796, 196.5277481380689, 1064.1943972729]
	[-194.3539531275251, 196.7139359239957, 1063.83483730414]
	[-194.170046079389, 196.458768177777, 1064.321284959745]
	[-194.4208703158586, 197.0604770687753, 1063.24350798499]
	[-194.2936363131059, 196.6159999400687, 1064.01267948937]
	[-194.3915413971354, 196.7793553133482, 1063.734596567009]
	[-194.17097192584, 196.6409786742899, 1063.976860232659]
	[-194.2801068218293, 196.9026667368784, 1063.558096915661]
	[-194.1564812096013, 196.7820309449297, 1063.844482710577]
	[-194.3074598446013, 196.4851049520216, 1064.267932734437]
	[-194.2291843304969, 196.8548280290482, 1063.644484994634]
	[-194.2129714149173, 196.6510512304047, 1063.972508742116]
	[-194.1831298505822, 196.5358417496851, 1064.161321394704]
	[-194.1091704013381, 196.7481634349384, 1063.861387881455]
	[-194.3305403521024, 196.5942338080143, 1064.111868538517]
	[-194.1633297030874, 196.6516932042659, 1064.038065250433]
	[-194.2128467471349, 196.6390848142247, 1064.077616254945]
	[-194.2212605085298, 196.5046724542065, 1064.238695734235]
	[-194.227044949665, 196.7759332846384, 1063.792729995354]
	[-194.2141428360833, 196.6989225902708, 1063.953147875185]
	[-194.1474607818292, 196.7176394413869, 1063.937906321558]
	[-194.159045141772, 196.9400986636624, 1063.472060122134]
	[-194.2959886897718, 197.0921399455777, 1063.174711692315]
	[-194.1633297030874, 196.6516932042659, 1064.038065250433]
	[-194.2298162512265, 196.7068286937733, 1063.915690937402]
	[-194.3112304877773, 196.3613653863682, 1064.428115374807]
	[-194.2094272555979, 196.8801646503743, 1063.604833417513]
	[-194.0751626741638, 196.7564927616079, 1063.889910042027]
	[-194.257289264371, 196.6262181932677, 1064.07696765729]
	[-194.3393334986298, 196.7047545217346, 1063.874129437095]
	[-194.1762248294007, 196.7287040757957, 1063.877795200186]
	[-194.1091704013381, 196.7481634349384, 1063.861387881455]
	[-194.3878414153182, 196.7992587612306, 1063.640352817085]
	[-194.1349824116434, 197.3510923243581, 1062.767688334766]
	[-194.191879056481, 196.736609742907, 1063.840334614058]
	[-194.2559536020954, 196.4943181072871, 1064.213178637793]
	[-194.2470589889569, 196.6605385714615, 1063.912615628416]
	[-194.2135572579309, 196.8468605307092, 1063.682117394978]
	[-194.4025512414538, 196.5567266507903, 1064.157574385796]
	[-194.5304370876731, 196.8847315731035, 1063.549052581747]
	[-194.3437438158585, 196.5232049326085, 1064.222230359937]
	[-194.2298162512265, 196.7068286937733, 1063.915690937402]
	[-194.1543038115419, 196.450994632287, 1064.358388135539]
	[-194.2042887425472, 196.4488991599904, 1064.29511247784]
	[-194.1244467402333, 196.9153727241161, 1063.579999951568]
	[-194.2293975731698, 197.1961564426997, 1062.945793442565]
	[-194.2427494684377, 196.417221047509, 1064.373146829253]
	[-194.2427130235591, 196.7838598577301, 1063.755189782428]
	[-194.2186009969818, 196.5739320497821, 1064.11585034542]
	[-194.2034815133471, 196.7604671707833, 1063.775099183116]
	[-194.3282030736071, 196.3994202727674, 1064.399816575766]
	[-194.2513003902907, 196.6206094168541, 1064.048743752672]
	[-194.2884290354756, 196.65754780942, 1063.9591502062]
	[-194.1972647222472, 196.6431956178904, 1064.009859788751]
	[-194.1762248294007, 196.7287040757957, 1063.877795200186]
	[-194.2485864951685, 196.6897880122404, 1063.925810866384]
	[-194.1604224254233, 196.7947523066686, 1063.777269484915]
	[-194.2141428360833, 196.6989225902708, 1063.953147875185]
	[-194.3135181048292, 196.390350080335, 1064.438746144825]
	[-194.1457134499383, 196.7560530498162, 1063.850404795044]
	[-194.6422197287471, 196.5736581038359, 1064.071304825836]
	[-194.2141428360833, 196.6989225902708, 1063.953147875185]
	[-194.1842602839853, 196.5661615633125, 1064.169992364826]
	[-194.1612938919527, 196.7639758211556, 1063.81293823148]
	[-194.2343530109266, 196.5817465476517, 1064.078586664995]
	[-194.1586255756893, 196.8329484343998, 1063.690029696223]
	[-194.1762248294007, 196.7287040757957, 1063.877795200186]
	[-194.1701851865471, 196.7111609286071, 1063.95474784273]
	[-194.1633297030874, 196.6516932042659, 1064.038065250433]
	[-194.1972647222472, 196.6431956178904, 1064.009859788751]
	[-194.1143716396372, 196.8897153824772, 1063.562776902682]
	[-194.257289264371, 196.6262181932677, 1064.07696765729]
	[-194.2129714149173, 196.6510512304047, 1063.972508742116]
	[-194.3568098231486, 196.6003935804152, 1064.061803812109]
	[-194.2052695035266, 196.6482679879478, 1064.000233208722]
	[-194.3435199861898, 196.6714038527886, 1063.951323216508]
	[-194.2298162512265, 196.7068286937733, 1063.915690937402]
	[-194.2858201488978, 196.809490819656, 1063.727784878321]
	[-194.2198404156277, 197.0108275048926, 1063.360534043658]
	[-194.1543038115419, 196.450994632287, 1064.358388135539]
	[-194.3583883462507, 196.5323452258507, 1064.183110932724]
	[-194.1954736376793, 196.7553930932135, 1063.784752220008]
	[-194.176745529143, 196.802096256414, 1063.740348786238]
	[-194.3602912402545, 196.7133223151915, 1063.839806662654]
	[-194.1387563543257, 196.8808068367253, 1063.644148122432]
	[-194.3451429424936, 196.6034143329418, 1064.072656731871]
	[-194.212102452156, 196.8112132805661, 1063.727810281478]
	[-194.191879056481, 196.736609742907, 1063.840334614058]
	[-194.2928284717415, 196.4759855741009, 1064.3069720493]
	[-194.3539531275251, 196.7139359239957, 1063.83483730414]
	[-194.1674423771447, 196.7803008159019, 1063.831721530902]
	[-194.233033424158, 196.4805765782359, 1064.345643127878]
	[-194.1623044557959, 196.509404580776, 1064.276727638725]
	[-194.2079767311693, 196.5790704617036, 1064.123107200469]
	[-194.1206867231859, 196.9286866788533, 1063.6370168022]
	[-194.3691255077182, 196.3107274186333, 1064.518801278366]
	[-194.2838819427055, 196.9216841754752, 1063.502075703167]
	[-194.3058871965561, 196.5531741803082, 1064.146693459354]
	[-194.2291843304969, 196.8548280290482, 1063.644484994634]
	[-194.1762248294007, 196.7287040757957, 1063.877795200186]
	[-194.3393334986298, 196.7047545217346, 1063.874129437095]
	[-194.4240575882432, 196.1574577952241, 1064.828990311547]
	[-194.2643076715159, 196.6976641803821, 1063.888381002731]
	[-194.1752184351798, 196.7666448626247, 1063.851938582503]
	[-194.3262505734618, 196.6276813555746, 1064.03466130421]
	[-194.2472773642096, 196.9851030152809, 1063.3523418788]
	[-194.2136464164948, 196.8329005779096, 1063.627645313662]
	[-194.2343530109266, 196.5817465476517, 1064.078586664995]
	[-194.2427130235591, 196.7838598577301, 1063.755189782428]
	[-194.1682775204954, 196.4143958934086, 1064.447786470043]
	[-194.4291724948808, 196.5560040487356, 1064.07668597089]
	[-194.1421769235486, 196.8110949908646, 1063.767972685503]
	[-194.3568098231486, 196.6003935804152, 1064.061803812109]
	[-194.208929805677, 196.6665563112827, 1063.945470112772]
	[-194.1794781305283, 196.9298454639881, 1063.571040869355]
	[-194.314942574186, 196.4743053257284, 1064.206911231527]
	[-194.1710332540927, 196.8531957691383, 1063.710870997875]
	[-194.2298162512265, 196.7068286937733, 1063.915690937402]
	[-194.5972643072475, 196.750088037132, 1063.695553700023]
	[-194.1999721641595, 196.5739965844364, 1064.13272436559]
	[-194.1167004625878, 196.733236611984, 1063.916424413052]
	[-194.2250774988249, 196.8881132265204, 1063.567205977544]
	[-194.3701444400591, 196.9049516720388, 1063.449467567789]
	[-194.1254785831097, 196.7554866484849, 1063.824546320939]
	[-194.2401483304396, 196.4865550457687, 1064.250330513125]
	[-194.1999721641595, 196.5739965844364, 1064.13272436559]
	[-194.1667857279653, 196.9111872881988, 1063.543183395048]
	[-194.1762248294007, 196.7287040757957, 1063.877795200186]
	[-194.2858201488978, 196.809490819656, 1063.727784878321]
	[-194.2141428360833, 196.6989225902708, 1063.953147875185]
	[-194.2094272555979, 196.8801646503743, 1063.604833417513]
	[-194.3002761667154, 196.3699385960276, 1064.413339658585]
	[-194.3437438158585, 196.5232049326085, 1064.222230359937]
	[-194.4557010670354, 196.903045597142, 1063.48913914724]
	[-194.227044949665, 196.7759332846384, 1063.792729995354]
	[-194.343773716222, 196.7681902658484, 1063.736917896852]
	[-194.1762248294007, 196.7287040757957, 1063.877795200186]
