	[-217.6036773663371, 197.0024457543305, 1063.542845004171]
	[-217.6036773663371, 197.0024457543305, 1063.542845004171]
	[-217.8760500893422, 196.7922564495634, 1063.865978157979]
	[-217.5892246854726, 197.0865634252885, 1063.409195496578]
	[-217.5019875027531, 197.577224441894, 1062.536868769886]
	[-218.0148984808428, 197.065608334631, 1063.204448077865]
	[-217.4779551839358, 197.3992867490606, 1062.848807808021]
	[-217.5402500562024, 196.8467682493161, 1063.890869364485]
	[-217.5869341294719, 197.227608645487, 1063.11568691225]
	[-217.9541176281285, 197.0721529833648, 1063.2219182519]
	[-217.2681963249265, 197.0776205748942, 1063.463929315454]
	[-217.6988081011615, 197.0944980991914, 1063.315135922636]
	[-217.9117735005102, 196.7388179746603, 1063.939891034728]
	[-217.72269309885, 196.8094181032411, 1063.857354536902]
	[-217.79672814242, 196.9889963497868, 1063.47665950072]
	[-218.0468547458756, 196.9853049690923, 1063.389829494357]
	[-217.7644119172362, 197.0428092817654, 1063.382221886048]
	[-217.7348552726004, 197.4870183360316, 1062.583647569048]
	[-217.408146832508, 197.4615790772577, 1062.760114170158]
	[-217.7360925626461, 197.0051547224297, 1063.492535581326]
	[-217.9498932997406, 197.0646129020591, 1063.234251250858]
	[-217.4913914352172, 197.0126900092897, 1063.519841868307]
	[-217.7644119172362, 197.0428092817654, 1063.382221886048]
	[-217.6926807774421, 197.170790835021, 1063.172655121789]
	[-217.64908504708, 197.1387890506678, 1063.261172910726]
	[-217.9229084241105, 196.8971408178663, 1063.576170088077]
	[-217.7554811220909, 197.3007084135075, 1062.889045563759]
	[-218.0914860416243, 196.8808359163088, 1063.522668143868]
	[-217.758904004858, 196.8116939557793, 1063.82607277153]
	[-217.7385683395164, 196.9810472389473, 1063.525268790635]
	[-217.7419328920101, 197.0388897717879, 1063.420079735791]
	[-217.9891256681356, 196.8053552574418, 1063.724546681253]
	[-217.6540482030993, 196.9177816331803, 1063.696941086726]
	[-217.9882174930572, 197.1429066468411, 1063.098254152196]
	[-217.8343504664365, 197.3287955000027, 1062.798463601399]
	[-218.1021633430165, 196.8860763276366, 1063.515785396474]
	[-217.5920142724474, 197.2158221500366, 1063.13898046401]
	[-217.5384755899375, 197.2440374653699, 1063.115439375554]
	[-217.9984654821621, 196.785476853763, 1063.7553020941]
	[-217.5092942169424, 196.7795122822959, 1063.932695891172]
	[-217.8112798061919, 196.8947737061664, 1063.669729856798]
	[-217.4253113943097, 197.4654333132189, 1062.742904515718]
	[-217.205764550802, 197.1457137801861, 1063.375757310697]
	[-217.762232222068, 196.9845923373985, 1063.556245209609]
	[-217.8839627880481, 196.8530795722636, 1063.688323598262]
	[-218.060685762838, 196.7957180186375, 1063.70611515288]
	[-218.1298318405604, 196.6615542852096, 1063.930479659376]
	[-217.7060026227413, 197.2036068147869, 1063.139837922129]
	[-217.8839627880481, 196.8530795722636, 1063.688323598262]
	[-217.64908504708, 197.1387890506678, 1063.261172910726]
	[-218.0080373896105, 197.04697589951, 1063.301232732455]
	[-217.7747877107912, 196.9832875675276, 1063.493978845161]
	[-217.7425166567004, 197.0370882374651, 1063.399543878617]
	[-217.5869341294719, 197.227608645487, 1063.11568691225]
	[-217.7809250666791, 196.817430063898, 1063.808699646769]
	[-217.7771785895369, 196.8791771115836, 1063.693513614104]
	[-217.8732461039833, 196.8450046054296, 1063.716721462931]
	[-217.4716159239059, 197.391492277228, 1062.876381674329]
	[-217.7896702066391, 197.0133878768913, 1063.474968370962]
	[-217.9123662596682, 197.0209493823468, 1063.346810176971]
	[-217.8297874158172, 196.9025038734457, 1063.632408137121]
	[-217.560060648147, 197.0598491700943, 1063.458473854036]
	[-217.6087262332882, 197.2333307117159, 1063.098417706364]
	[-217.7532606079658, 197.1243259122479, 1063.286003037791]
	[-217.7503701891364, 197.3125006996314, 1062.865712565363]
	[-217.9678966859665, 196.8687999093701, 1063.622431153551]
	[-217.505532405394, 197.4527090737391, 1062.768544804044]
	[-217.9000820248311, 196.6275843625868, 1064.114009070621]
	[-217.927415655549, 196.7955155578377, 1063.772670527973]
	[-217.720786069489, 197.1002495263692, 1063.297728351151]
	[-217.79672814242, 196.9889963497868, 1063.47665950072]
	[-217.7721905019974, 197.3184994669901, 1062.84791642194]
	[-217.7280257616749, 197.2094653191536, 1063.12220889715]
	[-217.7534773227481, 196.8438699420044, 1063.864387699191]
	[-217.9204095517734, 196.5965042626994, 1064.156871238217]
	[-218.1158983243153, 197.0629739156103, 1063.22829711619]
	[-217.5228038483826, 197.4352705387776, 1062.785171269734]
	[-217.6087458206842, 197.3156838231917, 1062.98520776975]
	[-218.0120408623996, 197.074793827717, 1063.185051232825]
	[-217.927415655549, 196.7955155578377, 1063.772670527973]
	[-218.1032152046617, 196.9921162799188, 1063.34731563211]
	[-217.9498932997406, 197.0646129020591, 1063.234251250858]
	[-217.5499786336226, 197.3938562004732, 1062.855732096699]
	[-218.0502814885398, 196.9449470095009, 1063.453923084741]
	[-217.9663170837094, 196.8394285262407, 1063.660853953793]
	[-217.8041549177817, 197.0469132139343, 1063.351443343727]
	[-218.0119697745156, 196.6644117305089, 1063.999194812795]
	[-217.720618619027, 197.0052070179992, 1063.504716080882]
	[-217.4926079616321, 197.3858352909533, 1062.904100910532]
	[-218.0914860416243, 196.8808359163088, 1063.522668143868]
	[-217.833810658105, 196.9543005469744, 1063.561890427985]
	[-217.9975738005551, 196.6421846592894, 1064.040120447141]
	[-217.8839627880481, 196.8530795722636, 1063.688323598262]
	[-217.6954764135166, 197.1162639153211, 1063.334610105168]
	[-217.9800174111706, 196.3194360130587, 1064.652013357532]
	[-217.6246903169007, 196.9823596085785, 1063.563962994466]
	[-217.5005690626719, 197.3468830326939, 1062.99801180108]
	[-217.7384539262766, 197.1498230623889, 1063.234450567491]
	[-217.6852441581696, 197.0293341428983, 1063.447359243205]
	[-217.6988081011615, 197.0944980991914, 1063.315135922636]
	[-217.8880228906397, 197.1693493947018, 1063.117647022696]
	[-217.7335611676782, 196.7499708687393, 1063.968293623852]
	[-217.891515166688, 196.9623158977926, 1063.513387686568]
	[-218.0229271605058, 196.8642993954313, 1063.600562537377]
	[-217.6988081011615, 197.0944980991914, 1063.315135922636]
	[-217.6810552085066, 197.0855708967417, 1063.354747413822]
	[-217.6615192361297, 197.0513136634374, 1063.426612740877]
	[-218.134906924426, 196.8231030708802, 1063.607350741247]
	[-217.8263593263555, 196.8452730500603, 1063.736368549828]
	[-217.7919485637746, 196.6654273485484, 1064.106107168627]
	[-217.8297874158172, 196.9025038734457, 1063.632408137121]
	[-217.9923225171948, 196.6074561582669, 1064.163232459558]
	[-217.927415655549, 196.7955155578377, 1063.772670527973]
	[-217.7425166567004, 197.0370882374651, 1063.399543878617]
	[-217.6880770074073, 197.0201653148945, 1063.466710914453]
	[-217.5158462931934, 197.6450283635246, 1062.382952165247]
	[-217.6993339961403, 196.9251251034742, 1063.610749462197]
	[-217.7228865991416, 196.7733813241836, 1063.934735541561]
	[-217.6763679733903, 197.0905559229875, 1063.353028930178]
	[-217.7088933357351, 197.1944197364611, 1063.159255095545]
	[-217.7747877107912, 196.9832875675276, 1063.493978845161]
	[-218.0120408623996, 197.074793827717, 1063.185051232825]
	[-217.5298010123109, 197.219860202303, 1063.163426814247]
	[-217.559888885858, 197.2690470042138, 1063.045244126553]
	[-217.8650390696807, 196.8887450677813, 1063.625425710774]
	[-217.7919485637746, 196.6654273485484, 1064.106107168627]
	[-218.0990649532654, 196.9904523837938, 1063.346832236254]
	[-217.8839627880481, 196.8530795722636, 1063.688323598262]
	[-217.9062172956677, 197.1221905938764, 1063.149508315449]
	[-217.927415655549, 196.7955155578377, 1063.772670527973]
	[-217.5986163504629, 197.5055562723385, 1062.563622944639]
	[-217.559888885858, 197.2690470042138, 1063.045244126553]
	[-217.927415655549, 196.7955155578377, 1063.772670527973]
	[-217.7547228219652, 196.8752960825827, 1063.731208816103]
	[-217.7009170164167, 196.7679568395777, 1063.951521589418]
	[-217.6250292269704, 197.3053304392641, 1062.980637965514]
	[-217.9078838421748, 196.7369575518534, 1063.939524606705]
	[-217.927415655549, 196.7955155578377, 1063.772670527973]
	[-217.7644119172362, 197.0428092817654, 1063.382221886048]
	[-217.8263593263555, 196.8452730500603, 1063.736368549828]
	[-217.6617363723838, 197.2626045770062, 1063.052673612802]
	[-217.4036550718749, 197.4597029700846, 1062.760119525809]
	[-217.7363592339779, 196.8078818968547, 1063.863642990837]
	[-217.6414003503504, 197.0866782266357, 1063.363123046979]
	[-217.9551393472335, 196.843205352379, 1063.670657230231]
	[-217.8263593263555, 196.8452730500603, 1063.736368549828]
	[-217.5298010123109, 197.219860202303, 1063.163426814247]
	[-218.0148984808428, 197.065608334631, 1063.204448077865]
	[-218.116949954594, 196.6165997411217, 1064.035339393522]
	[-217.8338482679128, 196.9044404162769, 1063.632550010161]
	[-217.7937362943938, 196.1783124686121, 1064.934343738669]
	[-217.6036773663371, 197.0024457543305, 1063.542845004171]
	[-217.9451625019578, 196.4868500422596, 1064.393715881617]
	[-217.6988081011615, 197.0944980991914, 1063.315135922636]
	[-218.2627610198381, 196.6343632451789, 1063.918215253071]
	[-217.927415655549, 196.7955155578377, 1063.772670527973]
	[-217.5534333440254, 196.7638207643948, 1064.025996981003]
	[-217.864151825375, 196.7962510999442, 1063.852487220244]
	[-217.6617363723838, 197.2626045770062, 1063.052673612802]
	[-217.8699470422304, 196.7877754417891, 1063.820543144192]
	[-217.9448845672397, 197.0361125075006, 1063.352015614214]
	[-218.169265599991, 196.7933378011825, 1063.707914013046]
	[-217.7799942309663, 196.8431170777676, 1063.776452863186]
	[-218.0990649532654, 196.9904523837938, 1063.346832236254]
	[-217.5161112161698, 197.0095983395794, 1063.578375343589]
	[-217.7644119172362, 197.0428092817654, 1063.382221886048]
	[-217.4480253553601, 197.4446200550163, 1062.817091554023]
	[-217.7686205662711, 196.7953228129892, 1063.857014398696]
	[-217.7384539262766, 197.1498230623889, 1063.234450567491]
	[-217.7425166567004, 197.0370882374651, 1063.399543878617]
	[-218.1211745222219, 196.996546981606, 1063.328711982198]
	[-217.6896267446554, 197.0903511611803, 1063.332039276896]
	[-217.6736943126237, 197.0329131197315, 1063.457580390331]
	[-217.6366626843171, 196.5287088993613, 1064.331041538048]
	[-217.7747877107912, 196.9832875675276, 1063.493978845161]
	[-217.7624631867809, 197.4100586029555, 1062.712663546477]
	[-217.7531848873359, 197.0464528523454, 1063.392204829888]
	[-217.4056277014998, 197.4944213832052, 1062.738799246637]
	[-217.9456964166966, 196.8629718154313, 1063.640091406894]
	[-217.657924435823, 196.8613749665372, 1063.789740245083]
	[-217.4857808124355, 197.2770638909502, 1063.079168184313]
	[-217.8654450785481, 196.8521802765179, 1063.703755294059]
	[-217.8157885770148, 196.8372915787847, 1063.764528777279]
	[-217.8112798061919, 196.8947737061664, 1063.669729856798]
	[-217.9821924904472, 197.0108073658428, 1063.328739705347]
	[-218.2627610198381, 196.6343632451789, 1063.918215253071]
	[-218.0410355058664, 196.9819034320956, 1063.39657732376]
	[-217.9760787555597, 196.8329416369984, 1063.737642576822]
	[-217.3606037338952, 197.2001927612008, 1063.294436980422]
	[-218.0905330388947, 196.5077321658197, 1064.22944419054]
	[-217.7771785895369, 196.8791771115836, 1063.693513614104]
	[-217.4462656108025, 197.3643527803639, 1062.947382942594]
	[-217.5869341294719, 197.227608645487, 1063.11568691225]
	[-217.5326276021992, 197.1092760962914, 1063.388224227135]
	[-217.7388637244499, 196.547541888122, 1064.36020981801]
	[-217.8016102105003, 196.9534351635146, 1063.559539692298]
	[-217.9475480388681, 197.1815017497347, 1063.018340110704]
	[-218.2759714122672, 196.5293934577039, 1064.082197722936]
	[-217.5376246547437, 197.4125152400984, 1062.824149946997]
	[-217.2111735247595, 197.6071645644185, 1062.589366844854]
	[-217.8267985009343, 196.6967352037359, 1064.032941712238]
	[-217.8041549177817, 197.0469132139343, 1063.351443343727]
	[-217.4937286514323, 197.3285778359385, 1062.978103579027]
	[-217.8732461039833, 196.8450046054296, 1063.716721462931]
	[-217.7747877107912, 196.9832875675276, 1063.493978845161]
	[-217.8119840656494, 196.7377314193394, 1063.941345397391]
	[-217.5979096513723, 197.346774603436, 1062.910128149916]
	[-217.9102614570385, 197.1189781357307, 1063.171904028732]
	[-217.9541854321192, 196.6566456464005, 1064.04723120488]
	[-217.5326276021992, 197.1092760962914, 1063.388224227135]
	[-217.8372662619803, 196.8507731407992, 1063.728948298224]
	[-217.8035051397938, 196.7760589967566, 1063.856927204781]
	[-217.5907560605101, 196.9396495337465, 1063.636057951391]
	[-217.64908504708, 197.1387890506678, 1063.261172910726]
	[-217.7073029853467, 197.181651323277, 1063.188909688424]
	[-217.823642653263, 196.7856649355695, 1063.860519326784]
	[-217.5348737173894, 197.0474976740257, 1063.513996131769]
	[-217.4447581152056, 197.1547001456358, 1063.303707751179]
	[-217.9069236625322, 197.1807409275451, 1063.055680695608]
	[-217.6420314816446, 197.0802604435527, 1063.408084948413]
	[-217.6603425659671, 197.0597338332623, 1063.406765776819]
	[-217.438238746618, 197.0026991850562, 1063.651190651823]
	[-217.4720359378602, 197.4749195639628, 1062.707068941267]
	[-217.6678747865254, 197.5865654827882, 1062.434942561613]
	[-217.914187848919, 196.8268495345459, 1063.792444343701]
	[-217.8277494728309, 196.7903565518268, 1063.871406467]
	[-217.5369438221381, 196.7912481360587, 1063.97606537262]
	[-217.8633663456919, 196.9633304884605, 1063.511292158185]
	[-217.7644119172362, 197.0428092817654, 1063.382221886048]
	[-217.6971980765731, 197.0883146503459, 1063.325392037618]
	[-217.6003523095942, 197.5094355172393, 1062.595951493647]
	[-217.5405892505697, 197.3027711740287, 1062.940469141831]
	[-217.7442259291165, 196.839532970019, 1063.831879179357]
	[-217.1999779152322, 197.2167262565616, 1063.332948340104]
	[-217.5126471161895, 197.3261599849853, 1062.97552999665]
	[-217.8723813878437, 197.2404579041351, 1062.997916250623]
	[-217.576557312732, 197.1577050012293, 1063.261678390437]
	[-217.4209149415123, 197.2347835714651, 1063.188111460172]
	[-217.6796419545493, 197.2076876826477, 1063.127950350888]
	[-217.3810797838544, 197.3707929649409, 1062.983371264716]
	[-217.5846856080017, 197.3430116667672, 1062.902154248897]
	[-217.553498979587, 197.4507925099695, 1062.753407894876]
	[-217.7626233517464, 197.1248715091031, 1063.261723018413]
	[-217.5797609817601, 197.3193503316777, 1063.00202251112]
	[-217.5410843269447, 197.5912390183156, 1062.443403786063]
	[-217.3265639734649, 197.4570815662078, 1062.824268882798]
	[-217.6750699677158, 197.1341023230168, 1063.264821103535]
	[-217.4602577899575, 197.55840397014, 1062.602016969434]
	[-217.409807255294, 197.3615735631584, 1062.93031619131]
	[-217.4726139864137, 197.4571789180388, 1062.765761527248]
	[-217.7407338400056, 196.8208046085222, 1063.823566320302]
	[-217.2473786322308, 197.2188371182314, 1063.18221505927]
	[-217.4114456304405, 197.226859548024, 1063.271618266394]
	[-217.5723652189725, 197.1133997707766, 1063.357476903559]
	[-217.5722057340222, 197.5640732395268, 1062.520960029985]
	[-217.4035959451436, 197.1870261690135, 1063.325257124188]
	[-217.7062359150385, 197.4772483597152, 1062.639099485732]
	[-217.8873739662166, 197.2357107889238, 1062.961337142496]
	[-217.5909675475539, 197.1318276805952, 1063.281689701422]
	[-217.39992049521, 197.2518290508118, 1063.195927088032]
	[-217.6040542961499, 197.3997793025607, 1062.767928462864]
	[-217.8689885450328, 197.2413370935252, 1062.974020507783]
	[-217.6129018255216, 197.2499793379548, 1063.112286365246]
	[-217.3986490012164, 197.548468737103, 1062.650378683171]
	[-217.4441434031667, 197.4864590154766, 1062.720099587235]
	[-217.5411005068585, 197.1790669784469, 1063.263040316812]
	[-217.2157659370307, 197.8064268590105, 1062.26204061946]
	[-217.8445478857297, 196.9915707952877, 1063.443901326664]
	[-217.3974237980868, 197.7070123338161, 1062.377766012639]
	[-217.6819530559022, 197.4595006105057, 1062.773230316353]
	[-217.844872056753, 197.5632148341635, 1062.424775812562]
	[-217.7109177825654, 197.403219220556, 1062.687698450278]
	[-217.5446784678038, 197.1661100368334, 1063.253492853558]
	[-217.4577001987, 197.1630660892925, 1063.328214068764]
	[-217.191257022753, 197.6690055923499, 1062.531580334828]
	[-217.3353426707828, 197.3656651868032, 1063.031966847327]
	[-217.453858921036, 197.447510260089, 1062.841659432729]
	[-217.5519613157006, 197.3924310689014, 1062.822396818401]
	[-217.48701032387, 197.7755753425998, 1062.142899022384]
	[-217.3247530969558, 197.5422726997103, 1062.713979202095]
	[-217.4070042681675, 197.6965451400603, 1062.320475967559]
	[-217.3527844312344, 197.2494556005266, 1063.236921378598]
	[-217.5441000102095, 197.1343164909616, 1063.371739346765]
	[-217.5297585795451, 197.3416863713888, 1062.95409355106]
	[-217.4211710239627, 197.7052798605545, 1062.306035290984]
	[-217.5775235224919, 197.1432150636686, 1063.283647731311]
	[-217.3213488594017, 197.655113684886, 1062.458753708028]
	[-217.4129311460038, 197.3411796561902, 1063.051079291857]
	[-217.2630920771266, 197.7435034404275, 1062.325976293385]
	[-217.5998798758208, 196.9059103133413, 1063.733169688486]
	[-217.5127212397357, 197.2753355241545, 1063.106693789291]
	[-217.6486650153499, 197.1405759703341, 1063.281534680223]
	[-217.7051293721815, 197.4793381279658, 1062.571137425277]
	[-217.3307202879853, 197.5762256285251, 1062.55057232412]
	[-217.6135513226297, 196.5367141439208, 1064.326724151399]
	[-217.4044089854368, 197.4827556519573, 1062.751050377462]
	[-217.3659859941464, 197.4427008486451, 1062.854906602494]
	[-217.3516228792495, 197.3390322766061, 1063.036809387258]
	[-217.353413852759, 197.0480847301175, 1063.539178519635]
	[-217.4680381782698, 197.0984625387304, 1063.415714865898]
	[-217.6466888977286, 197.1516858001861, 1063.225449489985]
	[-217.5362269189945, 197.2168975920187, 1063.150170783148]
	[-217.453943494637, 197.2027478828977, 1063.251795403564]
	[-217.0811534952493, 197.6535000990124, 1062.576877833548]
	[-217.6034596191722, 197.291651918699, 1063.041705536441]
	[-217.5468910898168, 197.6777522173232, 1062.275373095708]
	[-217.6752029482216, 197.3976382988574, 1062.764794762863]
	[-217.8104291097484, 197.4261799424032, 1062.650163645371]
	[-217.3777294234999, 197.5784197636436, 1062.578109931847]
	[-217.9163307599034, 196.8044585207181, 1063.757728819138]
	[-217.5362269189945, 197.2168975920187, 1063.150170783148]
	[-217.3234695455582, 197.5774459588714, 1062.560790153302]
	[-217.4602577899575, 197.55840397014, 1062.602016969434]
	[-217.2471725237011, 197.6716663656057, 1062.444148725449]
	[-217.3775226923221, 197.6903939366333, 1062.337102887476]
	[-217.5899641922272, 197.4295032197618, 1062.735153357326]
	[-217.3993864785278, 197.6638214463509, 1062.411266707465]
	[-217.6279370832389, 197.3949871527942, 1062.806547060834]
	[-217.2594471134552, 197.7554221317752, 1062.337111744151]
	[-217.4701351731302, 197.7712971833927, 1062.159900416567]
	[-217.5556605442534, 197.4868519070719, 1062.608654139287]
	[-217.3735478143956, 197.3452199758208, 1063.019529487614]
	[-217.5154807044848, 197.3342895426146, 1062.960878432749]
	[-217.8191003482016, 197.0144729868192, 1063.434710261307]
	[-217.5847598907463, 197.2215987964499, 1063.144637649879]
	[-217.529661884125, 197.3799049701782, 1062.882015870724]
	[-217.5730564733325, 197.1373635653216, 1063.298156423297]
	[-217.4503178034457, 197.2506108172256, 1063.010557370035]
	[-217.3825358042317, 197.4766090160908, 1062.768261984319]
	[-217.5231094601901, 197.7084797714143, 1062.218960420656]
	[-217.3642389788077, 197.6429191595166, 1062.484065956721]
	[-217.5470315235152, 196.915633461521, 1063.751120531109]
	[-217.2267770238277, 197.123655185618, 1063.397873596699]
	[-217.4680237414897, 197.3700458602259, 1062.930195385306]
	[-217.7862253440237, 197.3762696134209, 1062.729808938805]
	[-217.6587705831745, 197.5134018651831, 1062.543166778013]
	[-217.5161842879645, 197.7490056762406, 1062.272195578033]
	[-217.2911793227033, 197.5715674859927, 1062.618661345228]
	[-217.5854579481596, 197.2535590240339, 1063.102396952249]
	[-217.498519784405, 197.3384040918713, 1062.975860885956]
	[-217.6524537998434, 197.1395682644778, 1063.248569195726]
	[-217.4689371711238, 197.5949015897208, 1062.444063042609]
	[-217.9567213774501, 196.9854540699275, 1063.416007412289]
	[-217.689042985311, 197.0297434919952, 1063.428811896048]
	[-217.6587705831745, 197.5134018651831, 1062.543166778013]
	[-217.2471725237011, 197.6716663656057, 1062.444148725449]
	[-217.1562281819827, 197.4490655836628, 1062.94730034963]
	[-217.5556605442534, 197.4868519070719, 1062.608654139287]
	[-217.5672068278734, 197.607985868134, 1062.394191870936]
	[-217.6438049298, 197.4552339359662, 1062.658683656283]
	[-217.8806364136345, 196.9486715014948, 1063.519242970682]
	[-217.2619459723101, 197.5677087289146, 1062.608710548724]
	[-217.4072725997551, 197.5826826136357, 1062.518866088221]
	[-217.3098559492256, 197.2239880738046, 1063.16452694882]
	[-217.9159571476101, 197.0119082851645, 1063.426782416491]
	[-217.458552774371, 197.3823055759905, 1062.884588185169]
	[-217.3498986171132, 197.3703456071948, 1062.973258131641]
	[-217.4644728073538, 197.5824037481021, 1062.501783006988]
	[-217.2614216536713, 197.6790469170421, 1062.43738716757]
	[-217.2471725237011, 197.6716663656057, 1062.444148725449]
	[-217.8457731476485, 197.2721587499507, 1062.917621350842]
	[-217.6587705831745, 197.5134018651831, 1062.543166778013]
	[-217.4124222529387, 197.1957256023911, 1063.174773503113]
	[-217.3340035460392, 197.5636651708556, 1062.608885397161]
	[-217.3353917266681, 197.4742732014659, 1062.809293196848]
	[-217.2471725237011, 197.6716663656057, 1062.444148725449]
	[-217.7333367077769, 197.3802995563106, 1062.765530315531]
	[-217.1187159764231, 197.3767884573308, 1063.006254442186]
	[-217.6587705831745, 197.5134018651831, 1062.543166778013]
	[-217.6929427598676, 197.4271874108767, 1062.746589318906]
	[-217.451052379726, 197.3235049125384, 1062.988435988248]
	[-217.2810220538794, 197.5190860009685, 1062.75461488085]
	[-217.6032550440331, 197.3630364084798, 1062.837581933536]
	[-217.7764614771927, 197.26293169899, 1062.977410928567]
	[-217.3969630137132, 197.3725686327279, 1062.932495593762]
	[-217.3659859941464, 197.4427008486451, 1062.854906602494]
	[-217.3516228792495, 197.3390322766061, 1063.036809387258]
	[-217.5372353299847, 197.3787285961284, 1062.871556839634]
	[-217.6582654343145, 196.8020829835851, 1063.895898955483]
	[-217.2471725237011, 197.6716663656057, 1062.444148725449]
	[-217.7845457534069, 197.0074124262669, 1063.445700685304]
	[-217.5556605442534, 197.4868519070719, 1062.608654139287]
	[-217.5274112954505, 197.3909356994209, 1062.826203004993]
	[-217.5896644787233, 197.5041666451046, 1062.602895209901]
	[-217.5535557373691, 197.5712145425173, 1062.527317577355]
	[-217.7584826275672, 197.3021990661036, 1062.870426470133]
	[-217.5896644787233, 197.5041666451046, 1062.602895209901]
	[-217.2471725237011, 197.6716663656057, 1062.444148725449]
	[-217.3299585518836, 197.4761637777144, 1062.814845650482]
	[-217.5439144288561, 197.27566980351, 1063.046395120642]
	[-217.6724428854232, 197.7254127523673, 1062.100533773853]
	[-217.3986490012164, 197.548468737103, 1062.650378683171]
	[-217.2630920771266, 197.7435034404275, 1062.325976293385]
	[-217.5513548278961, 197.2743993866777, 1063.036154837748]
	[-217.9734839672191, 197.1057472823259, 1063.209990577506]
	[-217.4720359378602, 197.4749195639628, 1062.707068941267]
	[-217.2868853702404, 197.5613116140624, 1062.649957611872]
	[-217.115113527437, 197.3888466288824, 1063.017142109218]
	[-217.5274112954505, 197.3909356994209, 1062.826203004993]
	[-217.4366573281865, 197.4276293699876, 1062.824164547778]
	[-217.4187627353548, 197.3786215344267, 1062.915488241053]
	[-217.2331381031008, 197.0448111131346, 1063.590221860405]
	[-217.3340035460392, 197.5636651708556, 1062.608885397161]
	[-217.4678297148632, 197.5573191378889, 1062.591407287999]
	[-217.4516610566416, 197.4852903190944, 1062.709662127559]
	[-217.1945927905239, 197.671215539805, 1062.490781091118]
	[-217.5968050676623, 197.0942710391234, 1063.429447783915]
	[-217.3986490012164, 197.548468737103, 1062.650378683171]
	[-217.5468910898168, 197.6777522173232, 1062.275373095708]
	[-217.4140473850804, 197.1476275651599, 1063.359809145813]
	[-217.3140395731032, 197.4601531123836, 1062.836583590655]
	[-217.6587705831745, 197.5134018651831, 1062.543166778013]
	[-217.5692169852225, 197.2353089127177, 1063.142810367717]
	[-217.2484592784945, 197.4131868058433, 1062.959114986957]
	[-217.4678297148632, 197.5573191378889, 1062.591407287999]
	[-217.2149298499968, 197.5654715769765, 1062.649503814683]
	[-217.7287115600988, 197.0358564744218, 1063.417511001516]
	[-217.3986490012164, 197.548468737103, 1062.650378683171]
	[-217.5317044964939, 197.4062324013385, 1062.843053212577]
	[-217.5122867641012, 197.3468426935922, 1062.9025545131]
	[-217.7444372567868, 197.1428261068877, 1063.206026709714]
	[-217.3934978787948, 197.7624843404624, 1062.218359472407]
	[-217.4991420450185, 197.0408678671413, 1063.521260716803]
	[-217.6374576251225, 197.2478320851047, 1063.076456483004]
	[-217.3969630137132, 197.3725686327279, 1062.932495593762]
	[-217.7553409468229, 196.6269607774879, 1064.162618118482]
	[-217.1317674906308, 197.2917767379108, 1063.197179737906]
	[-217.5410843269447, 197.5912390183156, 1062.443403786063]
	[-217.6067091435964, 197.5082792998567, 1062.586101308696]
	[-217.3160982616495, 197.6803891749914, 1062.385537078216]
	[-217.381748502926, 197.4400992600865, 1062.837532832248]
	[-217.691425239598, 197.4697892990422, 1062.646389514392]
	[-217.724246509633, 197.257897339559, 1063.020191212273]
	[-217.4821246267134, 197.453658867782, 1062.755430041169]
	[-217.6057917387467, 197.5762824495761, 1062.484383884971]
	[-217.7538244484814, 197.2406368142049, 1063.0417725507]
	[-217.7918558752377, 197.3712102554037, 1062.73548893725]
	[-217.6872878564764, 197.2065145865643, 1063.117434873912]
	[-217.3340035460392, 197.5636651708556, 1062.608885397161]
	[-217.7706787934803, 197.2750480968063, 1062.954245145608]
	[-217.2471725237011, 197.6716663656057, 1062.444148725449]
	[-217.3825358042317, 197.4766090160908, 1062.768261984319]
	[-217.4542014641282, 197.6992048392133, 1062.278701456235]
	[-217.6208252604695, 197.3588919651589, 1062.881954334463]
	[-217.6749496570201, 197.5856866273265, 1062.42428345788]
	[-217.39992049521, 197.2518290508118, 1063.195927088032]
	[-217.4603431892266, 197.1132880746959, 1063.388135607303]
	[-217.6752029482216, 197.3976382988574, 1062.764794762863]
	[-217.3969630137132, 197.3725686327279, 1062.932495593762]
	[-217.453943494637, 197.2027478828977, 1063.251795403564]
	[-217.3825358042317, 197.4766090160908, 1062.768261984319]
	[-217.3353917266681, 197.4742732014659, 1062.809293196848]
	[-217.4542014641282, 197.6992048392133, 1062.278701456235]
	[-217.5162495026956, 197.245079874282, 1063.160712326884]
	[-217.4528013460051, 197.4995339357166, 1062.706264408803]
	[-217.4516610566416, 197.4852903190944, 1062.709662127559]
	[-217.4542014641282, 197.6992048392133, 1062.278701456235]
	[-217.7706787934803, 197.2750480968063, 1062.954245145608]
	[-217.3969630137132, 197.3725686327279, 1062.932495593762]
	[-217.5634409998495, 197.2474214912256, 1063.119665945558]
	[-217.2471725237011, 197.6716663656057, 1062.444148725449]
	[-217.5410843269447, 197.5912390183156, 1062.443403786063]
	[-217.4542014641282, 197.6992048392133, 1062.278701456235]
	[-217.4542014641282, 197.6992048392133, 1062.278701456235]
	[-217.7443945603352, 197.4068758569005, 1062.705028068415]
	[-217.3895088658264, 197.425277205661, 1062.865234414553]
	[-217.2471725237011, 197.6716663656057, 1062.444148725449]
	[-217.6748884346303, 197.031186473828, 1063.442841977165]
	[-217.7663399724713, 197.4108397537532, 1062.667462739613]
	[-217.7918558752377, 197.3712102554037, 1062.73548893725]
	[-217.8559527854029, 197.1682374317367, 1063.116080754677]
	[-217.5200385317396, 197.3320103900342, 1062.930234945192]
	[-217.2868853702404, 197.5613116140624, 1062.649957611872]
	[-217.2471725237011, 197.6716663656057, 1062.444148725449]
	[-217.2185259980467, 197.4445563852609, 1062.788506239072]
	[-217.6790250623494, 197.1088373296762, 1063.327190023984]
	[-217.6887388100897, 197.1849761844016, 1063.203312476826]
	[-217.680894368301, 197.4056251507623, 1062.737461368087]
	[-217.4344141813389, 197.1168373782935, 1063.402521013313]
	[-217.7349692918749, 197.2871400171839, 1062.999700819461]
	[-217.6630857792713, 197.4157473103356, 1062.734193089063]
	[-217.8774774173657, 196.9288570624128, 1063.590738218274]
	[-217.7276000133136, 197.0001307652313, 1063.510707618313]
	[-217.7706787934803, 197.2750480968063, 1062.954245145608]
	[-218.0111745234958, 196.9736055339858, 1063.410171058875]
	[-217.7454399512465, 197.4209381078242, 1062.702073291021]
	[-217.3257453228794, 197.0547142890753, 1063.532923933787]
	[-217.5410843269447, 197.5912390183156, 1062.443403786063]
	[-217.490028891774, 197.3739070688026, 1062.892891201784]
	[-217.5326276021992, 197.1092760962914, 1063.388224227135]
	[-217.4366573281865, 197.4276293699876, 1062.824164547778]
	[-217.4441434031667, 197.4864590154766, 1062.720099587235]
	[-217.428892395035, 197.4424549149126, 1062.79645487935]
	[-217.5218635250096, 197.3420641015481, 1062.933341362586]
	[-217.5410843269447, 197.5912390183156, 1062.443403786063]
	[-217.4680237414897, 197.3700458602259, 1062.930195385306]
	[-217.6267725824546, 197.1348914901819, 1063.298775229912]
	[-217.5764281538167, 197.1480992999107, 1063.316889411426]
	[-217.842755365714, 197.1058629759787, 1063.208669481933]
	[-217.1991395208208, 197.4710712949569, 1062.803936427281]
	[-218.0569199830672, 196.7029969483268, 1063.912605349083]
	[-217.4441434031667, 197.4864590154766, 1062.720099587235]
	[-217.6630857792713, 197.4157473103356, 1062.734193089063]
	[-217.3999626038343, 197.2986045863786, 1063.049010001914]
	[-217.6524537998434, 197.1395682644778, 1063.248569195726]
	[-217.4542014641282, 197.6992048392133, 1062.278701456235]
	[-217.510530728333, 197.5462824960827, 1062.565776921023]
	[-217.4072021176652, 197.4367404661302, 1062.813653093729]
	[-217.7695518973399, 197.3529296300221, 1062.789044269592]
	[-217.4542014641282, 197.6992048392133, 1062.278701456235]
	[-217.5556605442534, 197.4868519070719, 1062.608654139287]
	[-217.6207525608379, 197.0220004287854, 1063.486087439718]
	[-217.6320100083071, 197.0935133870739, 1063.340201868955]
	[-217.4814140348354, 197.3472350649483, 1062.94655127258]
	[-217.521988907866, 197.3211031625232, 1062.98600919727]
	[-217.5154807044848, 197.3342895426146, 1062.960878432749]
	[-217.2649682959555, 197.447168794805, 1062.87244801246]
	[-217.7133539413944, 197.0827534795756, 1063.345795375817]
	[-217.5072673934254, 197.1489168118437, 1063.320432516584]
	[-217.5513548278961, 197.2743993866777, 1063.036154837748]
	[-217.5587418427802, 197.3668180786185, 1062.871396968951]
	[-217.8095406258961, 196.7949874239964, 1063.88947355664]
	[-217.650873849045, 197.4775187943656, 1062.623657701352]
	[-217.3825358042317, 197.4766090160908, 1062.768261984319]
	[-217.7291665272786, 197.2602814289612, 1063.019160141616]
	[-217.6100796345574, 197.6005163152444, 1062.383623947445]
	[-217.9833110905749, 196.716218244445, 1063.925043582691]
	[-217.1026698549651, 197.3050943521493, 1063.123279880193]
	[-217.3160982616495, 197.6803891749914, 1062.385537078216]
	[-217.6014521444357, 197.1382303942361, 1063.322590879748]
	[-217.549238528054, 197.2496272848431, 1063.108017709611]
	[-217.4606071252016, 197.2603212302834, 1063.111309701827]
	[-217.3028607352432, 197.6330951047904, 1062.532105779767]
	[-217.3234695455582, 197.5774459588714, 1062.560790153302]
	[-217.5909675475539, 197.1318276805952, 1063.281689701422]
	[-217.8602665151354, 197.258822295929, 1062.966891798798]
	[-217.5108511981452, 197.2261048616067, 1063.163481030342]
	[-217.8962915192944, 197.0571024707914, 1063.264015031906]
	[-217.3997319104107, 197.3621394599505, 1062.987783929601]
	[-217.4603431892266, 197.1132880746959, 1063.388135607303]
	[-217.6087262332882, 197.2333307117159, 1063.098417706364]
	[-217.7402910291771, 197.1532320283232, 1063.185088280617]
	[-217.7452666029081, 197.4419524437862, 1062.649206720003]
	[-217.4980095411668, 197.4511757067577, 1062.737769547983]
	[-217.5288924038488, 197.609578439379, 1062.412262652546]
	[-217.5680189476474, 197.4982253656487, 1062.620497779762]
	[-217.5062119196029, 197.4458491811986, 1062.774998986146]
	[-217.2198907590054, 197.1897505742771, 1063.403267040801]
	[-217.6587705831745, 197.5134018651831, 1062.543166778013]
	[-217.79672814242, 196.9889963497868, 1063.47665950072]
	[-217.2256169421448, 197.6659436702125, 1062.461293270253]
	[-217.6103531583993, 197.250256280597, 1063.078859156879]
	[-217.6533925107952, 197.2453953136772, 1063.058743019744]
	[-217.8782187328012, 197.1722129626745, 1063.07827401848]
	[-218.0089839034764, 196.9811652207542, 1063.394003152547]
	[-217.4450195590377, 197.5143626604368, 1062.678521744617]
	[-217.6752029482216, 197.3976382988574, 1062.764794762863]
	[-217.2471725237011, 197.6716663656057, 1062.444148725449]
	[-217.3218211426748, 197.5820053822219, 1062.577755235258]
	[-217.8016102105003, 196.9534351635146, 1063.559539692298]
	[-217.6237371588765, 197.1421295680803, 1063.285008785429]
	[-217.6360317436753, 197.4700632439906, 1062.630951231099]
	[-217.4462156215853, 197.2175752156612, 1063.22417634333]
	[-217.2471725237011, 197.6716663656057, 1062.444148725449]
	[-217.428892395035, 197.4424549149126, 1062.79645487935]
	[-217.5797609817601, 197.3193503316777, 1063.00202251112]
	[-217.6709398786758, 197.1444998357773, 1063.243894907102]
	[-217.5154807044848, 197.3342895426146, 1062.960878432749]
	[-217.9870448342855, 196.9752335754081, 1063.411737579794]
	[-217.6971989785181, 197.4015506858191, 1062.727324883569]
	[-217.428892395035, 197.4424549149126, 1062.79645487935]
	[-217.8261275175103, 197.052723260277, 1063.333918427292]
	[-217.6971989785181, 197.4015506858191, 1062.727324883569]
	[-217.7226713288292, 197.3619331203566, 1062.795341161882]
	[-217.6914723649768, 197.206108788952, 1063.147196951717]
	[-217.5941352338242, 196.9178987937485, 1063.710380139281]
	[-217.7000608260435, 197.1332138712914, 1063.260810220762]
	[-217.6709398786758, 197.1444998357773, 1063.243894907102]
	[-217.3340035460392, 197.5636651708556, 1062.608885397161]
	[-217.7363592339779, 196.8078818968547, 1063.863642990837]
	[-217.9217396361276, 197.36538834821, 1062.761913663596]
	[-217.3123860383817, 197.5579451637325, 1062.626057013455]
	[-217.8781143759993, 197.174645197124, 1063.098213072109]
	[-217.428892395035, 197.4424549149126, 1062.79645487935]
	[-217.547323941755, 197.2892780741, 1063.034468278716]
	[-217.6347364552532, 196.9726817910826, 1063.602988131225]
	[-217.6532034469826, 197.128396084021, 1063.282095402964]
	[-217.5283531805954, 197.3284455108178, 1062.959487551153]
	[-217.5195183383728, 197.5852739552765, 1062.461016989773]
	[-217.5326276021992, 197.1092760962914, 1063.388224227135]
	[-217.3340035460392, 197.5636651708556, 1062.608885397161]
	[-217.6625907196404, 197.0362887424588, 1063.445406472882]
	[-217.6138191622235, 197.221539424795, 1063.121714919698]
	[-217.7450189161591, 197.2924653403817, 1062.917910042379]
	[-217.4683081590834, 197.3681879397114, 1062.91011592737]
	[-217.4905011584328, 197.4523224353954, 1062.748247835107]
	[-217.7225361009704, 197.1390512710875, 1063.242921202083]
	[-217.6870268669636, 197.2993842806159, 1062.949017011318]
	[-217.6750699677158, 197.1341023230168, 1063.264821103535]
	[-217.4516610566416, 197.4852903190944, 1062.709662127559]
	[-217.3218211426748, 197.5820053822219, 1062.577755235258]
	[-217.8803850663919, 196.65758423228, 1064.08007501452]
	[-217.4680237414897, 197.3700458602259, 1062.930195385306]
	[-217.3340035460392, 197.5636651708556, 1062.608885397161]
	[-217.7226713288292, 197.3619331203566, 1062.795341161882]
	[-217.8698419645652, 197.0636011994084, 1063.280752145782]
	[-217.3340035460392, 197.5636651708556, 1062.608885397161]
	[-217.7443945603352, 197.4068758569005, 1062.705028068415]
	[-217.7563640731421, 197.2770172409753, 1062.943065761437]
	[-217.490028891774, 197.3739070688026, 1062.892891201784]
	[-217.6532034469826, 197.128396084021, 1063.282095402964]
	[-217.4174744254054, 197.359093161558, 1062.957659620318]
	[-217.5896644787233, 197.5041666451046, 1062.602895209901]
	[-217.2703223394294, 196.9739873266234, 1063.711442445422]
	[-217.5629667945663, 197.3769712010818, 1062.840387739957]
	[-217.428892395035, 197.4424549149126, 1062.79645487935]
	[-217.6592100593304, 197.3996733716706, 1062.755106998785]
	[-217.3302683297615, 197.3142391303379, 1063.094312413618]
	[-217.749789428427, 197.2515217684903, 1062.958935996284]
	[-217.521988907866, 197.3211031625232, 1062.98600919727]
	[-217.2471725237011, 197.6716663656057, 1062.444148725449]
	[-217.5154807044848, 197.3342895426146, 1062.960878432749]
	[-217.6143934965382, 197.4641031604053, 1062.648591061102]
	[-217.5410843269447, 197.5912390183156, 1062.443403786063]
	[-217.6849392716384, 197.0401358050543, 1063.407921001579]
	[-217.8265679062335, 196.6588266449875, 1064.066619031144]
	[-217.5525881778382, 197.3092957988225, 1062.982362190377]
	[-217.4475014156656, 197.5890237776286, 1062.461452256367]
	[-217.7078748985294, 197.2544674750493, 1063.036271170643]
	[-217.6255955725487, 197.0081829652664, 1063.525524229388]
	[-217.8728627805166, 197.2890160354584, 1062.841285732865]
	[-217.8084068464448, 197.1504824658945, 1063.115248840715]
	[-217.7226713288292, 197.3619331203566, 1062.795341161882]
	[-217.3382906883305, 197.573932856594, 1062.577561398242]
	[-217.3825358042317, 197.4766090160908, 1062.768261984319]
	[-217.3382906883305, 197.573932856594, 1062.577561398242]
	[-217.7433238442243, 197.2651417467896, 1062.932805052757]
	[-217.5066092853359, 197.3227254712904, 1062.976726606294]
	[-217.8333173302765, 196.9004452423702, 1063.652439821574]
	[-217.8559527854029, 197.1682374317367, 1063.116080754677]
	[-217.6566587678876, 197.1459448842651, 1063.25810343892]
	[-217.3659357141381, 197.2348294897441, 1063.200908699989]
	[-217.3465819093641, 196.7468925958379, 1064.01507171031]
	[-217.7226713288292, 197.3619331203566, 1062.795341161882]
	[-217.8438563859021, 197.1866028404331, 1063.085085807549]
	[-217.7354322557705, 197.1567822778032, 1063.175964903498]
	[-217.2049814141936, 197.1688662390195, 1063.33804038478]
	[-217.7103329846126, 197.3805925897772, 1062.763778537553]
	[-217.3307202879853, 197.5762256285251, 1062.55057232412]
	[-217.924118467267, 197.0142576576783, 1063.336613050755]
	[-217.2794405682695, 197.343048343975, 1063.036659061264]
	[-217.5353528123606, 197.3878777485812, 1062.854736754938]
	[-217.2471725237011, 197.6716663656057, 1062.444148725449]
	[-217.2619459723101, 197.5677087289146, 1062.608710548724]
	[-217.5896644787233, 197.5041666451046, 1062.602895209901]
	[-217.3340035460392, 197.5636651708556, 1062.608885397161]
	[-217.3123860383817, 197.5579451637325, 1062.626057013455]
	[-217.2649682959555, 197.447168794805, 1062.87244801246]
	[-217.4433204475632, 197.3383288310301, 1062.960766108675]
	[-217.5380695052316, 197.4140288287153, 1062.815452970646]
	[-217.6342811079362, 197.0068107198007, 1063.515181624826]
	[-217.8782187328012, 197.1722129626745, 1063.07827401848]
	[-217.6709398786758, 197.1444998357773, 1063.243894907102]
	[-217.6581628389732, 197.3507623368768, 1062.823754815836]
	[-217.7805018033753, 197.306087309339, 1062.833014543118]
	[-217.53617727595, 197.2378221124716, 1063.097623490589]
	[-217.5680189476474, 197.4982253656487, 1062.620497779762]
	[-217.5764776455271, 197.0457221956604, 1063.49280786266]
	[-217.5634409998495, 197.2474214912256, 1063.119665945558]
	[-217.6202066374647, 197.5115350672857, 1062.545967140554]
	[-217.6154532159375, 196.987339019513, 1063.572245279288]
	[-217.5449042863193, 197.6817056414619, 1062.293540027732]
	[-217.3486172155538, 197.459624327666, 1062.773335989967]
	[-217.5162495026956, 197.245079874282, 1063.160712326884]
	[-217.6510535598003, 196.9654212768541, 1063.591667072291]
	[-217.4680237414897, 197.3700458602259, 1062.930195385306]
	[-217.5154807044848, 197.3342895426146, 1062.960878432749]
	[-217.5553619555543, 197.3795758912543, 1062.812792541953]
	[-217.6469004033322, 197.3885631771455, 1062.742532392944]
	[-217.3160982616495, 197.6803891749914, 1062.385537078216]
	[-217.0305475848839, 197.3095256767731, 1063.122241867058]
	[-217.8334220332774, 196.8986657640343, 1063.632410028271]
	[-217.4249037491087, 197.4576178908169, 1062.823056080643]
	[-217.2471725237011, 197.6716663656057, 1062.444148725449]
	[-217.3160982616495, 197.6803891749914, 1062.385537078216]
	[-217.7115063321469, 197.0960627633873, 1063.314746280278]
	[-217.4851717020254, 197.1451499922566, 1063.357488536717]
	[-217.4542014641282, 197.6992048392133, 1062.278701456235]
	[-217.4010393855805, 197.145291887631, 1063.2918578786]
	[-217.6466888977286, 197.1516858001861, 1063.225449489985]
	[-217.3835825783527, 197.5292465658525, 1062.673683441971]
	[-217.3659859941464, 197.4427008486451, 1062.854906602494]
	[-217.6754054882344, 197.3592620440874, 1062.837140056224]
	[-217.3969630137132, 197.3725686327279, 1062.932495593762]
	[-217.5996242214671, 197.2036159720424, 1063.188462621783]
	[-217.4666690857425, 197.1867998232267, 1063.266889672894]
	[-217.0573290702414, 197.5463484009385, 1062.770603252048]
	[-217.4447542373287, 197.13855998932, 1063.390112466873]
	[-217.751213205583, 197.3551729781018, 1062.802648593887]
	[-217.5117298139178, 197.140127704084, 1063.339869732876]
	[-217.5470201028355, 197.3428268507513, 1062.970768308493]
	[-217.4217841450928, 197.4784042303384, 1062.68387516136]
	[-217.2619459723101, 197.5677087289146, 1062.608710548724]
	[-217.3353917266681, 197.4742732014659, 1062.809293196848]
	[-217.3246348609037, 197.753438159103, 1062.277601564074]
	[-217.7432553139714, 196.8882354144609, 1063.743167619937]
	[-217.7588447525557, 197.263718185046, 1062.942695922642]
	[-217.7112336918414, 197.1642760524609, 1063.156802476389]
	[-217.6749496570201, 197.5856866273265, 1062.42428345788]
	[-217.6587705831745, 197.5134018651831, 1062.543166778013]
	[-217.4094367446295, 197.4575963380403, 1062.824049075614]
	[-217.3175685177858, 197.5297522799181, 1062.695605264181]
	[-217.4542014641282, 197.6992048392133, 1062.278701456235]
	[-217.6536317031109, 197.5338278334787, 1062.559275505205]
	[-217.6288379339487, 197.7338252057223, 1062.13797741791]
	[-217.7947090632044, 197.5071538560365, 1062.508089569311]
	[-217.6730150224723, 197.4088076755795, 1062.708674440026]
	[-217.5453628565104, 197.6015292608909, 1062.411999977008]
	[-217.2471725237011, 197.6716663656057, 1062.444148725449]
	[-217.6477817153514, 197.4153344399734, 1062.735858110123]
	[-217.283593664322, 197.5737905391212, 1062.591722097615]
	[-217.5255023113085, 197.4686665131076, 1062.724341930632]
	[-217.2694323607737, 197.3932228780405, 1062.980231096842]
	[-217.2848292682722, 197.7497576477688, 1062.308625587892]
	[-217.6749496570201, 197.5856866273265, 1062.42428345788]
	[-217.7213221159703, 197.5516710219526, 1062.452204106536]
	[-217.6611285231988, 197.2305641146603, 1063.086384961825]
	[-217.4542014641282, 197.6992048392133, 1062.278701456235]
	[-217.3065719218516, 197.757896418323, 1062.295752412459]
	[-217.3825358042317, 197.4766090160908, 1062.768261984319]
	[-217.3299585518836, 197.4761637777144, 1062.814845650482]
	[-217.3599356624995, 197.5754761209193, 1062.593277392375]
	[-217.2778801653223, 197.6401319724118, 1062.489853629593]
	[-217.5304114416377, 197.1409866790957, 1063.324425476976]
	[-217.3861682927835, 197.3697829865727, 1063.002802754844]
	[-217.5071019783181, 197.5047292059639, 1062.674944251067]
	[-217.4516610566416, 197.4852903190944, 1062.709662127559]
	[-217.429209208794, 197.4529883778323, 1062.802544719664]
	[-217.2630920771266, 197.7435034404275, 1062.325976293385]
	[-217.3307202879853, 197.5762256285251, 1062.55057232412]
	[-217.8098596112505, 197.0565288678312, 1063.363506026048]
	[-217.627759989561, 197.5827799706178, 1062.466443753499]
	[-217.308714075673, 197.6815161548624, 1062.395973416539]
	[-217.5932769207447, 197.2832223420421, 1063.004311763536]
	[-217.5760721146216, 197.3490189537643, 1062.954376528945]
	[-217.6023688450359, 197.3816163832298, 1062.840596497358]
	[-217.2711042224496, 196.8657581140989, 1063.857223425682]
	[-217.4187627353548, 197.3786215344267, 1062.915488241053]
	[-217.620200625339, 197.4724834289198, 1062.648730377556]
	[-217.5376994314967, 197.6039706344327, 1062.384796205791]
	[-217.5424198547524, 197.5015198734706, 1062.644637910599]
	[-217.3672210619949, 197.5929988713746, 1062.528733859058]
	[-217.6011860867976, 197.7912063741944, 1062.049918294903]
	[-217.3341180561041, 197.1663893894596, 1063.374550866067]
	[-217.09513767036, 197.6276060287072, 1062.637975719159]
	[-217.4542014641282, 197.6992048392133, 1062.278701456235]
	[-217.5088275050619, 197.3599078130965, 1062.911836387428]
	[-217.5740169183863, 197.1724764135731, 1063.236746420279]
	[-217.2471725237011, 197.6716663656057, 1062.444148725449]
	[-217.5200366102156, 197.4437198557752, 1062.758657361198]
	[-217.6674831450377, 197.1407596209984, 1063.223501653171]
	[-217.3969630137132, 197.3725686327279, 1062.932495593762]
	[-217.0466703804333, 197.3817505291737, 1063.004389640419]
	[-217.5376994314967, 197.6039706344327, 1062.384796205791]
	[-217.8231211422512, 197.2496635313796, 1062.982276991139]
	[-217.3969630137132, 197.3725686327279, 1062.932495593762]
	[-217.274707672881, 197.5796500505419, 1062.618831527297]
	[-217.7227284264022, 197.502295221708, 1062.585501315901]
	[-217.5057943006342, 197.4363418611264, 1062.765489759478]
	[-218.1103013335561, 196.9373987779587, 1063.427059001258]
	[-217.2619459723101, 197.5677087289146, 1062.608710548724]
	[-217.465937207021, 197.3810430676056, 1062.8743693756]
	[-217.3483451063006, 197.3516182810317, 1062.978499083433]
	[-217.4070042681675, 197.6965451400603, 1062.320475967559]
	[-217.3160982616495, 197.6803891749914, 1062.385537078216]
	[-217.3969630137132, 197.3725686327279, 1062.932495593762]
	[-217.5832716134672, 197.1311051715367, 1063.306757231722]
	[-217.3986490012164, 197.548468737103, 1062.650378683171]
	[-217.5117188281426, 197.3847505636736, 1062.899575200832]
	[-217.2619459723101, 197.5677087289146, 1062.608710548724]
	[-217.5582754275507, 197.1984628460933, 1063.192479499326]
	[-217.4174799755007, 197.4681421943436, 1062.71515868683]
	[-217.3307202879853, 197.5762256285251, 1062.55057232412]
	[-217.3969630137132, 197.3725686327279, 1062.932495593762]
	[-217.6129018255216, 197.2499793379548, 1063.112286365246]
	[-217.6636281680696, 197.4874950330248, 1062.617540120036]
	[-217.3482108827067, 197.0633055707234, 1063.495916172722]
	[-217.5040216466087, 197.1287196041573, 1063.356536003646]
	[-217.5568864536823, 197.3972454617442, 1062.809401537483]
	[-217.4187627353548, 197.3786215344267, 1062.915488241053]
	[-217.4450195590377, 197.5143626604368, 1062.678521744617]
	[-217.3353917266681, 197.4742732014659, 1062.809293196848]
	[-217.3521285564724, 197.4821917256194, 1062.79747919512]
	[-217.4848881092357, 197.6675828068998, 1062.32457292091]
	[-217.465937207021, 197.3810430676056, 1062.8743693756]
	[-217.465937207021, 197.3810430676056, 1062.8743693756]
	[-217.8250301475524, 197.2377102984707, 1063.039895555706]
	[-217.2688938845498, 197.6778413641755, 1062.426956333789]
	[-217.274707672881, 197.5796500505419, 1062.618831527297]
	[-217.5896644787233, 197.5041666451046, 1062.602895209901]
	[-217.6752029482216, 197.3976382988574, 1062.764794762863]
	[-217.3307202879853, 197.5762256285251, 1062.55057232412]
	[-217.3474132006824, 197.2513408039181, 1063.242437162625]
	[-217.2116692481186, 197.6736905044125, 1062.476511178815]
	[-217.3483451063006, 197.3516182810317, 1062.978499083433]
	[-217.7632885362505, 196.9014371991655, 1063.657137672885]
	[-217.7706787934803, 197.2750480968063, 1062.954245145608]
	[-217.465937207021, 197.3810430676056, 1062.8743693756]
	[-217.2338925076879, 197.5166091415944, 1062.795853111146]
	[-217.3307202879853, 197.5762256285251, 1062.55057232412]
	[-217.5599880927721, 197.4971110490881, 1062.577335283924]
	[-217.7847245100808, 197.1704933071498, 1063.11902654219]
	[-217.4371449022324, 197.3039310996666, 1063.099202806583]
	[-217.5424198547524, 197.5015198734706, 1062.644637910599]
	[-217.8143573025811, 197.2898007444609, 1062.923462923768]
	[-217.4516610566416, 197.4852903190944, 1062.709662127559]
	[-217.2619459723101, 197.5677087289146, 1062.608710548724]
	[-217.3307202879853, 197.5762256285251, 1062.55057232412]
	[-217.4516610566416, 197.4852903190944, 1062.709662127559]
	[-217.4746845356144, 197.4548370356505, 1062.765821893338]
	[-217.5040216466087, 197.1287196041573, 1063.356536003646]
	[-217.4826628057427, 197.2278344710723, 1063.165897171427]
	[-217.3164826571856, 197.3955980295739, 1062.939238837319]
	[-217.3969630137132, 197.3725686327279, 1062.932495593762]
	[-217.4542014641282, 197.6992048392133, 1062.278701456235]
	[-217.2619459723101, 197.5677087289146, 1062.608710548724]
	[-217.283593664322, 197.5737905391212, 1062.591722097615]
	[-217.0749574916605, 197.3214745276897, 1063.198402073997]
	[-217.3179028658532, 197.0937816919456, 1063.492734839686]
	[-217.3901196101827, 197.6638762786778, 1062.400095886631]
	[-217.3969630137132, 197.3725686327279, 1062.932495593762]
	[-217.4207662443356, 197.3478104867544, 1062.978137321764]
	[-217.6196117792937, 197.2327871435965, 1063.085077204709]
	[-217.283593664322, 197.5737905391212, 1062.591722097615]
	[-217.4680237414897, 197.3700458602259, 1062.930195385306]
	[-217.2848292682722, 197.7497576477688, 1062.308625587892]
	[-217.4205379227794, 197.5546949183191, 1062.633008674226]
	[-217.3769237119986, 197.6744780854981, 1062.424202934271]
	[-217.2471725237011, 197.6716663656057, 1062.444148725449]
	[-217.7436729150817, 196.9974907487508, 1063.542396339303]
	[-217.9028649510931, 196.9113878181446, 1063.588437283262]
	[-217.7538244484814, 197.2406368142049, 1063.0417725507]
	[-217.3261013236208, 197.4466618695504, 1062.891764398802]
	[-217.4625837145773, 197.3603489471419, 1062.931101185903]
	[-217.8231211422512, 197.2496635313796, 1062.982276991139]
	[-217.4112911341108, 197.3799628089351, 1062.92570131954]
	[-217.7630668722761, 197.390283490741, 1062.704499759961]
	[-217.2331343611334, 196.9733503144043, 1063.828189770176]
	[-217.5196692211389, 197.7205500140004, 1062.229787268889]
	[-217.4534123492191, 197.3771693992331, 1062.898335852229]
	[-217.7127733870747, 196.9298808903436, 1063.64338720377]
	[-217.3957693668479, 197.4969320685419, 1062.766816831077]
	[-217.5403369206493, 198.0209875357615, 1061.710879997455]
	[-217.719375126206, 197.37465811647, 1062.736722901163]
	[-217.308714075673, 197.6815161548624, 1062.395973416539]
	[-217.5710731959002, 197.4065159763478, 1062.794158149105]
	[-217.379099718005, 197.4889685158615, 1062.778689198181]
	[-217.3726756727158, 197.4672390963629, 1062.791409095853]
	[-217.4854767324383, 197.3326724913152, 1063.019391517913]
	[-217.4441434031667, 197.4864590154766, 1062.720099587235]
	[-217.7134579270075, 197.476284713275, 1062.628420549992]
	[-217.3969630137132, 197.3725686327279, 1062.932495593762]
	[-217.7317470276337, 197.4319046746419, 1062.668946142145]
	[-217.6032183148546, 197.4946963945427, 1062.597638035834]
	[-217.3949245049847, 197.5603507918225, 1062.661637704198]
	[-217.4565317392025, 197.4599458193796, 1062.782987049167]
	[-217.4802372316689, 197.3884221025014, 1062.86752203566]
	[-217.4273812332599, 197.4524039878605, 1062.807149598425]
	[-217.4359844759046, 197.1536953527567, 1063.342743900396]
	[-217.3921286093985, 197.5861179394255, 1062.502392945871]
	[-217.2995447812803, 197.646293641682, 1062.472705769287]
	[-217.3307202879853, 197.5762256285251, 1062.55057232412]
	[-217.465937207021, 197.3810430676056, 1062.8743693756]
	[-217.2688938845498, 197.6778413641755, 1062.426956333789]
	[-217.5183228369137, 197.6080832062737, 1062.407431289812]
	[-217.5035225537588, 197.1253862068849, 1063.344335104899]
	[-217.519037742996, 197.2737449398111, 1063.100565740784]
	[-217.4516610566416, 197.4852903190944, 1062.709662127559]
	[-217.506635736202, 197.6740146594161, 1062.306855399743]
	[-217.4205379227794, 197.5546949183191, 1062.633008674226]
	[-217.5239108138837, 197.4039653128063, 1062.835564428277]
	[-217.5736752244329, 197.4053652110777, 1062.797173009297]
	[-217.2149298499968, 197.5654715769765, 1062.649503814683]
	[-217.3987063320047, 197.6139463861774, 1062.54521717887]
	[-217.5896644787233, 197.5041666451046, 1062.602895209901]
	[-217.3775226923221, 197.6903939366333, 1062.337102887476]
	[-217.3832130820456, 197.2178010257703, 1063.28252526965]
	[-217.4516610566416, 197.4852903190944, 1062.709662127559]
	[-217.6587705831745, 197.5134018651831, 1062.543166778013]
	[-217.2264739192046, 197.5697862160204, 1062.640931185413]
	[-217.5088275050619, 197.3599078130965, 1062.911836387428]
	[-217.4746845356144, 197.4548370356505, 1062.765821893338]
	[-217.6661225588461, 197.4098633051145, 1062.718944941723]
	[-217.3340238850021, 197.4559457391935, 1062.813814597132]
	[-217.5530404235935, 196.9917242023645, 1063.577079494657]
	[-217.8671246297369, 196.9672216216739, 1063.496387472874]
	[-217.4358188493998, 197.6017480862353, 1062.470188247041]
	[-217.373881619872, 197.7613756525555, 1062.234829056891]
	[-217.4420974004446, 197.5628115777155, 1062.620309799378]
	[-217.6189555703171, 197.4072365713072, 1062.760620180371]
	[-217.4094367446295, 197.4575963380403, 1062.824049075614]
	[-217.671146271828, 197.5972388058831, 1062.436074405907]
	[-217.3659859941464, 197.4427008486451, 1062.854906602494]
	[-217.3744263817277, 197.5918260000645, 1062.518446601224]
	[-217.4975125497502, 197.1635584026729, 1063.294774380523]
	[-217.5376994314967, 197.6039706344327, 1062.384796205791]
	[-217.3125705598998, 197.6926623760459, 1062.39605120504]
	[-217.9080016742065, 197.2825589315914, 1062.867943158692]
	[-217.518372868219, 197.405832995842, 1062.841210486535]
	[-217.3986490012164, 197.548468737103, 1062.650378683171]
	[-217.3789287779016, 197.5394647133215, 1062.647818081266]
	[-217.2149298499968, 197.5654715769765, 1062.649503814683]
	[-217.3968030916512, 197.4840031660608, 1062.76148222297]
	[-217.3303194531648, 197.6877542640614, 1062.378722805709]
	[-217.4044089854368, 197.4827556519573, 1062.751050377462]
	[-217.627759989561, 197.5827799706178, 1062.466443753499]
	[-217.6902653049584, 197.1841311322625, 1063.136038539583]
	[-217.2759260071127, 197.7635071472365, 1062.325116490632]
	[-217.263156774383, 197.6796889598868, 1062.432754266204]
	[-217.6378923262073, 197.2547885083127, 1063.09179207062]
	[-217.4821246267134, 197.453658867782, 1062.755430041169]
	[-217.3467123821397, 197.6488187587221, 1062.431341371493]
	[-217.3934978787948, 197.7624843404624, 1062.218359472407]
	[-217.489961901563, 197.3761896693542, 1062.912955044019]
	[-217.6730150224723, 197.4088076755795, 1062.708674440026]
	[-217.3462554400456, 197.7597553294938, 1062.260192983613]
	[-217.8448115494035, 197.5053781951842, 1062.463540183249]
	[-217.451052379726, 197.3235049125384, 1062.988435988248]
	[-217.4537062280735, 197.7258308113699, 1062.322571491167]
	[-217.5181079437336, 197.4697980095694, 1062.73480158603]
	[-217.3934986889145, 197.6499037497205, 1062.460666487849]
	[-217.8286092248214, 197.432299676191, 1062.583602961698]
	[-217.5988035878171, 197.2385957894853, 1063.066827693413]
	[-217.6017934916743, 197.3255677779598, 1062.984595002284]
	[-217.7246261586206, 197.2343677497653, 1063.058354399637]
	[-217.4906697449539, 197.6012535852686, 1062.426505154412]
	[-217.3160982616495, 197.6803891749914, 1062.385537078216]
	[-217.5372353299847, 197.3787285961284, 1062.871556839634]
	[-217.6674831450377, 197.1407596209984, 1063.223501653171]
	[-217.4542014641282, 197.6992048392133, 1062.278701456235]
	[-217.2688938845498, 197.6778413641755, 1062.426956333789]
	[-217.5181079437336, 197.4697980095694, 1062.73480158603]
	[-217.3307202879853, 197.5762256285251, 1062.55057232412]
	[-217.1941331647569, 197.5265859674689, 1062.81332749762]
	[-217.5694758472693, 197.20788602534, 1063.117361093012]
	[-217.7129222919573, 197.4645006703544, 1062.59888046055]
	[-217.6962463091177, 197.4299310540631, 1062.686766899513]
	[-217.3825358042317, 197.4766090160908, 1062.768261984319]
	[-217.6730150224723, 197.4088076755795, 1062.708674440026]
	[-217.3613440211196, 197.5911307469782, 1062.570338210071]
	[-217.1562281819827, 197.4490655836628, 1062.94730034963]
	[-217.3825358042317, 197.4766090160908, 1062.768261984319]
	[-217.4644728073538, 197.5824037481021, 1062.501783006988]
	[-217.6587705831745, 197.5134018651831, 1062.543166778013]
	[-217.3775226923221, 197.6903939366333, 1062.337102887476]
	[-217.3936486855789, 197.3857816518252, 1062.941527217109]
	[-217.7368502583188, 197.6432013207982, 1062.227101075003]
	[-217.2630920771266, 197.7435034404275, 1062.325976293385]
	[-217.2619459723101, 197.5677087289146, 1062.608710548724]
	[-217.428892395035, 197.4424549149126, 1062.79645487935]
	[-217.4477537086594, 197.3366907060206, 1062.99751716025]
	[-217.4864706906518, 197.3704519650113, 1062.872079392408]
	[-217.3775226923221, 197.6903939366333, 1062.337102887476]
	[-217.4831509388258, 197.1561546487764, 1063.301662162253]
	[-217.4680237414897, 197.3700458602259, 1062.930195385306]
	[-217.1509708046806, 197.2180080206059, 1063.282039741938]
	[-217.5458713678096, 197.4518848747206, 1062.764039142281]
	[-217.6283440127613, 197.3577839704929, 1062.871386943551]
	[-217.6849392716384, 197.0401358050543, 1063.407921001579]
	[-217.2619459723101, 197.5677087289146, 1062.608710548724]
	[-217.4516610566416, 197.4852903190944, 1062.709662127559]
	[-217.6587705831745, 197.5134018651831, 1062.543166778013]
	[-217.7180165448595, 197.2743006888946, 1063.001504901691]
	[-217.3955020282879, 197.4660140308809, 1062.765376884436]
	[-217.3486172155538, 197.459624327666, 1062.773335989967]
	[-217.3320734362048, 197.7523947714771, 1062.26699293829]
	[-217.5231094601901, 197.7084797714143, 1062.218960420656]
	[-217.2649682959555, 197.447168794805, 1062.87244801246]
	[-217.2000765648199, 197.6693168358043, 1062.485210761863]
	[-217.4275171715279, 197.2534719652084, 1063.060510310927]
	[-217.4680237414897, 197.3700458602259, 1062.930195385306]
	[-217.465937207021, 197.3810430676056, 1062.8743693756]
	[-217.465937207021, 197.3810430676056, 1062.8743693756]
	[-217.3161989913572, 197.6480778136978, 1062.476985113186]
	[-217.5537045857291, 197.6768216130144, 1062.26493156347]
	[-217.6308965533325, 197.2451744958765, 1063.094622874476]
	[-217.674340210861, 197.4235117622684, 1062.704539828226]
	[-217.4190893838845, 197.6444310054766, 1062.43179812972]
	[-217.6057917387467, 197.5762824495761, 1062.484383884971]
	[-217.2000765648199, 197.6693168358043, 1062.485210761863]
	[-217.8526191864359, 197.1684797928631, 1063.093149479829]
	[-217.4140473850804, 197.1476275651599, 1063.359809145813]
	[-217.428892395035, 197.4424549149126, 1062.79645487935]
	[-217.2868271852522, 197.45335942735, 1062.85519700474]
	[-217.2000765648199, 197.6693168358043, 1062.485210761863]
	[-217.3969630137132, 197.3725686327279, 1062.932495593762]
	[-217.6057917387467, 197.5762824495761, 1062.484383884971]
	[-217.6752029482216, 197.3976382988574, 1062.764794762863]
	[-217.5896644787233, 197.5041666451046, 1062.602895209901]
	[-217.5548972593922, 197.2745311398326, 1063.07337476758]

